annee;beneficiaire_adresse;beneficiaire_code_postal;beneficiaire_pays;beneficiaire_ville;categorie_generale;categorie_precise;catégorie_beneficiaire;date;declaration_id;detail;entreprise_émmetrice;filiale_déclarante;identifiant;identifiant_convention;identifiant_entreprise;montant_declare_convention;montant_masque;montant_total_avantages_lies;montant_total_convention;montant_total_remunerations_liees;montant_ttc;nom;nom_prénom;nombre_avantages_lies;nombre_remunerations_liees;profession;prénom;specialité;structure_bénéficiaire;type_declaration;type_identifiant
2016;NEPENTHES DISTRIBUTION 11 RUE DU VIEUX CHATEAU;61270;FRANCE;LES ASPRES;;;Professionnel de santé;06/12/2016;Convention | ZKEJWAGJ | 00000000000000148743;PARTICIPATION A MANIFESTATION SCIENTIFIQUE | Manifestation : 'BPCO QUESTIONS D ACTUALITE' Organisé le : '06/12/2016' À : 'L AIGLE FR'  | Début contrat 06/12/2016;Boehringer Ingelheim;BOEHRINGER INGELHEIM FRANCE;10000917202;Convention | ZKEJWAGJ | 00000000000000148743;ZKEJWAGJ;;True;0.0;0.0;0.0;0.0;GAULARD;GAULARD Genevieve;0.0;0.0;Pharmacien;Genevieve;Autre;;Convention;RPPS
2018;CHS GERARD MARCHANT, 134 ROUTE D ESPAGNE;31057;FRANCE;TOULOUSE CEDEX 1;;;Professionnel de santé;03/05/2018;Convention | FXYBJUOV | 20180807_LUF_933;HOSPITALITE | Manifestation : 'RIM ADDICTION ET SCHIZOPHRENIE' Organisé le : '03/05/2018' À : 'TOULOUSE'  | Début contrat 03/05/2018 Fin contrat 03/05/2018;LUNDBECK SAS;LUNDBECK SAS;[SO];Convention | FXYBJUOV | 20180807_LUF_933;FXYBJUOV;60.0;False;0.0;60.0;0.0;60.0;BAUDRY;BAUDRY Caroline;0.0;0.0;Infirmier;Caroline;;;Convention;AUTRE
2017;PHARMACIE DE BREQUIGNY, RUE DU GOUV GENERAL FELIX EBOUE;35200;FRANCE;RENNES;;;Professionnel de santé;21/03/2017;Convention | IIXRHSGB | RPC-2017-00831_PS-0001395;HOSPITALITE | Manifestation : 'L'antibiothérapie : un enjeu de santé publique' Organisé le : '21/03/2017' À : 'CENTRE CULINAIRE CONTEMPORAIN - 8 rue jules Maillard de la gournerie - RENNES-35000 / France'  | Début contrat 21/03/2017 Fin contrat 21/03/2017;SANOFI SA;SANOFI AVENTIS FRANCE;10001442242;Convention | IIXRHSGB | RPC-2017-00831_PS-0001395;IIXRHSGB;;True;0.0;0.0;0.0;0.0;ABOAB DAVOUST;ABOAB DAVOUST Noelle;0.0;0.0;Pharmacien;Noelle;Autre;;Convention;RPPS
2013;289 RUE GARIBALDI, SOS MEDECINS;69007;FRANCE;LYON;;;Professionnel de santé;01/07/2013;Convention | SYCNVYRX | CO20132PSIG19032014-048065;FORMATION |  | Début contrat 01/07/2013;Astrazeneca;ASTRAZENECA;10100421618;Convention | SYCNVYRX | CO20132PSIG19032014-048065;SYCNVYRX;;True;0.0;0.0;0.0;0.0;MAHEU;MAHEU Ophelie;0.0;0.0;Médecin;Ophelie;;;Convention;RPPS
2013;4 RUE GUSTAVE CAZAVAN, CENTRE MEDICAL SERY;76600;FRANCE;LE HAVRE;;;Professionnel de santé;20/11/2013;Convention | SYCNVYRX | CO20132PSIG19032014-051878;FORMATION |  | Début contrat 20/11/2013;Astrazeneca;ASTRAZENECA;10001892313;Convention | SYCNVYRX | CO20132PSIG19032014-051878;SYCNVYRX;;True;0.0;0.0;0.0;0.0;MORISSE;MORISSE Bruno;0.0;0.0;Médecin;Bruno;;;Convention;RPPS
2017;51 RUE BERTHIER;78000;FRANCE;VERSAILLES;;;Professionnel de santé;28/01/2017;Convention | ONAVHBNS | CPP_YVELINES_2018_47;CONGRES SYMPOSIUM | Manifestation : '30e JOURNEE DE CARDIOLOGIE DES YVELINES' Organisé le : '28/01/2017' À : 'ST GERMAIN EN LAYE' Par : 'CONGRES COLLOQUES CONVENTIONS'  | Début contrat 28/01/2017 Fin contrat 28/01/2017;CONGRES COLLOQUES CONVENTIONS;CONGRES COLLOQUES CONVENTIONS;10000553817;Convention | ONAVHBNS | CPP_YVELINES_2018_47;ONAVHBNS;;True;0.0;0.0;0.0;0.0;PATRAT;PATRAT Jean Frederic;0.0;0.0;Médecin;Jean Frederic;Cardiologie et maladies vasculaires;;Convention;RPPS
2014;CHS DE LA VALETTE LA VALETTE;23320;FRANCE;ST VAURY;;;Professionnel de santé;23/01/2014;Convention | ZKEJWAGJ | 00000000000000026165;PARTICIPATION A MANIFESTATION SCIENTIFIQUE | Manifestation : 'SERIOUS GAME PRADAXA' Organisé le : '23/01/2014' À : 'AUBUSSON FRANCE'  | Début contrat 23/01/2014;Boehringer Ingelheim;BOEHRINGER INGELHEIM FRANCE;10002927472;Convention | ZKEJWAGJ | 00000000000000026165;ZKEJWAGJ;;True;0.0;0.0;0.0;0.0;LORTHOLARY;LORTHOLARY Claude;0.0;0.0;Médecin;Claude;Médecine Générale;;Convention;RPPS
2017;HOPITAL B ROGER SALENGRO BD DU PROFESSEUR JULES LECLERCQ;59037;FRANCE;LILLE CEDEX;;;Professionnel de santé;12/12/2017;Convention | ZKEJWAGJ | 00000000000000254027;CONTRAT D EXPERT SCIENTIFIQUE CONTRAT DANS LE CADRE D UNE RECHERCHE CONTRAT DE CONSULTANT | Manifestation : 'ACTIVITES DIGITALES DE LA DIRECTION DES AFFAIRES MEDICALES TELLES QUE PLATEFORMES ET SITES WEB, CONTENUS DIGITAUX, WEBINAIRES, WEBCASTS, E-LEARNINGS…' Organisé le : '14/12/2017' À : 'PARIS' Par : 'BOEHRINGER INGELHEIM'  | Début contrat 12/12/2017 Fin contrat 31/12/2018;Boehringer Ingelheim;BOEHRINGER INGELHEIM FRANCE;10002302940;Convention | ZKEJWAGJ | 00000000000000254027;ZKEJWAGJ;;True;0.0;0.0;0.0;0.0;GIROT;GIROT Marie;0.0;0.0;Médecin;Marie;Neurologie;;Convention;RPPS
2014;11 AVENUE PASTEUR;06600;FRANCE;ANTIBES;;;Professionnel de santé;04/12/2014;Convention | ZKEJWAGJ | 00000000000000049387;PARTICIPATION A MANIFESTATION SCIENTIFIQUE | Manifestation : 'REUNION INTERDISCIPLINAIRE AUTOUR DES SYMPTOMES RESPIRATOIRES' Organisé le : '04/12/2014' À : 'ANTIBES FR'  | Début contrat 04/12/2014;Boehringer Ingelheim;BOEHRINGER INGELHEIM FRANCE;10003286423;Convention | ZKEJWAGJ | 00000000000000049387;ZKEJWAGJ;;True;0.0;0.0;0.0;0.0;LEPILLER;LEPILLER Philippe;0.0;0.0;Médecin;Philippe;Médecine Générale;;Convention;RPPS
2016;1 AVENUE DES ACACIAS;41300;FRANCE;SOUESMES;;;Professionnel de santé;11/10/2016;Convention | ZKEJWAGJ | 00000000000000153646;PARTICIPATION A MANIFESTATION SCIENTIFIQUE | Manifestation : 'LES AVANCEES DANS LA FA ET LEURS IMPLICATIONS DANS NOS PRATIQUES' Organisé le : '11/10/2016' À : 'LAMOTTE BEUVRON FR'  | Début contrat 11/10/2016;Boehringer Ingelheim;BOEHRINGER INGELHEIM FRANCE;10002049137;Convention | ZKEJWAGJ | 00000000000000153646;ZKEJWAGJ;;True;0.0;0.0;0.0;0.0;DUJON;DUJON Armand;0.0;0.0;Médecin;Armand;Médecine Générale;;Convention;RPPS
2016;HOPITAL JEAN MINJOZ 3 BOULEVARD ALEXANDER FLEMING;25030;FRANCE;BESANCON CEDEX;;;Professionnel de santé;06/10/2016;Convention | ZKEJWAGJ | 00000000000000175867;PARTICIPATION A MANIFESTATION SCIENTIFIQUE | Manifestation : 'READAPTATION A L EFFORT DANS LA FIBROSE PULMONAIRE' Organisé le : '06/10/2016' À : 'PONT D HERY FR'  | Début contrat 06/10/2016;Boehringer Ingelheim;BOEHRINGER INGELHEIM FRANCE;10100695633;Convention | ZKEJWAGJ | 00000000000000175867;ZKEJWAGJ;;True;0.0;0.0;0.0;0.0;ROUX;ROUX Pauline;0.0;0.0;Médecin;Pauline;Pneumologie;;Convention;RPPS
2013;CENTRE DE SPECIALISTES MEDICAUX 57 BOULEVARD DU MARECHAL JUIN;78200;FRANCE;MANTES LA JOLIE;;;Professionnel de santé;04/07/2013;Convention | ZKEJWAGJ | 00000000000000004079;PARTICIPATION A MANIFESTATION SCIENTIFIQUE | Manifestation : 'GESTION PRATIQUE DES NACOS UN AN APRES' Organisé le : '04/07/2013' À : 'LE PORT MARLY FRANCE'  | Début contrat 04/07/2013;Boehringer Ingelheim;BOEHRINGER INGELHEIM FRANCE;10000798461;Convention | ZKEJWAGJ | 00000000000000004079;ZKEJWAGJ;;True;0.0;0.0;0.0;0.0;ROMEJKO;ROMEJKO Philippe;0.0;0.0;Médecin;Philippe;Cardiologie et maladies vasculaires;;Convention;RPPS
2016;87 BOULEVARD JEAN JAURES;13340;FRANCE;ROGNAC;;;Professionnel de santé;24/11/2016;Convention | ZKEJWAGJ | 00000000000000152965;PARTICIPATION A MANIFESTATION SCIENTIFIQUE | Manifestation : 'LES AVANCEES DANS LA FA ET LEURS IMPLICATIONS DANS NOS PRATIQUES' Organisé le : '24/11/2016' À : 'ROGNAC FR'  | Début contrat 24/11/2016;Boehringer Ingelheim;BOEHRINGER INGELHEIM FRANCE;10003358792;Convention | ZKEJWAGJ | 00000000000000152965;ZKEJWAGJ;;True;0.0;0.0;0.0;0.0;CESARI BROUAT;CESARI BROUAT Chantal;0.0;0.0;Médecin;Chantal;Médecine Générale;;Convention;RPPS
2014;CENTRE LEON BERARD 28 RUE LAENNEC;69373;FRANCE;LYON CEDEX 08;;;Professionnel de santé;10/06/2014;Convention | ZKEJWAGJ | 00000000000000049115;PARTICIPATION A MANIFESTATION SCIENTIFIQUE | Manifestation : 'MEDECINE PERSONNALISEE DU CANCER BIEN CHOISIR SA VOIE EN ONCOLOGIE PULMONAIRE' Organisé le : '10/06/2014' À : 'LYON FR'  | Début contrat 10/06/2014;Boehringer Ingelheim;BOEHRINGER INGELHEIM FRANCE;10100179604;Convention | ZKEJWAGJ | 00000000000000049115;ZKEJWAGJ;;True;0.0;0.0;0.0;0.0;AVRILLON;AVRILLON Virginie;0.0;0.0;Médecin;Virginie;Pneumologie;;Convention;RPPS
2015;1 ROUTE DE LA GAVOTTE;13015;FRANCE;MARSEILLE;;;Professionnel de santé;21/05/2015;Convention | ZKEJWAGJ | 00000000000000081151;PARTICIPATION A MANIFESTATION SCIENTIFIQUE | Manifestation : 'GESTION DU RISQUE HEMORRAGIQUE BON USAGE ET BIOLOGIE DES AOD' Organisé le : '21/05/2015' À : 'MARSEILLE FR'  | Début contrat 21/05/2015;Boehringer Ingelheim;BOEHRINGER INGELHEIM FRANCE;10003360509;Convention | ZKEJWAGJ | 00000000000000081151;ZKEJWAGJ;;True;0.0;0.0;0.0;0.0;LAFAY;LAFAY Vincent;0.0;0.0;Médecin;Vincent;Cardiologie et maladies vasculaires;;Convention;RPPS
2014;HOPITAL PONTCHAILLOU, 2 RUE HENRI LE GUILLOUX;35033;FRANCE;RENNES CEDEX 9;;;Professionnel de santé;20/05/2014;Convention | SOWWIAEU | C_1-CNA00W67890_1-8K57-6702;CONGRES / SYMPOSIUM | Manifestation : 'UNIVERSAL MEDICA' Organisé le : '20/05/2014' À : 'RENNES' Par : 'BAYER'  | Début contrat 20/05/2014 Fin contrat 20/05/2014;Bayer;Bayer HealthCare SAS;10001367142;Convention | SOWWIAEU | C_1-CNA00W67890_1-8K57-6702;SOWWIAEU;;True;0.0;0.0;0.0;0.0;GUILLET;GUILLET Benoit;0.0;0.0;Médecin;Benoit;;;Convention;RPPS
2018;CENTRE RADIODIAGNOSTIC, 3 5 AVENUE WATTEAU;94130;FRANCE;NOGENT SUR MARNE;;;Professionnel de santé;01/02/2018;Convention | SOWWIAEU | C_A481P000000CWCHAAS_A3U1P0000006YD2AAI;HOSPITALITE | Manifestation : 'Staff :  ACTUALITÉS SUR LES PRODUITS DE CONTRASTE SCANNER' Organisé le : '01/02/2018' À : 'BRY SUR MARNE' Par : 'BAYER'  | Début contrat 01/02/2018 Fin contrat 01/02/2018;Bayer;Bayer HealthCare SAS;;Convention | SOWWIAEU | C_A481P000000CWCHAAS_A3U1P0000006YD2AAI;SOWWIAEU;23.0;False;0.0;23.0;0.0;23.0;DA COSTA;DA COSTA Emilie;0.0;0.0;Manipulateur d’électroradiologie médicale;Emilie;;;Convention;AUTRE
2018;CENTRE D IMAGERIE L ORANGERIE, 10 RUE DE L ORANGERIE;94170;FRANCE;LE PERREUX SUR MARNE;;;Professionnel de santé;01/02/2018;Convention | SOWWIAEU | C_A481P000000CWCHAAS_A3U1P0000006ZDIAAY;HOSPITALITE | Manifestation : 'Staff :  ACTUALITÉS SUR LES PRODUITS DE CONTRASTE SCANNER' Organisé le : '01/02/2018' À : 'BRY SUR MARNE' Par : 'BAYER'  | Début contrat 01/02/2018 Fin contrat 01/02/2018;Bayer;Bayer HealthCare SAS;;Convention | SOWWIAEU | C_A481P000000CWCHAAS_A3U1P0000006ZDIAAY;SOWWIAEU;23.0;False;0.0;23.0;0.0;23.0;BRICE;BRICE Corinne;0.0;0.0;Manipulateur d’électroradiologie médicale;Corinne;;;Convention;AUTRE
2015;INSTITUT DE LA VISION, 17 RUE MOREAU;75012;FRANCE;PARIS;;;Professionnel de santé;03/05/2015;Convention | SOWWIAEU | C_1-JTMAIP67890_HOS;INVITATION CONGRES | Manifestation : 'PRISE EN CHARGE ARVO POUR SARA TOUHAMI-HOPITAL DES 15/20' Organisé le : '03/05/2015' À : 'DENVER' Par : 'BAYER'  | Début contrat 03/05/2015 Fin contrat 03/05/2015;Bayer;Bayer HealthCare SAS;10100950012;Convention | SOWWIAEU | C_1-JTMAIP67890_HOS;SOWWIAEU;1700.0;False;0.0;1700.0;0.0;1700.0;TOUHAMI;TOUHAMI Sara;0.0;0.0;Médecin;Sara;;;Convention;RPPS
2017;CV DES AFFORETS, 221 AV CHARLES DE GAULLE;74800;FRANCE;LA ROCHE SUR FORON;;;Vétérinaire;03/10/2017;Convention | SOWWIAEU | C_AH_RC_34;HOSPITALITE | Manifestation : 'SE DEVELOPPER SUR LE MARCHE DES PRODUITS EN CANINE GENERALISTE' Organisé le : '03/10/2017' À : 'ARCHAMPS' Par : 'BAYER'  | Début contrat 03/10/2017 Fin contrat 03/10/2017;Bayer;Bayer HealthCare SAS;14651;Convention | SOWWIAEU | C_AH_RC_34;SOWWIAEU;45.0;False;0.0;45.0;0.0;45.0;DERIQUE;DERIQUE Sophie;0.0;0.0;;Sophie;;;Convention;ORDRE
2016;CABINET MEDICAL, 4 AVENUE PIERRE SEMARD;84000;FRANCE;AVIGNON;;;Professionnel de santé;23/06/2016;Convention | SOWWIAEU | C_1-1EFEWE067890_1-8K5V-2236;MANIFESTATION DE PROMOTION | Manifestation : 'JAYDESS : EFFICACITE ET TOLERANCE - DEMONSTRATION DE POSE' Organisé le : '23/06/2016' À : 'le pontet' Par : 'BAYER'  | Début contrat 23/06/2016 Fin contrat 23/06/2016;Bayer;Bayer HealthCare SAS;10003407664;Convention | SOWWIAEU | C_1-1EFEWE067890_1-8K5V-2236;SOWWIAEU;;True;0.0;0.0;0.0;0.0;VIDAL;VIDAL Catherine;0.0;0.0;Médecin;Catherine;;;Convention;RPPS
2017;GROUPE MEDICAL FRANCOIS RABELAIS, 6 PLACE FRANCOIS RABELAIS;95100;FRANCE;ARGENTEUIL;;;Professionnel de santé;24/01/2017;Convention | IIXRHSGB | RPC-2017-00255_PS-0729816;REUNION | Manifestation : 'Date fin : 31-03-17 Enjeux & Bonnes Pratiques pour une Insulinothérapie Basale & une ASG bien menées' Organisé le : '24/01/2017' À : 'Le vin sur vin - 122 rue de Sannois - ERMONT-95120 / France'  | Début contrat 24/01/2017 Fin contrat 24/01/2017;SANOFI SA;SANOFI AVENTIS FRANCE;10001326726;Convention | IIXRHSGB | RPC-2017-00255_PS-0729816;IIXRHSGB;;True;0.0;0.0;0.0;0.0;DELCROIX;DELCROIX Josiane;0.0;0.0;Médecin;Josiane;Médecine Générale;;Convention;RPPS
2014;CH FRANCOIS QUESNAY 2 BOULEVARD SULLY;78201;FRANCE;MANTES LA JOLIE CEDEX;;;Professionnel de santé;18/09/2014;Convention | ZKEJWAGJ | 00000000000000048341;PARTICIPATION A MANIFESTATION SCIENTIFIQUE | Manifestation : 'BPCO ET PRISE EN CHARGE THERAPEUTIQUE' Organisé le : '18/09/2014' À : 'CROISSY BEAUBOURG FR'  | Début contrat 18/09/2014;Boehringer Ingelheim;BOEHRINGER INGELHEIM FRANCE;;Convention | ZKEJWAGJ | 00000000000000048341;ZKEJWAGJ;;True;0.0;0.0;0.0;0.0;AYINKAMIYE;AYINKAMIYE Emelyne;0.0;0.0;Médecin;Emelyne;Pneumologie;;Convention;AUTRE
2017;73 RUE DE L ALMA;59100;FRANCE;ROUBAIX;;;Professionnel de santé;06/06/2017;Convention | ZKEJWAGJ | 00000000000000182676;HOSPITALITE | Manifestation : 'LES AVANCEES PRATIQUES DANS LA FA ET LEURS IMPLICATIONS DANS NOS PRATIQUES' Organisé le : '06/06/2017' À : 'MARCQ EN BAROEUL FR'  | Début contrat 06/06/2017;Boehringer Ingelheim;BOEHRINGER INGELHEIM FRANCE;10002220936;Convention | ZKEJWAGJ | 00000000000000182676;ZKEJWAGJ;;True;0.0;0.0;0.0;0.0;HEBBINCKUYS OVLAQUE;HEBBINCKUYS OVLAQUE Sylvie;0.0;0.0;Médecin;Sylvie;Médecine Générale;;Convention;RPPS
2014;15 AVENUE DE LA PORTE DE CHOISY, HOPITAL HENRI EY, 1ER ETAGE;75013;FRANCE;PARIS;;;Professionnel de santé;30/01/2014;Convention | SYCNVYRX | CO20141PSIG30072014-061576;FORMATION |  | Début contrat 30/01/2014;Astrazeneca;ASTRAZENECA;10001505337;Convention | SYCNVYRX | CO20141PSIG30072014-061576;SYCNVYRX;;True;0.0;0.0;0.0;0.0;GHIMOUZ ABERKANE;GHIMOUZ ABERKANE Fatima;0.0;0.0;Médecin;Fatima;;;Convention;RPPS
2017;HOPITAL LAPEYRONIE 371 AVENUE DU DOYEN GASTON GIRAUD;34295;FRANCE;MONTPELLIER CEDEX 5;;;Professionnel de santé;06/04/2017;Convention | ZKEJWAGJ | 00000000000000194193;HOSPITALITE | Manifestation : 'LES AVANCEES PRATIQUES DANS LA FA ET LEURS IMPLICATIONS DANS NOS PRATIQUES' Organisé le : '06/04/2017' À : 'MONTPELLIER FR'  | Début contrat 06/04/2017;Boehringer Ingelheim;BOEHRINGER INGELHEIM FRANCE;10100547438;Convention | ZKEJWAGJ | 00000000000000194193;ZKEJWAGJ;;True;0.0;0.0;0.0;0.0;VUILLOT;VUILLOT Olivier;0.0;0.0;Médecin;Olivier;Médecine Générale;;Convention;RPPS
2017;BOULEVARD SALVADOR ALLENDE;13850;FRANCE;GREASQUE;;;Professionnel de santé;11/01/2017;Convention | SQZVJHFY | RPC-2016-0546_PS-0695567;INSCRIPTION CONGRES | Manifestation : '27è Journées Européennes de la Société Française de Cardiologie (JESFC 2017)' Organisé le : '11/01/2017' À : 'PARIS / FRANCE'  | Début contrat 11/01/2017 Fin contrat 14/01/2017;Pfizer;PFIZER SAS;10003425278;Convention | SQZVJHFY | RPC-2016-0546_PS-0695567;SQZVJHFY;;True;0.0;0.0;0.0;0.0;CAUCINO FLECHER;CAUCINO FLECHER Karine;0.0;0.0;Médecin;Karine;Cardiologie et maladies vasculaires;;Convention;RPPS
2017;4 RUE LARREY;49933;FRANCE;ANGERS CEDEX 9;;;Professionnel de santé;06/06/2017;Convention | SQZVJHFY | RPC-2017-0347_PS-0893896;HOSPITALITE | Manifestation : 'VACCINATION PATIENTS IMMUNODEPRIMES ET A RISQUES: ACTUALITES 2017' Organisé le : '06/06/2017' À : 'LE MANS / FRANCE'  | Début contrat 06/06/2017 Fin contrat 06/06/2017;Pfizer;PFIZER SAS;;Convention | SQZVJHFY | RPC-2017-0347_PS-0893896;SQZVJHFY;;True;0.0;0.0;0.0;0.0;CATTIN;CATTIN Yasmine;0.0;0.0;Médecin;Yasmine;Médecine du travail;;Convention;AUTRE
2017;33 AVENUE DE VALOMBROSE;06189;FRANCE;NICE CEDEX 2;;;Professionnel de santé;08/03/2017;Convention | SQZVJHFY | RPC-2016-0670_PS-0428804;INSCRIPTION CONGRES | Manifestation : '14th Annual ENETS Conference' Organisé le : '08/03/2017' À : 'Barcelona / ESPAGNE'  | Début contrat 08/03/2017 Fin contrat 10/03/2017;Pfizer;PFIZER SAS;10003897955;Convention | SQZVJHFY | RPC-2016-0670_PS-0428804;SQZVJHFY;;True;0.0;0.0;0.0;0.0;CAVAGLIONE;CAVAGLIONE Gerard;0.0;0.0;Médecin;Gerard;Oncologie (option onco-hématologie);;Convention;RPPS
2017;1 AV DU PROFESSEUR JEAN POULHES;31059;FRANCE;TOULOUSE CEDEX 9;;;Professionnel de santé;03/03/2017;Convention | SQZVJHFY | RPC-2016-0968_PS-1090343;HOSPITALITE | Manifestation : 'Place et avenir de l'imagerie en Cardiologie en 2017' Organisé le : '03/03/2017' À : 'TOULOUSE / FRANCE'  | Début contrat 03/03/2017 Fin contrat 03/03/2017;Pfizer;PFIZER SAS;[SO];Convention | SQZVJHFY | RPC-2016-0968_PS-1090343;SQZVJHFY;;True;0.0;0.0;0.0;0.0;CAVALERIE;CAVALERIE Hugo;0.0;0.0;Médecin;Hugo;Autre;;Convention;AUTRE
2017;BD DU PROFESSEUR JULES LECLERCQ;59037;FRANCE;LILLE CEDEX;;;Professionnel de santé;20/06/2017;Convention | SQZVJHFY | RPC-2017-0440_PS-0886718;HOSPITALITE | Manifestation : 'LA VACCINATION DES IMMUNODEPRIMES' Organisé le : '20/06/2017' À : 'LILLE / FRANCE'  | Début contrat 20/06/2017 Fin contrat 20/06/2017;Pfizer;PFIZER SAS;[SO];Convention | SQZVJHFY | RPC-2017-0440_PS-0886718;SQZVJHFY;;True;0.0;0.0;0.0;0.0;CERBELLE;CERBELLE Valentine;0.0;0.0;Médecin;Valentine;Autre;;Convention;AUTRE
2017;4 RUE DE LESSARD;76100;FRANCE;ROUEN;;;Professionnel de santé;06/06/2017;Convention | SQZVJHFY | CO-2017-1170_PS-0735677;CONGRES/SYMPOSIUM | Manifestation : 'LA FIBRILLATION ATRIALE : DIAGNOSTIC ET  TRAITEMENTS' Organisé le : '15/06/2017' À : 'DEVILLE LES ROUEN / FRANCE'  | Début contrat 15/06/2017 Fin contrat 15/06/2017;Pfizer;PFIZER SAS;10004069570;Convention | SQZVJHFY | CO-2017-1170_PS-0735677;SQZVJHFY;;True;0.0;0.0;0.0;0.0;CERQUEIRA MARINHO;CERQUEIRA MARINHO Sebastien;0.0;0.0;Médecin;Sebastien;Cardiologie et maladies vasculaires;;Convention;RPPS
2017;4 RUE DU CAPITAINE DRILLIEN;71100;FRANCE;CHALON SUR SAONE;;;Professionnel de santé;28/02/2017;Convention | SQZVJHFY | RPC-2016-0946_PS-1085982;HOSPITALITE | Manifestation : 'Unité de concertation pluridisciplinaire en Oncologie : management du patient sous thérapie ciblée' Organisé le : '28/02/2017' À : 'CHALON SUR SAONE / FRANCE'  | Début contrat 28/02/2017 Fin contrat 28/02/2017;Pfizer;PFIZER SAS;[SO];Convention | SQZVJHFY | RPC-2016-0946_PS-1085982;SQZVJHFY;;True;0.0;0.0;0.0;0.0;CERTAIN;CERTAIN Marie Caroline;0.0;0.0;Médecin;Marie Caroline;Autre;;Convention;AUTRE
2017;14 RUE DU VAL D OSNE;94415;FRANCE;ST MAURICE CEDEX;;;Professionnel de santé;02/03/2017;Convention | SQZVJHFY | RPC-2016-0973_PS-0429630;HOSPITALITE | Manifestation : 'Actualités Dermatologiques et Vaccination' Organisé le : '02/03/2017' À : 'Paris / FRANCE'  | Début contrat 02/03/2017 Fin contrat 02/03/2017;Pfizer;PFIZER SAS;10001191963;Convention | SQZVJHFY | RPC-2016-0973_PS-0429630;SQZVJHFY;;True;0.0;0.0;0.0;0.0;CESARO;CESARO M Joelle;0.0;0.0;Médecin;M Joelle;Dermatologie et vénéréologie;;Convention;RPPS
2017;49 AVENUE DE LA REPUBLIQUE;94100;FRANCE;ST MAUR DES FOSSES;;;Professionnel de santé;11/01/2017;Convention | SQZVJHFY | RPC-2016-0795_PS-0090895;INSCRIPTION CONGRES | Manifestation : '27è Journées Européennes de la Société Française de Cardiologie (JESFC 2017)' Organisé le : '11/01/2017' À : 'PARIS / FRANCE'  | Début contrat 11/01/2017 Fin contrat 14/01/2017;Pfizer;PFIZER SAS;10100745495;Convention | SQZVJHFY | RPC-2016-0795_PS-0090895;SQZVJHFY;;True;0.0;0.0;0.0;0.0;CESCAU;CESCAU Arthur;0.0;0.0;Médecin;Arthur;Cardiologie et maladies vasculaires;;Convention;RPPS
2017;2 AVENUE MARTIN LUTHER KING;87042;FRANCE;LIMOGES CEDEX 1;;;Professionnel de santé;13/03/2017;Convention | SQZVJHFY | RPC-2016-0955_PS-0165430;INSCRIPTION CONGRES | Manifestation : '9ème Journée nationale de la Section Education Thérapeutique de la Société Française de Rhumatologie' Organisé le : '13/03/2017' À : 'PARIS / FRANCE'  | Début contrat 13/03/2017 Fin contrat 13/03/2017;Pfizer;PFIZER SAS;[SO];Convention | SQZVJHFY | RPC-2016-0955_PS-0165430;SQZVJHFY;;True;0.0;0.0;0.0;0.0;CESSAC;CESSAC Francoise;0.0;0.0;Infirmier;Francoise;Autre;;Convention;AUTRE
2017;41 RUE DE LA LIBERATION;61150;FRANCE;RANES;;;Professionnel de santé;07/03/2017;Convention | SQZVJHFY | RPS-2017-00016_PS-0430044;HOSPITALITE | Manifestation : 'Elémentaire Dr Watson  La Fibrillation Atriale en pratique' Organisé le : '07/03/2017' À : 'ARGENTAN / France'  | Début contrat 07/03/2017 Fin contrat 07/03/2017;Pfizer;PFIZER SAS;10002127487;Convention | SQZVJHFY | RPS-2017-00016_PS-0430044;SQZVJHFY;;True;0.0;0.0;0.0;0.0;CHABOISSON;CHABOISSON Patrick;0.0;0.0;Médecin;Patrick;Médecine du travail;;Convention;RPPS
2017;82 COURS JEAN JAURES;38130;FRANCE;ECHIROLLES;;;Professionnel de santé;28/03/2017;Convention | SQZVJHFY | RPC-2017-0015_PS-0667119;HOSPITALITE | Manifestation : 'ACTUALITES SUR LE TRAITEMENT DE LA FIBRILLATION ATRIALE NON VALVULAIRE ET PLACE DES ANTICOAGULANTS ORAUX DIRECTS' Organisé le : '28/03/2017' À : 'CORENC / FRANCE'  | Début contrat 28/03/2017 Fin contrat 28/03/2017;Pfizer;PFIZER SAS;10002992617;Convention | SQZVJHFY | RPC-2017-0015_PS-0667119;SQZVJHFY;;True;0.0;0.0;0.0;0.0;CHABOT;CHABOT Philippe;0.0;0.0;Médecin;Philippe;Médecine du travail;;Convention;RPPS
2017;772 CHEMIN DE VALDEGOUR;30900;FRANCE;NIMES;;;Professionnel de santé;22/06/2017;Convention | SQZVJHFY | RPC-2017-0441_PS-0667120;HOSPITALITE | Manifestation : 'Symphonie NIMES : le cancer du sein métastatique aujourd'hui' Organisé le : '22/06/2017' À : 'NIMES / FRANCE'  | Début contrat 22/06/2017 Fin contrat 22/06/2017;Pfizer;PFIZER SAS;10001883866;Convention | SQZVJHFY | RPC-2017-0441_PS-0667120;SQZVJHFY;;True;0.0;0.0;0.0;0.0;CHABROLLES;CHABROLLES Isabelle;0.0;0.0;Pharmacien;Isabelle;Autre;;Convention;RPPS
2017;40 ALLEE DE LA SOURCE;94195;FRANCE;VILLENEUVE ST GEORGES CEDE;;;Professionnel de santé;20/01/2017;Convention | SQZVJHFY | RPC-2016-0560_PS-0430098;INSCRIPTION CONGRES | Manifestation : '21es Rencontres de Pédiatrie Pratique (RPP 2017)' Organisé le : '20/01/2017' À : 'PARIS / FRANCE'  | Début contrat 20/01/2017 Fin contrat 21/01/2017;Pfizer;PFIZER SAS;[SO];Convention | SQZVJHFY | RPC-2016-0560_PS-0430098;SQZVJHFY;;True;0.0;0.0;0.0;0.0;CHACE;CHACE Anne;0.0;0.0;Médecin;Anne;Pédiatrie;;Convention;AUTRE
2017;130 AVENUE LOUIS HERBEAUX;59385;FRANCE;DUNKERQUE CEDEX 1;;;Professionnel de santé;11/05/2017;Convention | SQZVJHFY | RPC-2016-0928_PS-0667575;HOSPITALITE | Manifestation : 'ALLIANCE DAY' Organisé le : '11/05/2017' À : 'NICE / FRANCE'  | Début contrat 11/05/2017 Fin contrat 13/05/2017;Pfizer;PFIZER SAS;10100381002;Convention | SQZVJHFY | RPC-2016-0928_PS-0667575;SQZVJHFY;;True;0.0;0.0;0.0;0.0;CHACHOUA;CHACHOUA Karim Faouzi;0.0;0.0;Médecin;Karim Faouzi;Cardiologie et maladies vasculaires;;Convention;RPPS
2017;58 RUE MONTALEMBERT;63008;FRANCE;CLERMONT FERRAND CEDEX 1;;;Professionnel de santé;29/06/2017;Convention | SQZVJHFY | RPC-2017-0468_PS-0209855;HOSPITALITE | Manifestation : 'Quelle actualité en rhuamtologie au CHU de Clermont-Ferrand' Organisé le : '29/06/2017' À : 'Perignat les Sarlieves / FRANCE'  | Début contrat 29/06/2017 Fin contrat 29/06/2017;Pfizer;PFIZER SAS;[SO];Convention | SQZVJHFY | RPC-2017-0468_PS-0209855;SQZVJHFY;;True;0.0;0.0;0.0;0.0;CHADRIN;CHADRIN Marie;0.0;0.0;Infirmier;Marie;Autre;;Convention;AUTRE
2016;HOPITAL PIERRE NOUVEAU, 15 AVENUE DES BROUSSAILLES;06414;FRANCE;CANNES CEDEX;;;Professionnel de santé;21/11/2016;Convention | SOWWIAEU | C_42756;CONTRAT DE CONSEIL SCIENTIFIQUE |  | Début contrat 06/12/2016 Fin contrat 31/12/2016;Bayer;Bayer HealthCare SAS;10003296083;Convention | SOWWIAEU | C_42756;SOWWIAEU;;True;0.0;0.0;0.0;0.0;TIBI;TIBI Thierry;0.0;0.0;Médecin;Thierry;;;Convention;RPPS
2015;114 rue Edouard Vaillant;94805;FRANCE;VILLEJUIF;;;Etablissement de santé;02/06/2015;Convention | SOWWIAEU | C_JUR_441;RECHERCHE ET DEVELOPPEMENT |  | Début contrat 02/06/2015 Fin contrat 31/12/2018;Bayer;Bayer HealthCare SAS;;Convention | SOWWIAEU | C_JUR_441;SOWWIAEU;;True;0.0;0.0;0.0;0.0;;;0.0;0.0;;;;INSTITUT GUSTAVE ROUSSY;Convention;AUTRE
2016;HOPITAL PELLEGRIN PLACE AMELIE RABA LEON;33000;FRANCE;BORDEAUX;;;Professionnel de santé;05/12/2016;Convention | SOWWIAEU | C-CH-2016-0003;CONTRAT D EXPERT SCIENTIFIQUE CONTRAT DANS LE CADRE D UNE RECHERCHE CONTRAT DE CONSULTANT | Manifestation : 'Global Ophtalmology Perceptorship'  | Début contrat 05/12/2016;Bayer;Bayer HealthCare SAS;10003854212;Convention | SOWWIAEU | C-CH-2016-0003;SOWWIAEU;;True;0.0;0.0;0.0;0.0;ROUGIER;ROUGIER Marie Benedicte;0.0;0.0;Médecin;Marie Benedicte;;;Convention;RPPS
2018;CENTRE HOSPITALIER, 54 BOULEVARD DENIERE;03201;FRANCE;VICHY;;;Professionnel de santé;24/05/2018;Convention | SOWWIAEU | C_A481P0000004RIXAAI_A3U1P000000E3CAAAY;HOSPITALITE | Manifestation : 'Staff : NOUVEAUTÉ EN CONTRACEPTION' Organisé le : '24/05/2018' À : 'VICHY' Par : 'BAYER'  | Début contrat 24/05/2018 Fin contrat 24/05/2018;Bayer;Bayer HealthCare SAS;10003636023;Convention | SOWWIAEU | C_A481P0000004RIXAAI_A3U1P000000E3CAAAY;SOWWIAEU;15.0;False;0.0;15.0;0.0;15.0;LENGLET;LENGLET Yann;0.0;0.0;Médecin;Yann;;;Convention;RPPS
2018;PLANNING FAMILIAL, 3 B IMPASSE DES GENDARMES;78000;FRANCE;VERSAILLES;;;Professionnel de santé;11/04/2018;Convention | SOWWIAEU | C_A481P000000CXV0AAC_A3U1P000000GCBRAAK;HOSPITALITE | Manifestation : 'Staff : NOUVEAUTÉ EN CONTRACEPTION' Organisé le : '11/04/2018' À : 'ST GERMAIN EN LAYE' Par : 'BAYER'  | Début contrat 11/04/2018 Fin contrat 11/04/2018;Bayer;Bayer HealthCare SAS;10000374578;Convention | SOWWIAEU | C_A481P000000CXV0AAC_A3U1P000000GCBRAAK;SOWWIAEU;11.0;False;0.0;11.0;0.0;11.0;DUMOLLARD;DUMOLLARD Claire;0.0;0.0;Médecin;Claire;;;Convention;RPPS
2018;CHI POISSY SAINT GERMAIN EN LAYE, 10 RUE DU CHAMP GAILLARD;78303;FRANCE;POISSY;;;Professionnel de santé;11/04/2018;Convention | SOWWIAEU | C_A481P000000CXV0AAC_A3U1P000000GCBWAAK;HOSPITALITE | Manifestation : 'Staff : NOUVEAUTÉ EN CONTRACEPTION' Organisé le : '11/04/2018' À : 'ST GERMAIN EN LAYE' Par : 'BAYER'  | Début contrat 11/04/2018 Fin contrat 11/04/2018;Bayer;Bayer HealthCare SAS;;Convention | SOWWIAEU | C_A481P000000CXV0AAC_A3U1P000000GCBWAAK;SOWWIAEU;11.0;False;0.0;11.0;0.0;11.0;DOITEAU;DOITEAU Gaelle;0.0;0.0;Sage-femme;Gaelle;;;Convention;AUTRE
2015;CTRE IMAGERIE MEDICALE DU NEDON, RUE ROGER CARPENTIER;13800;FRANCE;ISTRES;;;Professionnel de santé;12/03/2015;Convention | SOWWIAEU | C_1-ITZOJI67890_1-8K51-8873;MANIFESTATION DE PROMOTION | Manifestation : 'La mise en confiance par l'hypnose' Organisé le : '12/03/2015' À : 'MARSEILLE' Par : 'BAYER'  | Début contrat 12/03/2015 Fin contrat 12/03/2015;Bayer;Bayer HealthCare SAS;10003432738;Convention | SOWWIAEU | C_1-ITZOJI67890_1-8K51-8873;SOWWIAEU;;True;0.0;0.0;0.0;0.0;DRIR;DRIR Mohamed;0.0;0.0;Médecin;Mohamed;;;Convention;RPPS
2014;CABINET MEDICAL, 16BIS RUE D ESTIENNE D ORVES;95340;FRANCE;PERSAN;;;Professionnel de santé;11/12/2014;Convention | IIXRHSGB | RPC-2014-05427_PS-0750546;HOSPITALITE | Manifestation : 'Programme Léa' Organisé le : '11/12/2014' À : 'La bonne Auberge - 14 avenue de paris - Soisy sous montmorençy-95230 / France'  | Début contrat 11/12/2014 Fin contrat 11/12/2014;SANOFI SA;SANOFI AVENTIS FRANCE;10001292688;Convention | IIXRHSGB | RPC-2014-05427_PS-0750546;IIXRHSGB;;True;0.0;0.0;0.0;0.0;FRANCOIS;FRANCOIS Alain;0.0;0.0;Médecin;Alain;Médecine Générale;;Convention;RPPS
2015;8 RUE TY COET;56000;FRANCE;VANNES;;;Professionnel de santé;14/01/2015;Convention | JUJJFUKK | RPC-2014-0569_PS-0037992;CONVENTION D HOSPITALITE | Manifestation : 'UROLOGIE VANNES' Organisé le : '14/01/2015' À : 'VANNES' Par : '0'  | Début contrat 14/01/2015 Fin contrat 14/01/2015;GlaxoSmithKline;LABORATOIRE GLAXOSMITHKLINE;10003785085;Convention | JUJJFUKK | RPC-2014-0569_PS-0037992;JUJJFUKK;;True;0.0;0.0;0.0;0.0;POTTIER LERCHE;POTTIER LERCHE Evelyne;0.0;0.0;Médecin;Evelyne;Médecine Générale;;Convention;RPPS
2017;332 AVENUE FREDERIC MISTRAL;83192;FRANCE;OLLIOULES CEDEX;;;Professionnel de santé;28/09/2017;Convention | YLWGMHGC | EVE-C-2018-2-21-100007259138;INSCRIPTION CONGRES | Manifestation : 'NEURO - 2017 - ANLLF' Organisé le : '28/09/2017' À : 'NICE' Par : 'Novartis Pharma France'  | Début contrat 28/09/2017 Fin contrat 30/09/2017;Novartis;NOVARTIS PHARMA SAS;10003387759;Convention | YLWGMHGC | EVE-C-2018-2-21-100007259138;YLWGMHGC;661.0;False;0.0;661.0;0.0;661.0;THUILLIER;THUILLIER Jean Noel;0.0;0.0;Médecin;Jean Noel;Neurologie;;Convention;RPPS
2017;9 RUE DE LA FERME DAI BAITA;64500;FRANCE;ST JEAN DE LUZ;;;Professionnel de santé;15/09/2017;Convention | YLWGMHGC | EVE-C-2018-2-21-100007259155;INSCRIPTION CONGRES | Manifestation : '2017 - OPHTA - DMLA en Pratique : 16e edition - 15' Organisé le : '15/09/2017' À : 'PARIS' Par : 'Novartis Pharma France'  | Début contrat 15/09/2017 Fin contrat 15/09/2017;Novartis;NOVARTIS PHARMA SAS;10002075777;Convention | YLWGMHGC | EVE-C-2018-2-21-100007259155;YLWGMHGC;272.0;False;0.0;272.0;0.0;272.0;CHEVALLIER CHAUVENET;CHEVALLIER CHAUVENET Christine;0.0;0.0;Médecin;Christine;Ophtalmologie;;Convention;RPPS
2017;51 AVENUE DU PRESIDENT WILSON;16000;FRANCE;ANGOULEME;;;Professionnel de santé;15/09/2017;Convention | YLWGMHGC | EVE-C-2018-2-21-100007259157;INSCRIPTION CONGRES | Manifestation : '2017 - OPHTA - DMLA en Pratique : 16e edition - 15' Organisé le : '15/09/2017' À : 'PARIS' Par : 'Novartis Pharma France'  | Début contrat 15/09/2017 Fin contrat 15/09/2017;Novartis;NOVARTIS PHARMA SAS;10100659118;Convention | YLWGMHGC | EVE-C-2018-2-21-100007259157;YLWGMHGC;820.0;False;0.0;820.0;0.0;820.0;ROUISSI;ROUISSI Sahbi;0.0;0.0;Médecin;Sahbi;Ophtalmologie;;Convention;RPPS
2015;CABINET D'OPHTALMOLOGIE, 113 BD ST GERMAIN;75006;FRANCE;PARIS;;;Professionnel de santé;21/04/2015;Convention | SOWWIAEU | C_1-KQQQNW67890;CONTRAT DE CONSEIL SCIENTIFIQUE | Manifestation : 'PROGRES DE L IMAGERIE ET DES THERAPEUTIQUES MACULAIRES :UNE REVOLUTION DANS NOS PRATIQUES ?' Organisé le : '03/06/2015' À : 'PARIS' Par : 'BAYER'  | Début contrat 03/06/2015 Fin contrat 03/06/2015;Bayer;Bayer HealthCare SAS;10000365329;Convention | SOWWIAEU | C_1-KQQQNW67890;SOWWIAEU;;True;0.0;0.0;0.0;0.0;FRANCAIS MAURY;FRANCAIS MAURY Catherine;0.0;0.0;Médecin;Catherine;;;Convention;RPPS
2017;CH DE BERNAY, 5 RUE ANNE DE TICHEVILLE;27303;FRANCE;BERNAY CEDEX;;;Professionnel de santé;26/01/2017;Convention | SOWWIAEU | C_A48240000000BWQAAQ_A3U24000000B6FLAAS;HOSPITALITE | Manifestation : 'STAFF HOSPITALIER' Organisé le : '26/01/2017' À : 'BERNAY' Par : 'BAYER'  | Début contrat 26/01/2017 Fin contrat 26/01/2017;Bayer;Bayer HealthCare SAS;10004427679;Convention | SOWWIAEU | C_A48240000000BWQAAQ_A3U24000000B6FLAAS;SOWWIAEU;22.0;False;0.0;22.0;0.0;22.0;FAOUR;FAOUR Ali;0.0;0.0;Médecin;Ali;;;Convention;RPPS
2016;GH DE CHARLEVILLE MEZIERES, CHIR C, 45 AVENUE DE MANCHESTER;08011;FRANCE;CHARLEVILLE MEZIERES CEDEX;;;Professionnel de santé;08/11/2016;Convention | XCKYTDRO | 2016S2_PPC_03296;CONGRES/SYMPOSIUM | Manifestation : 'ZYTIGA : BON USAGE' Organisé le : '08/11/2016' À : 'CHARLEVILLE' Par : 'JANSSEN'  | Début contrat 08/11/2016 Fin contrat 08/11/2016;Johnson & Johnson;JANSSEN-CILAG;10002670486;Convention | XCKYTDRO | 2016S2_PPC_03296;XCKYTDRO;;True;0.0;0.0;0.0;0.0;RIQUET;RIQUET Herve;0.0;0.0;Médecin;Herve;Chirurgie urologique;;Convention;RPPS
2014;;;;;;;Etudiant;13/02/2014;Convention | XCKYTDRO | 2014S1_PPC_01731;CONGRES / SYMPOSIUM | Manifestation : 'POST ASCO GU 2014' Organisé le : '13/02/2014' À : 'BEAUNE' Par : 'JANSSEN'  | Début contrat 13/02/2014 Fin contrat 13/02/2014;Johnson & Johnson;JANSSEN-CILAG;;Convention | XCKYTDRO | 2014S1_PPC_01731;XCKYTDRO;;True;0.0;0.0;0.0;0.0;KREBS;KREBS Lorraine;0.0;0.0;;Lorraine;;;Convention;AUTRE
2016;;;;;;;Etudiant;12/05/2016;Convention | XCKYTDRO | 2016S1_PPC_04445;CONGRES/SYMPOSIUM | Manifestation : 'DEBATS CONTRADICTOIRES EN DERMATOLOGIE' Organisé le : '12/05/2016' À : 'DIJON' Par : 'JANSSEN'  | Début contrat 12/05/2016 Fin contrat 12/05/2016;Johnson & Johnson;JANSSEN-CILAG;;Convention | XCKYTDRO | 2016S1_PPC_04445;XCKYTDRO;;True;0.0;0.0;0.0;0.0;JORDAN;JORDAN Maud;0.0;0.0;;Maud;;;Convention;AUTRE
2017;CABINET MEDICAL, 18C RUE DE LILLE;59710;FRANCE;AVELIN;;;Professionnel de santé;18/05/2017;Convention | IIXRHSGB | RPC-2017-02960_PS-0199062;HOSPITALITE | Manifestation : 'Date fin : 03-02-18 Enjeux & Bonnes Pratiques pour une Insulinothérapie Basale & une ASG bien menées' Organisé le : '18/05/2017' À : 'l engrenage - rue du golf - MERIGNIES-59710 / France'  | Début contrat 18/05/2017 Fin contrat 18/05/2017;SANOFI SA;SANOFI AVENTIS FRANCE;10002247897;Convention | IIXRHSGB | RPC-2017-02960_PS-0199062;IIXRHSGB;;True;0.0;0.0;0.0;0.0;DEROUBAIX;DEROUBAIX Raphael;0.0;0.0;Médecin;Raphael;Médecine Générale;;Convention;RPPS
2015;CH EMMANUEL RAIN, CHIR IV, 25 RUE BERNARD FEVRIER;95503;FRANCE;GONESSE CEDEX;;;Professionnel de santé;09/11/2015;Convention | IIXRHSGB | RPC-2015-03752_PS-0669674;INSCRIPTION CONGRES | Manifestation : '90e Congrès de la Société Française de Chirurgie Orthopédique et Traumatologique' Organisé le : '09/11/2015' À : 'PALAIS DES CONGRÈS - PARIS / France' Par : 'LEVER DE RIDEAU'  | Début contrat 09/11/2015 Fin contrat 12/11/2015;SANOFI SA;SANOFI AVENTIS FRANCE;10100596286;Convention | IIXRHSGB | RPC-2015-03752_PS-0669674;IIXRHSGB;;True;0.0;0.0;0.0;0.0;ZEGHDOUD;ZEGHDOUD Mahdi;0.0;0.0;Médecin;Mahdi;Chirurgie orthopédique et traumatologie;;Convention;RPPS
2013;CABINET MEDICAL, 28 RUE JACQUES OFFENBACH;45400;FRANCE;FLEURY LES AUBRAIS;;;Professionnel de santé;11/12/2013;Convention | IIXRHSGB | CA2013_GEMPAR277639;CONVENTION D HOSPITALITE | Manifestation : 'Diabète Gestationnel' Organisé le : '11/12/2013' À : 'UEAJ - 642 RUE PAUL HEROULT - ST JEAN LE BLANC'  | Début contrat 11/12/2013 Fin contrat 11/12/2013;SANOFI SA;SANOFI AVENTIS FRANCE;10003712097;Convention | IIXRHSGB | CA2013_GEMPAR277639;IIXRHSGB;;True;0.0;0.0;0.0;0.0;BECKAERT;BECKAERT Veronique;0.0;0.0;Médecin;Veronique;Autre;;Convention;RPPS
2014;27 AVENUE ROGER COULON;63430;FRANCE;PONT DU CHATEAU;;;Professionnel de santé;18/12/2014;Convention | ZKEJWAGJ | 00000000000000037750;PARTICIPATION A MANIFESTATION SCIENTIFIQUE | Manifestation : 'AVANCEES PRATIQUES CAS CLINIQUES AUTOUR DES NOUVELLES PRATIQUES DE PREVENTION DE L AVC LIE A LA FA' Organisé le : '18/12/2014' À : 'PERIGNAT LES SARLIEVES FR'  | Début contrat 18/12/2014;Boehringer Ingelheim;BOEHRINGER INGELHEIM FRANCE;10003166799;Convention | ZKEJWAGJ | 00000000000000037750;ZKEJWAGJ;;True;0.0;0.0;0.0;0.0;CHANY;CHANY Christian;0.0;0.0;Médecin;Christian;Médecine Générale;;Convention;RPPS
2016;33 RUE CHARLES QUINT;59300;FRANCE;VALENCIENNES;;;Professionnel de santé;08/12/2016;Convention | ZKEJWAGJ | 00000000000000148782;PARTICIPATION A MANIFESTATION SCIENTIFIQUE | Manifestation : 'BPCO QUESTIONS D ACTUALITE' Organisé le : '08/12/2016' À : 'GRUSON FR'  | Début contrat 08/12/2016;Boehringer Ingelheim;BOEHRINGER INGELHEIM FRANCE;10002230737;Convention | ZKEJWAGJ | 00000000000000148782;ZKEJWAGJ;;True;0.0;0.0;0.0;0.0;LECLERCQ;LECLERCQ Yves;0.0;0.0;Médecin;Yves;Médecine Générale;;Convention;RPPS
2013;1 RUE DES URSULINES;37000;FRANCE;TOURS;;;Professionnel de santé;14/10/2013;Convention | ZKEJWAGJ | 00000000000000013779;CONSEIL |  | Début contrat 27/11/2013;Boehringer Ingelheim;BOEHRINGER INGELHEIM FRANCE;10002043452;Convention | ZKEJWAGJ | 00000000000000013779;ZKEJWAGJ;;True;0.0;0.0;0.0;0.0;HAMEL;HAMEL Emmanuel;0.0;0.0;Médecin;Emmanuel;Cardiologie et maladies vasculaires;;Convention;RPPS
2013;HOPITAL DE HAUT LEVEQUE, AVENUE DE MAGELLAN;33604;FRANCE;PESSAC CEDEX;;;Professionnel de santé;14/10/2013;Convention | JUJJFUKK | CONVD-01339;CONVENTION HOSPITALITE | Manifestation : '3ème Edition des Ateliers Cliniques en Hématologie' Organisé le : '07/11/2013' À : 'Bordeaux'  | Début contrat 07/11/2013 Fin contrat 07/11/2013;GlaxoSmithKline;LABORATOIRE GLAXOSMITHKLINE;10004595392;Convention | JUJJFUKK | CONVD-01339;JUJJFUKK;;True;0.0;0.0;0.0;0.0;LAZARO;LAZARO Estibaliz;0.0;0.0;Médecin;Estibaliz;Médecine interne;;Convention;RPPS
2015;CH LE PORZOU, REEDUCATION FONCTIONNELLE, 61 ROUTE DE TREGUNC;29187;FRANCE;CONCARNEAU CEDEX;;;Professionnel de santé;01/12/2015;Convention | IIXRHSGB | RPC-2015-03926_PS-0241133;HOSPITALITE | Manifestation : 'Echanges sur l'orthopédie' Organisé le : '01/12/2015' À : 'CLINIQUE ST MICHEL ST ANNE - 88 RUE DE KERJESTIN - QUIMPER-29000 / France'  | Début contrat 01/12/2015 Fin contrat 01/12/2015;SANOFI SA;SANOFI AVENTIS FRANCE;10100218428;Convention | IIXRHSGB | RPC-2015-03926_PS-0241133;IIXRHSGB;;True;0.0;0.0;0.0;0.0;FALCOZ;FALCOZ Edouard;0.0;0.0;Médecin;Edouard;Autre;;Convention;RPPS
2018;CLINIQUE MON REPOS, 67 BOULEVARD LEAU;13008;FRANCE;MARSEILLE;;;Professionnel de santé;29/05/2018;Convention | FXYBJUOV | 20180807_LUF_1192;HOSPITALITE | Manifestation : 'RIM ADDICTION ET SCHIZOPHRENIE' Organisé le : '29/05/2018' À : 'MARSEILLE'  | Début contrat 29/05/2018 Fin contrat 29/05/2018;LUNDBECK SAS;LUNDBECK SAS;10100123156;Convention | FXYBJUOV | 20180807_LUF_1192;FXYBJUOV;60.0;False;0.0;60.0;0.0;60.0;HERNANDEZ;HERNANDEZ Geraldine;0.0;0.0;Médecin;Geraldine;Psychiatrie;;Convention;RPPS
2017;191 AVENUE DU DOYEN GASTON GIRAUD;34295;FRANCE;MONTPELLIER CEDEX 5;;;Professionnel de santé;14/09/2017;Convention | YLWGMHGC | EVE-C-2018-2-21-100007284450;INSCRIPTION CONGRES | Manifestation : '2017-CM- Congrès des JFIC - 14/15 sept 17 - Montpe' Organisé le : '14/09/2017' À : 'Montpellier' Par : 'Novartis Pharma France'  | Début contrat 14/09/2017 Fin contrat 15/09/2017;Novartis;NOVARTIS PHARMA SAS;10100786747;Convention | YLWGMHGC | EVE-C-2018-2-21-100007284450;YLWGMHGC;235.0;False;0.0;235.0;0.0;235.0;AUDURIER;AUDURIER Yohan;0.0;0.0;Pharmacien;Yohan;Autre;;Convention;RPPS
2017;132 RUE LA FAYETTE;75010;FRANCE;PARIS;;;Professionnel de santé;19/10/2017;Convention | YLWGMHGC | EVE-C-2018-2-21-100007284453;INSCRIPTION CONGRES | Manifestation : '2017 - CM - CNCF - OCT' Organisé le : '19/10/2017' À : 'EURALILLE' Par : 'Novartis Pharma France'  | Début contrat 19/10/2017 Fin contrat 21/10/2017;Novartis;NOVARTIS PHARMA SAS;10000307560;Convention | YLWGMHGC | EVE-C-2018-2-21-100007284453;YLWGMHGC;872.0;False;0.0;872.0;0.0;872.0;DUMORA;DUMORA Philippe;0.0;0.0;Médecin;Philippe;Cardiologie et maladies vasculaires;;Convention;RPPS
2015;247 BOULEVARD RASPAIL, CABINET MEDICAL;75014;FRANCE;PARIS;;;Professionnel de santé;10/03/2015;Convention | SYCNVYRX | CO20151PVVA29072015-086816;FORMATION |  | Début contrat 10/03/2015;Astrazeneca;ASTRAZENECA;10000436823;Convention | SYCNVYRX | CO20151PVVA29072015-086816;SYCNVYRX;;True;0.0;0.0;0.0;0.0;POULAIN;POULAIN Francois;0.0;0.0;Médecin;Francois;;;Convention;RPPS
2014;HOPITAL ARNAUD DE VILLENEUVE, CARDIOLOGIE SUD, 371 AVENUE DU DOYEN GASTON GIRAUD;34295;FRANCE;MONTPELLIER CEDEX 5;;;Professionnel de santé;26/06/2014;Convention | IIXRHSGB | RPC-2014-06201_PS-0504869;HOSPITALITE | Manifestation : 'Cours de Perfectionnement en Rythmologie - 2014' Organisé le : '26/06/2014' À : 'HOTEL MERCURE - LA GRANDE MOTTE / France' Par : 'AMEX'  | Début contrat 26/06/2014 Fin contrat 28/06/2014;SANOFI SA;SANOFI AVENTIS FRANCE;10003228110;Convention | IIXRHSGB | RPC-2014-06201_PS-0504869;IIXRHSGB;;True;0.0;0.0;0.0;0.0;PASQUIE;PASQUIE Jean Luc;0.0;0.0;Médecin;Jean Luc;Cardiologie et maladies vasculaires;;Convention;RPPS
2014;CH NORD DEUX SEVRES DE BRESSUIRE RUE DU DOCTEUR ICHON;79302;FRANCE;BRESSUIRE CEDEX;;;Professionnel de santé;13/11/2014;Convention | ZKEJWAGJ | 00000000000000050678;PARTICIPATION A MANIFESTATION SCIENTIFIQUE | Manifestation : 'FORMATION PRISE EN CHARGE AVC A LA PHASE AIGUE' Organisé le : '13/11/2014' À : 'BOUGUENAIS FR'  | Début contrat 13/11/2014;Boehringer Ingelheim;BOEHRINGER INGELHEIM FRANCE;;Convention | ZKEJWAGJ | 00000000000000050678;ZKEJWAGJ;;True;0.0;0.0;0.0;0.0;SOUMANA;SOUMANA Abdourahman;0.0;0.0;Médecin;Abdourahman;Médecine Générale;;Convention;AUTRE
2017;HOPITAL DES HAUTS CLOS 37 RUE DE LA MARNE;10003;FRANCE;TROYES CEDEX;;;Professionnel de santé;12/01/2017;Convention | ZKEJWAGJ | 00000000000000183885;HOSPITALITE | Manifestation : 'BPCO NOUVELLES RECOMMANDATIONS NOUVELLES PRATIQUES' Organisé le : '12/01/2017' À : 'TROYES FR'  | Début contrat 12/01/2017;Boehringer Ingelheim;BOEHRINGER INGELHEIM FRANCE;;Convention | ZKEJWAGJ | 00000000000000183885;ZKEJWAGJ;;True;0.0;0.0;0.0;0.0;DUBOIS;DUBOIS Valentin;0.0;0.0;Médecin;Valentin;Autre;;Convention;AUTRE
2016;8 RUE CHOBOURDIN;59134;FRANCE;HERLIES;;;Professionnel de santé;26/04/2016;Convention | ZKEJWAGJ | 00000000000000117330;PARTICIPATION A MANIFESTATION SCIENTIFIQUE | Manifestation : 'BPCO ET PRISE EN CHARGE THERAPEUTIQUE' Organisé le : '26/04/2016' À : 'SECLIN FR'  | Début contrat 26/04/2016;Boehringer Ingelheim;BOEHRINGER INGELHEIM FRANCE;10002205325;Convention | ZKEJWAGJ | 00000000000000117330;ZKEJWAGJ;;True;0.0;0.0;0.0;0.0;GATIE;GATIE Philippe;0.0;0.0;Médecin;Philippe;Médecine Générale;;Convention;RPPS
2014;32 RUE LAMBRECHT, CABINET MEDICAL;59167;FRANCE;LALLAING;;;Professionnel de santé;06/02/2014;Convention | PTBTSRUS | 2014-EVA-05-1151_C_1778387;PARTICIPATION REUNION SCIENTIFIQUE | Manifestation : 'QUAND LES PROBLÈMES D'ÉRECTION S'INVITENT À LA TABLE DES TROUBLES URINAIRES LIÉS À L'HYPERTROPHIE BÉNIGNE DE LA PROSTATE' Organisé le : '06/02/2014' À : 'BREBIÈRES' Par : 'LILLY'  | Début contrat 06/02/2014 Fin contrat 06/02/2014;Eli Lilly and Company;Lilly France SAS;10002210440;Convention | PTBTSRUS | 2014-EVA-05-1151_C_1778387;PTBTSRUS;;True;0.0;0.0;0.0;0.0;WIDIEZ;WIDIEZ Francis;0.0;0.0;Médecin;Francis;Médecine Générale;;Convention;RPPS
2016;RUE AMBROISE PARE, HOPITAL DE ST AVOLD - DIABETOLOGIE ONCO GASTRO;57502;FRANCE;ST AVOLD CEDEX;;;Professionnel de santé;07/12/2016;Convention | PTBTSRUS | 2017-E9981-01-589_C_1939097;PARTICIPATION REUNION SCIENTIFIQUE | Manifestation : 'RÉUNION SCIENTIFIQUE DANS LE DOMAINE DE LA DIABÉTOLOGIE' Organisé le : '07/12/2016' À : 'METZ' Par : 'LILLY'  | Début contrat 07/12/2016 Fin contrat 07/12/2016;Eli Lilly and Company;Lilly France SAS;10002374030;Convention | PTBTSRUS | 2017-E9981-01-589_C_1939097;PTBTSRUS;;True;0.0;0.0;0.0;0.0;KAZMIERCZAK;KAZMIERCZAK Guy;0.0;0.0;Médecin;Guy;Médecine Générale;;Convention;RPPS
2013;55 RUE DU FAUBOURG POISSONNIERE;75009;FRANCE;PARIS;;;Presse et média;01/07/2013;Convention | PTBTSRUS | 2013-CAT6ET7-02-40_C_355743;CONTRAT DE CONSEIL EN MARKETING/COMMUNICATION | Manifestation : 'CONTRAT DE CONSEIL EN MARKETING/COMMUNICATION - CONTRAT EN COURS AU 2ND SEMESTRE 2013' Organisé le : '01/07/2013' Par : 'LILLY'  | Début contrat 01/07/2013 Fin contrat 31/12/2013;Eli Lilly and Company;Lilly France SAS;[SO];Convention | PTBTSRUS | 2013-CAT6ET7-02-40_C_355743;PTBTSRUS;;True;0.0;0.0;0.0;0.0;;;0.0;0.0;;;;VITAMINES STUDIO;Convention;AUTRE
2015;CABINET MEDICAL, 6 RUE DE L EGLISE;67000;FRANCE;STRASBOURG;;;Professionnel de santé;26/01/2015;Convention | SOWWIAEU | C_16753;CONTRAT DE CONSEIL SCIENTIFIQUE |  | Début contrat 30/01/2015 Fin contrat 31/12/2015;Bayer;Bayer HealthCare SAS;10005190961;Convention | SOWWIAEU | C_16753;SOWWIAEU;;True;0.0;0.0;0.0;0.0;MICHEL;MICHEL Guillaume;0.0;0.0;Médecin;Guillaume;;;Convention;RPPS
2014;CABINET MEDICAL DU FLORIAN, 26 AVENUE JEAN JAURES;05000;FRANCE;GAP;;;Professionnel de santé;18/11/2014;Convention | IIXRHSGB | RPC-2014-05828_PS-0743874;HOSPITALITE | Manifestation : 'Rencontres Pluridisciplinaires de Proximité' Organisé le : '18/11/2014' À : 'LES OLIVADES - ROUTE DE LA GARDE - GAP-05000 / France'  | Début contrat 18/11/2014 Fin contrat 18/11/2014;SANOFI SA;SANOFI AVENTIS FRANCE;10003264909;Convention | IIXRHSGB | RPC-2014-05828_PS-0743874;IIXRHSGB;;True;0.0;0.0;0.0;0.0;EYMAR;EYMAR Sylvie;0.0;0.0;Médecin;Sylvie;Médecine Générale;;Convention;RPPS
2015;CH DE DAX, URGENCES SMUR, BOULEVARD YVES DU MANOIR;40107;FRANCE;DAX CEDEX;;;Professionnel de santé;25/06/2015;Convention | IIXRHSGB | RPC-2015-02208_PS-0055768;HOSPITALITE | Manifestation : 'Les Surlandaises 2015' Organisé le : '25/06/2015' À : 'institut du thermalisme - 8 rue St Ursule - DAX-40100 / France'  | Début contrat 25/06/2015 Fin contrat 25/06/2015;SANOFI SA;SANOFI AVENTIS FRANCE;10100605806;Convention | IIXRHSGB | RPC-2015-02208_PS-0055768;IIXRHSGB;;True;0.0;0.0;0.0;0.0;BERKANI;BERKANI Abdelkader;0.0;0.0;Médecin;Abdelkader;Médecine Générale;;Convention;RPPS
2016;CABINET MEDICAL, 13 RUE DU CANADA;51500;FRANCE;SILLERY;;;Professionnel de santé;08/03/2016;Convention | IIXRHSGB | RPC-2016-00774_PS-0360890;REUNION | Manifestation : 'Rencontres Pluridisciplinaires - Parcours de Soins' Organisé le : '08/03/2016' À : 'MERCURE REIMS PARC DES EXPOSITIONS - 2 RUE GABRIEL VOISIN - REIMS-51100 / France'  | Début contrat 08/03/2016 Fin contrat 08/03/2016;SANOFI SA;SANOFI AVENTIS FRANCE;10001752608;Convention | IIXRHSGB | RPC-2016-00774_PS-0360890;IIXRHSGB;;True;0.0;0.0;0.0;0.0;KUNTZ BERTHOU;KUNTZ BERTHOU Amelie;0.0;0.0;Médecin;Amelie;Médecine Générale;;Convention;RPPS
2016;CABINET PARAMEDICAL, 3 RUE DE MOGUEROU;29170;FRANCE;ST EVARZEC;;;Professionnel de santé;01/12/2016;Convention | IIXRHSGB | RPC-2016-04018_PS-0643173;REUNION | Manifestation : 'Soirée orthopédie' Organisé le : '01/12/2016' À : 'CLINIQUE ST MICHEL ST ANNE - 88 Rue de Kergestin - QUIMPER-29000 / France'  | Début contrat 01/12/2016 Fin contrat 01/12/2016;SANOFI SA;SANOFI AVENTIS FRANCE;[SO];Convention | IIXRHSGB | RPC-2016-04018_PS-0643173;IIXRHSGB;;True;0.0;0.0;0.0;0.0;VAMBACAS;VAMBACAS Nathalie;0.0;0.0;Masseur-kinésithérapeute;Nathalie;Autre;;Convention;AUTRE
2014;CENTRE MEDICO CHIR DE L EUROPE 9BIS AVENUE DE SAINT GERMAIN;78560;FRANCE;LE PORT MARLY;;;Professionnel de santé;17/12/2014;Convention | ZKEJWAGJ | 00000000000000047871;PARTICIPATION A MANIFESTATION SCIENTIFIQUE | Manifestation : 'PRISE EN CHARGE DE LA FIBRILLATION ATRIALE DU SUJET AGE' Organisé le : '17/12/2014' À : 'MARLY LE ROI FR'  | Début contrat 17/12/2014;Boehringer Ingelheim;BOEHRINGER INGELHEIM FRANCE;10001362978;Convention | ZKEJWAGJ | 00000000000000047871;ZKEJWAGJ;;True;0.0;0.0;0.0;0.0;SARFATI;SARFATI Laurent;0.0;0.0;Médecin;Laurent;Cardiologie et maladies vasculaires;;Convention;RPPS
2016;CLINIQUE CHANTECLER, REEDUCATION FONCTIONNELLE, 240 244 AVENUE DES POILUS;13012;FRANCE;MARSEILLE;;;Professionnel de santé;03/09/2016;Convention | IIXRHSGB | RPC-2016-02897_PS-0064796;REUNION | Manifestation : 'La chirurgie sur mesure : quelle indication ? pour quel patient ?' Organisé le : '03/09/2016' À : 'GOLDEN TULIP VILLA MASSALIA - 17 PLACE BONNEFON - MARSEILLE-13008 / France'  | Début contrat 03/09/2016 Fin contrat 03/09/2016;SANOFI SA;SANOFI AVENTIS FRANCE;10003331443;Convention | IIXRHSGB | RPC-2016-02897_PS-0064796;IIXRHSGB;;True;0.0;0.0;0.0;0.0;BIEGLIO;BIEGLIO Christian;0.0;0.0;Médecin;Christian;Médecine Générale;;Convention;RPPS
2016;INSTITUT CHIR DU PIED, 8 RUE LACEPEDE;75005;FRANCE;PARIS;;;Professionnel de santé;03/09/2016;Convention | IIXRHSGB | RPC-2016-02897_PS-0127123;REUNION | Manifestation : 'La chirurgie sur mesure : quelle indication ? pour quel patient ?' Organisé le : '03/09/2016' À : 'GOLDEN TULIP VILLA MASSALIA - 17 PLACE BONNEFON - MARSEILLE-13008 / France'  | Début contrat 03/09/2016 Fin contrat 03/09/2016;SANOFI SA;SANOFI AVENTIS FRANCE;10003366142;Convention | IIXRHSGB | RPC-2016-02897_PS-0127123;IIXRHSGB;;True;0.0;0.0;0.0;0.0;CERMOLACCE;CERMOLACCE Christophe;0.0;0.0;Médecin;Christophe;Chirurgie orthopédique et traumatologie;;Convention;RPPS
2016;PHARMACIE LAGOUBIE, 24 26 AVENUE DE SELVES;24200;FRANCE;SARLAT LA CANEDA;;;Professionnel de santé;03/11/2016;Convention | IIXRHSGB | RPC-2016-03571_PS-1037513;REUNION | Manifestation : 'L'univers des compléments alimentaires Santé Sanofi' Organisé le : '03/11/2016' À : 'LE BISTROT DE L'OCTROI - 111, avenue de Selves - SARLAT LA CANEDA-24200 / France'  | Début contrat 03/11/2016 Fin contrat 03/11/2016;SANOFI SA;SANOFI AVENTIS FRANCE;10100206126;Convention | IIXRHSGB | RPC-2016-03571_PS-1037513;IIXRHSGB;;True;0.0;0.0;0.0;0.0;COUSSY;COUSSY Helene;0.0;0.0;Pharmacien;Helene;Autre;;Convention;RPPS
2016;17 RUE GUSTAVE EIFFEL;81000;FRANCE;ALBI;;;Professionnel de santé;07/04/2016;Convention | ZKEJWAGJ | 00000000000000144690;PARTICIPATION A MANIFESTATION SCIENTIFIQUE | Manifestation : 'AVC ET FA' Organisé le : '07/04/2016' À : 'ALBI FR'  | Début contrat 07/04/2016;Boehringer Ingelheim;BOEHRINGER INGELHEIM FRANCE;10002896875;Convention | ZKEJWAGJ | 00000000000000144690;ZKEJWAGJ;;True;0.0;0.0;0.0;0.0;AMMOR;AMMOR Mohammed;0.0;0.0;Médecin;Mohammed;Cardiologie et maladies vasculaires;;Convention;RPPS
2017;1 RUE COMMANDANT CHARCOT;69005;FRANCE;LYON;;;Professionnel de santé;12/04/2017;Convention | ZKEJWAGJ | 00000000000000194363;HOSPITALITE | Manifestation : 'LES AVANCEES PRATIQUES DANS LA FA ET LEURS IMPLICATIONS DANS NOS PRATIQUES' Organisé le : '12/04/2017' À : 'CALUIRE ET CUIRE FR'  | Début contrat 12/04/2017;Boehringer Ingelheim;BOEHRINGER INGELHEIM FRANCE;10003127593;Convention | ZKEJWAGJ | 00000000000000194363;ZKEJWAGJ;;True;0.0;0.0;0.0;0.0;PUTHOD;PUTHOD Gersende;0.0;0.0;Médecin;Gersende;Médecine Générale;;Convention;RPPS
2013;;;;;;;Etudiant;11/10/2013;Convention | JUJJFUKK | CONVD-00946;CONVENTION HOSPITALITE | Manifestation : 'DES de neurologie de l'inter-région Nord Ouest' Organisé le : '11/10/2013' À : 'Paris'  | Début contrat 11/10/2013 Fin contrat 11/10/2013;GlaxoSmithKline;LABORATOIRE GLAXOSMITHKLINE;;Convention | JUJJFUKK | CONVD-00946;JUJJFUKK;;True;0.0;0.0;0.0;0.0;ELINANI;ELINANI Anais;0.0;0.0;;Anais;;;Convention;AUTRE
2014;1 BOULEVARD DE L HOPITAL, CH DE L AGGLOMERATION DE NEVERS, ENDOCRINOLOGIE DIABETOLOGIE;58033;FRANCE;NEVERS CEDEX;;;Professionnel de santé;04/09/2014;Convention | SYCNVYRX | CO20142PNOR29022015-003591;CONGRES/SUMPOSIUM |  | Début contrat 04/09/2014;Astrazeneca;ASTRAZENECA;10100189694;Convention | SYCNVYRX | CO20142PNOR29022015-003591;SYCNVYRX;;True;0.0;0.0;0.0;0.0;DESPLAN;DESPLAN Ardina;0.0;0.0;Médecin;Ardina;;;Convention;RPPS
2013;CABINET MEDICAL, 40 RUE DES ENTREPRENEURS;26300;FRANCE;MARCHES;;;Professionnel de santé;09/10/2013;Convention | IIXRHSGB | CA2013_GEMPAR297929;CONVENTION D HOSPITALITE | Manifestation : 'Quoi De Neuf En ORL Pédiatrique ? Recommandations Sur Le Traitement Des Otites Et Bon usage des antibiotiques.' Organisé le : '09/10/2013' À : 'LE TAHITI - LES BALMES - ROMANS SUR ISERE'  | Début contrat 09/10/2013 Fin contrat 09/10/2013;SANOFI SA;SANOFI AVENTIS FRANCE;10003105847;Convention | IIXRHSGB | CA2013_GEMPAR297929;IIXRHSGB;;True;0.0;0.0;0.0;0.0;SOULIE;SOULIE Thomas;0.0;0.0;Médecin;Thomas;Médecine Générale;;Convention;RPPS
2013;CABINET MEDICAL GERVANS, 129 RUE DES CAPUCINES;26730;FRANCE;LA BAUME D HOSTUN;;;Professionnel de santé;09/10/2013;Convention | IIXRHSGB | CA2013_GEMPAR297931;CONVENTION D HOSPITALITE | Manifestation : 'Quoi De Neuf En ORL Pédiatrique ? Recommandations Sur Le Traitement Des Otites Et Bon usage des antibiotiques.' Organisé le : '09/10/2013' À : 'LE TAHITI - LES BALMES - ROMANS SUR ISERE'  | Début contrat 09/10/2013 Fin contrat 09/10/2013;SANOFI SA;SANOFI AVENTIS FRANCE;10002962933;Convention | IIXRHSGB | CA2013_GEMPAR297931;IIXRHSGB;;True;0.0;0.0;0.0;0.0;LE MERRE;LE MERRE Rene;0.0;0.0;Médecin;Rene;Médecine Générale;;Convention;RPPS
2017;62 RUE DU GENERAL GUERIN;85035;FRANCE;LA ROCHE SUR YON CEDEX;;;Professionnel de santé;02/02/2017;Convention | ZKEJWAGJ | 00000000000000183871;HOSPITALITE | Manifestation : 'BPCO NOUVELLES RECOMMANDATIONS NOUVELLES PRATIQUES' Organisé le : '02/02/2017' À : 'LA ROCHE SUR YON FR'  | Début contrat 02/02/2017;Boehringer Ingelheim;BOEHRINGER INGELHEIM FRANCE;10002571635;Convention | ZKEJWAGJ | 00000000000000183871;ZKEJWAGJ;;True;0.0;0.0;0.0;0.0;FREDEVAL;FREDEVAL Helene;0.0;0.0;Médecin;Helene;Médecine Générale;;Convention;RPPS
2016;22 RUE SAINT DENIS;77700;FRANCE;COUPVRAY;;;Professionnel de santé;17/11/2016;Convention | ZKEJWAGJ | 00000000000000145862;PARTICIPATION A MANIFESTATION SCIENTIFIQUE | Manifestation : 'BPCO QUESTIONS D ACTUALITE' Organisé le : '17/11/2016' À : 'TORCY FR'  | Début contrat 17/11/2016;Boehringer Ingelheim;BOEHRINGER INGELHEIM FRANCE;10001580587;Convention | ZKEJWAGJ | 00000000000000145862;ZKEJWAGJ;;True;0.0;0.0;0.0;0.0;HO NGUYEN;HO NGUYEN Minh Ha;0.0;0.0;Médecin;Minh Ha;Médecine Générale;;Convention;RPPS
2016;22 AVENUE DE L ANCIEN VILLAGE;59760;FRANCE;GRANDE SYNTHE;;;Professionnel de santé;28/04/2016;Convention | ZKEJWAGJ | 00000000000000113269;PARTICIPATION A MANIFESTATION SCIENTIFIQUE | Manifestation : 'LES AVANCEES DANS LA FA ET LEURS IMPLICATIONS DANS NOS PRATIQUES' Organisé le : '28/04/2016' À : 'COUDEKERQUE BRANCHE FR'  | Début contrat 28/04/2016;Boehringer Ingelheim;BOEHRINGER INGELHEIM FRANCE;10002242708;Convention | ZKEJWAGJ | 00000000000000113269;ZKEJWAGJ;;True;0.0;0.0;0.0;0.0;MARRANT;MARRANT Bertrand;0.0;0.0;Médecin;Bertrand;Médecine Générale;;Convention;RPPS
2016;47 RUE DE LA REPUBLIQUE;69740;FRANCE;GENAS;;;Professionnel de santé;24/09/2016;Convention | ZKEJWAGJ | 00000000000000174903;CONGRES / SYMPOSIUM | Manifestation : 'ACTUALITE SUR L ANTICOAGULATION' Organisé le : '24/09/2016' À : 'LYON FR'  | Début contrat 24/09/2016;Boehringer Ingelheim;BOEHRINGER INGELHEIM FRANCE;10003038931;Convention | ZKEJWAGJ | 00000000000000174903;ZKEJWAGJ;;True;0.0;0.0;0.0;0.0;ANDONIAN;ANDONIAN Christian;0.0;0.0;Médecin;Christian;Médecine Générale;;Convention;RPPS
2016;20 22 RUE ANICET GODIN;80300;FRANCE;ALBERT;;;Professionnel de santé;22/01/2016;Convention | ZKEJWAGJ | 00000000000000109768;PARTICIPATION A MANIFESTATION SCIENTIFIQUE | Manifestation : 'QUOI DE NEUF DANS LA BPCO' Organisé le : '22/01/2016' À : 'AUTHUILE FR'  | Début contrat 22/01/2016;Boehringer Ingelheim;BOEHRINGER INGELHEIM FRANCE;10001826923;Convention | ZKEJWAGJ | 00000000000000109768;ZKEJWAGJ;;True;0.0;0.0;0.0;0.0;FRANCOIS;FRANCOIS Patrick;0.0;0.0;Médecin;Patrick;Médecine Générale;;Convention;RPPS
2015;HOPITAL DE MERCY 1 ALLEE DU CHATEAU;57530;FRANCE;ARS LAQUENEXY;;;Professionnel de santé;22/09/2015;Convention | ZKEJWAGJ | 00000000000000085018;ORATEUR | Manifestation : 'ITINERAIRE POUR UN DIAGNOSTIC PRECIS ET SANS DELAIS DES PNEUMOPATHIES INTERSTITIELLES DIFFUSES' Organisé le : '22/09/2015' À : 'MARLY FR'  | Début contrat 22/09/2015;Boehringer Ingelheim;BOEHRINGER INGELHEIM FRANCE;10003807426;Convention | ZKEJWAGJ | 00000000000000085018;ZKEJWAGJ;;True;0.0;0.0;0.0;0.0;HENNEQUIN;HENNEQUIN Laurent;0.0;0.0;Manipulateur d’électroradiologie médicale;Laurent;Autre;;Convention;RPPS
