annee;beneficiaire_adresse;beneficiaire_code_postal;beneficiaire_pays;beneficiaire_ville;categorie_generale;categorie_precise;catégorie_beneficiaire;date;declaration_id;detail;entreprise_émmetrice;filiale_déclarante;identifiant;identifiant_convention;identifiant_entreprise;montant_ttc;nom;nom_prénom;profession;prénom;specialité;structure_bénéficiaire;type_declaration;type_identifiant
2017;24 RUE SALOMON DE ROTHSCHILD;92150;FRANCE;SURESNES;;;Académies, Fondation, sociétés savantes, organismes de conseils;27/11/2017;Remuneration | ZKEJWAGJ | 00000000000000277996;;Boehringer Ingelheim;BOEHRINGER INGELHEIM FRANCE;;Convention | ZKEJWAGJ | 00000000000000254486;ZKEJWAGJ;1350;;;;;;PUBLICIS LIFE BRANDS;Remuneration;AUTRE
2017;ONCOVET, AV PAUL LANGEVIN;59650;FRANCE;VILLENEUVE-D'ASCQ;;;Vétérinaire;25/07/2017;Remuneration | ZKEJWAGJ | AH-2017-PO-17072017-0001;;Boehringer Ingelheim;BOEHRINGER INGELHEIM FRANCE;17540;Convention | ZKEJWAGJ | AH-2017-PO-17072017;ZKEJWAGJ;1020;SERRES;SERRES Francois;;Francois;;;Remuneration;ORDRE
2018;CENTRE CONDORCET 162 AV SCHWEITZER;33608;FRANCE;PESSAC;;;Association professionnel de santé;08/01/2018;Remuneration | ZKEJWAGJ | 00000000000000310225;;Boehringer Ingelheim;BOEHRINGER INGELHEIM FRANCE;;Convention | ZKEJWAGJ | 00000000000000143724;ZKEJWAGJ;40791;;;;;;ADERA;Remuneration;AUTRE
2018;2 PLACE SAINT HILAIRE;76044;FRANCE;ROUEN CEDEX;;;Professionnel de santé;02/05/2018;Remuneration | RIZLLUIF | VNQOAPPCTQ37R;;Bristol-Myers Squibb;BRISTOL-MYERS SQUIBB;10001884823;Convention | RIZLLUIF | VNQOAPPCTY5HV;RIZLLUIF;800;BERLAND;BERLAND Jacques;Médecin;Jacques;Cardiologie et maladies vasculaires;;Remuneration;RPPS
2017;PUBLICIS LIFE BRANDS 24 RUE SALOMON DE ROTHSCHILD;92150;FRANCE;SURESNES;;;Académies, Fondation, sociétés savantes, organismes de conseils;02/06/2017;Remuneration | ZKEJWAGJ | 00000000000000250260;;Boehringer Ingelheim;BOEHRINGER INGELHEIM FRANCE;;Convention | ZKEJWAGJ | 00000000000000251854;ZKEJWAGJ;1275;;;;;;PUBLICIS LIFE BRANDS;Remuneration;AUTRE
2018;NOUVEL HOPITAL SUD FRANCILIEN 40 AVENUE SERGE DASSAULT;91106;FRANCE;CORBEIL ESSONNES CEDEX;;;Professionnel de santé;12/04/2018;Remuneration | ZKEJWAGJ | 00000000000000309697;;Boehringer Ingelheim;BOEHRINGER INGELHEIM FRANCE;10003757738;Convention | ZKEJWAGJ | 00000000000000286157;ZKEJWAGJ;875;SMADJA;SMADJA Didier;Médecin;Didier;Neurologie;;Remuneration;RPPS
2018;UFR SCIENCES SANTE SIMONE VEIL 11 RUE GUILLAUME LENOIR;92150;FRANCE;SURESNES;;;Professionnel de santé;08/01/2018;Remuneration | ZKEJWAGJ | 00000000000000309313;;Boehringer Ingelheim;BOEHRINGER INGELHEIM FRANCE;10001141596;Convention | ZKEJWAGJ | 00000000000000254445;ZKEJWAGJ;1200;DEVILLIER;DEVILLIER Philippe;Médecin;Philippe;Pharmacovigilance;;Remuneration;RPPS
2018;3 RUE DU FAUBOURG SAINT HONORE;75008;FRANCE;PARIS;;;Académies, Fondation, sociétés savantes, organismes de conseils;28/05/2018;Remuneration | ZKEJWAGJ | 00000000000000310716;;Boehringer Ingelheim;BOEHRINGER INGELHEIM FRANCE;;Convention | ZKEJWAGJ | 00000000000000276556;ZKEJWAGJ;17180;;;;;;M EDEN;Remuneration;AUTRE
2017;RTE DE ROUZIERS;37390;FRANCE;CHANCEAUX-SUR-CHOISILLE;;;Presse et média;06/12/2017;Remuneration | ZKEJWAGJ | AH-2017-PO-08564-0005;;Boehringer Ingelheim;BOEHRINGER INGELHEIM FRANCE;401816210;Convention | ZKEJWAGJ | AH-2017-PO-08564;ZKEJWAGJ;1803;;;;;;GROUPE AXXESS;Remuneration;SIREN
2018;7 RUE DU GRIFFON, 69001 LYON;69001;FRANCE;LYON--1ER-ARRONDISSEMENT;;;Professionnel de santé;07/06/2018;Remuneration | ZCDCNUJV | MANUEL_387463;;Inter-View Partners France;Inter-View Partners France;10003060059;Convention | ZCDCNUJV | MANUEL_387434;ZCDCNUJV;90;NOUCHI;NOUCHI Carole;Médecin;Carole;Spécialiste en Médecine Générale;;Remuneration;RPPS
2017;CENTRE ANTONIN BALMES 39 AVENUE CHARLES FLAHAULT;34295;FRANCE;MONTPELLIER CEDEX 5;;;Professionnel de santé;02/03/2017;Remuneration | ZKEJWAGJ | 00000000000000202106;;Boehringer Ingelheim;BOEHRINGER INGELHEIM FRANCE;10003972725;Convention | ZKEJWAGJ | 00000000000000178950;ZKEJWAGJ;1200;JEANDEL;JEANDEL Claude;Médecin;Claude;Médecine interne;;Remuneration;RPPS
2017;CENTRE RENE GAUDUCHEAU BOULEVARD JACQUES MONOD;44805;FRANCE;SAINT HERBLAIN CEDEX;;;Etablissement de santé;26/04/2017;Remuneration | ZKEJWAGJ | 00000000000000201541;;Boehringer Ingelheim;BOEHRINGER INGELHEIM FRANCE;;Convention | ZKEJWAGJ | 00000000000000199362;ZKEJWAGJ;8146;;;;;;CENTRE RENE GAUDUCHEAU;Remuneration;AUTRE
2017;4 AVENUE D HAOUZA;72100;FRANCE;LE MANS;;;Professionnel de santé;30/03/2017;Remuneration | ZKEJWAGJ | 00000000000000201585;;Boehringer Ingelheim;BOEHRINGER INGELHEIM FRANCE;10002559861;Convention | ZKEJWAGJ | 00000000000000186460;ZKEJWAGJ;500;MINAUD;MINAUD Bruno;Médecin;Bruno;Pneumologie;;Remuneration;RPPS
2017;HOPITAL BROCA 54 56 RUE PASCAL;75013;FRANCE;PARIS;;;Professionnel de santé;01/03/2017;Remuneration | ZKEJWAGJ | 00000000000000202583;;Boehringer Ingelheim;BOEHRINGER INGELHEIM FRANCE;10001366961;Convention | ZKEJWAGJ | 00000000000000182006;ZKEJWAGJ;800;HANON;HANON Olivier;Médecin;Olivier;Gériatrie;;Remuneration;RPPS
2017;131 RUE D AGUESSEAU;92100;FRANCE;BOULOGNE BILLANCO;;;Académies, Fondation, sociétés savantes, organismes de conseils;20/12/2017;Remuneration | ZKEJWAGJ | 00000000000000277133;;Boehringer Ingelheim;BOEHRINGER INGELHEIM FRANCE;;Convention | ZKEJWAGJ | 00000000000000146522;ZKEJWAGJ;7200;;;;;;MEDEXACT;Remuneration;AUTRE
2017;HOPITAL DE LA MAISON BLANCHE 45 RUE COGNACQ JAY;51092;FRANCE;REIMS CEDEX;;;Professionnel de santé;31/05/2017;Remuneration | ZKEJWAGJ | 00000000000000202244;;Boehringer Ingelheim;BOEHRINGER INGELHEIM FRANCE;10100464907;Convention | ZKEJWAGJ | 00000000000000203020;ZKEJWAGJ;548;SOUILLE;SOUILLE Julie;Médecin;Julie;Médecine Générale;;Remuneration;RPPS
2017;CONSEIL MEDIA SANTE 1 AVENUE DE LA CRISTALLERIE;92316;FRANCE;SEVRES CEDEX;;;Presse et média;03/03/2017;Remuneration | ZKEJWAGJ | 00000000000000250036;;Boehringer Ingelheim;BOEHRINGER INGELHEIM FRANCE;;Convention | ZKEJWAGJ | 00000000000000249797;ZKEJWAGJ;518;;;;;;CONSEIL MEDIA SANTE;Remuneration;AUTRE
2017;T P DU CHRU DE GRENOBLE 1 BLD CHANTOURNE;38700;FRANCE;LA TRONCHE;;;Etablissement de santé;20/06/2017;Remuneration | ZKEJWAGJ | 00000000000000201382;;Boehringer Ingelheim;BOEHRINGER INGELHEIM FRANCE;;Convention | ZKEJWAGJ | 00000000000000054398;ZKEJWAGJ;280;;;;;;T P DU CHRU DE GRENOBLE;Remuneration;AUTRE
2017;14 RUE JEAN BOCQ;38000;FRANCE;GRENOBLE;;;Professionnel de santé;06/06/2017;Remuneration | ZKEJWAGJ | 00000000000000202020;;Boehringer Ingelheim;BOEHRINGER INGELHEIM FRANCE;10003791083;Convention | ZKEJWAGJ | 00000000000000182270;ZKEJWAGJ;1200;AGUILANIU;AGUILANIU Bernard;Médecin;Bernard;Pneumologie;;Remuneration;RPPS
2018;HOPITAL DE LA MAISON BLANCHE 45 RUE COGNACQ JAY;51092;FRANCE;REIMS CEDEX;;;Professionnel de santé;27/03/2018;Remuneration | ZKEJWAGJ | 00000000000000309315;;Boehringer Ingelheim;BOEHRINGER INGELHEIM FRANCE;10001744670;Convention | ZKEJWAGJ | 00000000000000290866;ZKEJWAGJ;1141;DESLEE;DESLEE Gaetan;Médecin;Gaetan;Pneumologie;;Remuneration;RPPS
2017;26 RUE GAMBETTA;34200;FRANCE;SETE;;;Professionnel de santé;30/03/2017;Remuneration | ZKEJWAGJ | 00000000000000201961;;Boehringer Ingelheim;BOEHRINGER INGELHEIM FRANCE;10003224671;Convention | ZKEJWAGJ | 00000000000000180351;ZKEJWAGJ;1050;PINZANI;PINZANI Alain;Médecin;Alain;Cardiologie et maladies vasculaires;;Remuneration;RPPS
2017;26 RUE GAMBETTA;34200;FRANCE;SETE;;;Professionnel de santé;25/09/2017;Remuneration | ZKEJWAGJ | 00000000000000278230;;Boehringer Ingelheim;BOEHRINGER INGELHEIM FRANCE;10003224671;Convention | ZKEJWAGJ | 00000000000000253090;ZKEJWAGJ;500;PINZANI;PINZANI Alain;Médecin;Alain;Cardiologie et maladies vasculaires;;Remuneration;RPPS
2017;HOPITAL COCHIN 27 RUE DU FAUBOURG SAINT JACQUES;75679;FRANCE;PARIS CEDEX 14;;;Professionnel de santé;18/08/2017;Remuneration | ZKEJWAGJ | 00000000000000277315;;Boehringer Ingelheim;BOEHRINGER INGELHEIM FRANCE;10001047033;Convention | ZKEJWAGJ | 00000000000000068416;ZKEJWAGJ;2500;ROCHE;ROCHE Nicolas;Médecin;Nicolas;Pneumologie;;Remuneration;RPPS
2017;54 RUE DUQUESNE;69006;FRANCE;LYON;;;Professionnel de santé;08/08/2017;Remuneration | ZKEJWAGJ | 00000000000000277414;;Boehringer Ingelheim;BOEHRINGER INGELHEIM FRANCE;10100280741;Convention | ZKEJWAGJ | 00000000000000184345;ZKEJWAGJ;350;PIEGAY;PIEGAY Fabrice;Médecin;Fabrice;Pneumologie;;Remuneration;RPPS
2017;CHEMIN DES GUILHEMS;34171;FRANCE;CASTELNAU LE LEZ CEDEX;;;Professionnel de santé;07/07/2017;Remuneration | ZKEJWAGJ | 00000000000000277077;;Boehringer Ingelheim;BOEHRINGER INGELHEIM FRANCE;10003949269;Convention | ZKEJWAGJ | 00000000000000182384;ZKEJWAGJ;500;BROUSSE;BROUSSE Christophe;Médecin;Christophe;Pneumologie;;Remuneration;RPPS
2017;3 BOULEVARD ALEXANDRE FLEMING;25030;FRANCE;BESANCON;;;Association professionnel de santé;06/07/2017;Remuneration | ZKEJWAGJ | 00000000000000277277;;Boehringer Ingelheim;BOEHRINGER INGELHEIM FRANCE;;Convention | ZKEJWAGJ | 00000000000000182331;ZKEJWAGJ;3800;;;;;;AS FRANC COMTOISE AIDE RECH CARDIOLOGIE;Remuneration;AUTRE
2017;CH ANDRE MIGNOT 177 RUE DE VERSAILLES;78157;FRANCE;LE CHESNAY CEDEX;;;Professionnel de santé;18/12/2017;Remuneration | ZKEJWAGJ | 00000000000000277397;;Boehringer Ingelheim;BOEHRINGER INGELHEIM FRANCE;10004900832;Convention | ZKEJWAGJ | 00000000000000257692;ZKEJWAGJ;548;POLONOVSKI;POLONOVSKI Emma;Médecin;Emma;Pneumologie;;Remuneration;RPPS
2017;CONSEIL MEDIA SANTE 1 AVENUE DE LA CRISTALLERIE;92316;FRANCE;SEVRES CEDEX;;;Presse et média;12/01/2017;Remuneration | ZKEJWAGJ | 00000000000000250387;;Boehringer Ingelheim;BOEHRINGER INGELHEIM FRANCE;;Convention | ZKEJWAGJ | 00000000000000249797;ZKEJWAGJ;268;;;;;;CONSEIL MEDIA SANTE;Remuneration;AUTRE
2017;CDMRT 13 CHEMIN DES BOURRELY;13015;FRANCE;MARSEILLE;;;Professionnel de santé;24/08/2017;Remuneration | ZKEJWAGJ | 00000000000000276963;;Boehringer Ingelheim;BOEHRINGER INGELHEIM FRANCE;10003329694;Convention | ZKEJWAGJ | 00000000000000279253;ZKEJWAGJ;600;HUGUES;HUGUES Bernard;Médecin;Bernard;Pneumologie;;Remuneration;RPPS
2017;16 ALLEES PAULMY;64100;FRANCE;BAYONNE;;;Professionnel de santé;24/04/2017;Remuneration | ZKEJWAGJ | 00000000000000202220;;Boehringer Ingelheim;BOEHRINGER INGELHEIM FRANCE;10002804754;Convention | ZKEJWAGJ | 00000000000000180361;ZKEJWAGJ;1050;DEQUEKER;DEQUEKER Jean Luc;Médecin;Jean Luc;Cardiologie et maladies vasculaires;;Remuneration;RPPS
2018;10 RUE FREMICOURT;75015;FRANCE;PARIS;;;Académies, Fondation, sociétés savantes, organismes de conseils;30/05/2018;Remuneration | ZKEJWAGJ | 00000000000000310829;;Boehringer Ingelheim;BOEHRINGER INGELHEIM FRANCE;;Convention | ZKEJWAGJ | 00000000000000283066;ZKEJWAGJ;1350;;;;;;SABINE CLAUDE SANTE CONSEIL;Remuneration;AUTRE
2018;PLACE AMELIE RABA LEON;33076;FRANCE;BORDEAUX CEDEX;;;Professionnel de santé;20/06/2018;Remuneration | RIZLLUIF | VNQOAPPCTR8U3;;Bristol-Myers Squibb;BRISTOL-MYERS SQUIBB;10004420518;Convention | RIZLLUIF | VNQOAPPCTY5FM;RIZLLUIF;1200;SCHAEVERBEKE;SCHAEVERBEKE Thierry;Médecin;Thierry;Rhumatologie;;Remuneration;RPPS
2017;114 RUE EDOUARD VAILLANT;94805;FRANCE;VILLEJUIF CEDEX;;;Etablissement de santé;21/08/2017;Remuneration | ZKEJWAGJ | 00000000000000277009;;Boehringer Ingelheim;BOEHRINGER INGELHEIM FRANCE;;Convention | ZKEJWAGJ | 00000000000000251437;ZKEJWAGJ;800;;;;;;INSTITUT GUSTAVE ROUSSY CANCERET;Remuneration;AUTRE
2017;159 RUE ERLANGER;75016;FRANCE;PARIS;;;Académies, Fondation, sociétés savantes, organismes de conseils;10/10/2017;Remuneration | ZKEJWAGJ | 00000000000000277351;;Boehringer Ingelheim;BOEHRINGER INGELHEIM FRANCE;;Convention | ZKEJWAGJ | 00000000000000255822;ZKEJWAGJ;3495;;;;;;NEX ET COM SAS AGENCY;Remuneration;AUTRE
2017;INSTITUT REGIONAL FEDERATIF DU CANCER 12 RUE DU PROF PAUL MILLERET;25000;FRANCE;BESANCON;;;Etablissement de santé;07/04/2017;Remuneration | ZKEJWAGJ | 00000000000000201255;;Boehringer Ingelheim;BOEHRINGER INGELHEIM FRANCE;;Convention | ZKEJWAGJ | 00000000000000202800;ZKEJWAGJ;500;;;;;;INSTITUT REGIONAL FEDERATIF DU CANCER;Remuneration;AUTRE
2017;HOPITAL COCHIN 27 RUE DU FAUBOURG SAINT JACQUES;75679;FRANCE;PARIS CEDEX 14;;;Professionnel de santé;06/11/2017;Remuneration | ZKEJWAGJ | 00000000000000277318;;Boehringer Ingelheim;BOEHRINGER INGELHEIM FRANCE;10001047033;Convention | ZKEJWAGJ | 00000000000000179038;ZKEJWAGJ;1200;ROCHE;ROCHE Nicolas;Médecin;Nicolas;Pneumologie;;Remuneration;RPPS
2018;29 BOULEVARD VINCENT DELPUECH;13006;FRANCE;MARSEILLE;;;Association professionnel de santé;25/04/2018;Remuneration | RIZLLUIF | VNQOAPPCTC6SC;;Bristol-Myers Squibb;BRISTOL-MYERS SQUIBB;452315906;Convention | RIZLLUIF | VNQOAPPCTY57R;RIZLLUIF;1999;;;;;;AMICAL;Remuneration;SIREN
2017;ASCOPHARM GROUPE NOVASCO 56 RUE DE LONDRES;75009;FRANCE;PARIS;;;Académies, Fondation, sociétés savantes, organismes de conseils;01/03/2017;Remuneration | ZKEJWAGJ | 00000000000000201513;;Boehringer Ingelheim;BOEHRINGER INGELHEIM FRANCE;;Convention | ZKEJWAGJ | 00000000000000251523;ZKEJWAGJ;1015;;;;;;ASCOPHARM GROUPE NOVASCO;Remuneration;AUTRE
2017;ARPDP AS RCH POUR DEV PNEUMOLO 54 BLD ORNANO;75018;FRANCE;PARIS;;;Association professionnel de santé;18/01/2017;Remuneration | ZKEJWAGJ | 00000000000000201446;;Boehringer Ingelheim;BOEHRINGER INGELHEIM FRANCE;;Convention | ZKEJWAGJ | 00000000000000198863;ZKEJWAGJ;775;;;;;;ARPDP AS RCH POUR DEV PNEUMOLO;Remuneration;AUTRE
2017;IDS SANTE 1A RUE ANDRE;60500;FRANCE;CHANTILLY;;;Académies, Fondation, sociétés savantes, organismes de conseils;27/06/2017;Remuneration | ZKEJWAGJ | 00000000000000250153;;Boehringer Ingelheim;BOEHRINGER INGELHEIM FRANCE;;Convention | ZKEJWAGJ | 00000000000000251985;ZKEJWAGJ;605;;;;;;IDS SANTE;Remuneration;AUTRE
2017;3 AVENUE HENRI RIBERE;66000;FRANCE;PERPIGNAN;;;Professionnel de santé;03/10/2017;Remuneration | ZKEJWAGJ | 00000000000000277324;;Boehringer Ingelheim;BOEHRINGER INGELHEIM FRANCE;10000552413;Convention | ZKEJWAGJ | 00000000000000252384;ZKEJWAGJ;300;BRUN;BRUN Olivier;Médecin;Olivier;Pneumologie;;Remuneration;RPPS
2017;ANED 151 RTE DE SAINT ANTOINE DE GINESTI RE;6202;FRANCE;NICE;;;Association professionnel de santé;26/10/2017;Remuneration | ZKEJWAGJ | 00000000000000276631;;Boehringer Ingelheim;BOEHRINGER INGELHEIM FRANCE;;Convention | ZKEJWAGJ | 00000000000000181340;ZKEJWAGJ;7900;;;;;;AS NI OISE PR L ETUDE DE LA DERMATOLOGIE;Remuneration;AUTRE
2017;CERI MEDICAL 19 AV GAMBETTA;92120;FRANCE;MONTROUGE;;;Académies, Fondation, sociétés savantes, organismes de conseils;26/01/2017;Remuneration | ZKEJWAGJ | 00000000000000250406;;Boehringer Ingelheim;BOEHRINGER INGELHEIM FRANCE;;Convention | ZKEJWAGJ | 00000000000000139974;ZKEJWAGJ;64;;;;;;CERI MEDICAL;Remuneration;AUTRE
2017;T P DU CHU DE DIJON 1 BIS BOULEVARD JEANNE D ARC;21000;FRANCE;DIJON;;;Etablissement de santé;12/05/2017;Remuneration | ZKEJWAGJ | 00000000000000201402;;Boehringer Ingelheim;BOEHRINGER INGELHEIM FRANCE;;Convention | ZKEJWAGJ | 00000000000000050882;ZKEJWAGJ;7499;;;;;;T P DU CHU DE DIJON;Remuneration;AUTRE
2017;CMUPL 4 RUE LARREY;49933;FRANCE;NANTES;;;Association professionnel de santé;31/05/2017;Remuneration | ZKEJWAGJ | 00000000000000201558;;Boehringer Ingelheim;BOEHRINGER INGELHEIM FRANCE;;Convention | ZKEJWAGJ | 00000000000000202902;ZKEJWAGJ;800;;;;;;CMUPL;Remuneration;AUTRE
2015;5 Avenue Choiseul;56100;FRANCE;LORIENT;;;Etablissement de santé;12/11/2015;Remuneration | CKNIERLP | S2-2017-118;;KYOWA KIRIN;KYOWA KIRIN;;Convention | CKNIERLP | 13-ET-PEC;CKNIERLP;4100;;;;;;CENTRE HOSPITALIER DE BRETAGNE SUD;Remuneration;AUTRE
2015;5 Avenue Choiseul;56100;FRANCE;LORIENT;;;Etablissement de santé;12/11/2015;Remuneration | CKNIERLP | S2-2017-119;;KYOWA KIRIN;KYOWA KIRIN;;Convention | CKNIERLP | 13-ET-PEC;CKNIERLP;3000;;;;;;CENTRE HOSPITALIER DE BRETAGNE SUD;Remuneration;AUTRE
2017;65 Rue Camille Desmoulins;92130;FRANCE;ISSY-LES-MOULINEAUX;;;Académies, Fondation, sociétés savantes, organismes de conseils;28/06/2017;Remuneration | CKNIERLP | S2-2017-151;;KYOWA KIRIN;KYOWA KIRIN;542037031;Convention | CKNIERLP | S2-CMKT-001;CKNIERLP;9750;;;;;;ELSEVIER MASSON;Remuneration;SIREN
2014;40, RUE VERDI;06000;FRANCE;NICE;;;Professionnel de santé;08/07/2014;Remuneration | XECYDDGU | 2014S2-HONO-01-1601;;Allergan;ALLERGAN FRANCE;10003907531;Convention | XECYDDGU | 2014S1-FOND-01-0100;XECYDDGU;1250;ZBILI;ZBILI Michel;Médecin;Michel;Qualifié en Médecine Générale;;Remuneration;RPPS
2015;40, RUE VERDI;06000;FRANCE;NICE;;;Professionnel de santé;18/02/2015;Remuneration | XECYDDGU | 2015S1-HONO-01-2120;;Allergan;ALLERGAN FRANCE;10003907531;Convention | XECYDDGU | 2014S2-FOND-02-0008;XECYDDGU;1250;ZBILI;ZBILI Michel;Médecin;Michel;Qualifié en Médecine Générale;;Remuneration;RPPS
2013;8 ESPACE MEDITERRANEE;66000;FRANCE;PERPIGNAN;;;Professionnel de santé;31/05/2013;Remuneration | XECYDDGU | 2013S1-HONO-01-0794;;Allergan;ALLERGAN FRANCE;10003256228;Convention | XECYDDGU | 2013-FOND-0034;XECYDDGU;500;DI NOLFO;DI NOLFO Michel;Médecin;Michel;Ophtalmologie;;Remuneration;RPPS
2017;30 VOIE ROMAINE, HOPITAL PASTEUR;06002;FRANCE;NICE CEDEX 1;;;Professionnel de santé;23/05/2017;Remuneration | XECYDDGU | 2017S1-HONO-01-4050;;Allergan;ALLERGAN FRANCE;10100810984;Convention | XECYDDGU | 2017S1-FOND-12-110;XECYDDGU;500;MARTIANO;MARTIANO David;Médecin;David;Ophtalmologie;;Remuneration;RPPS
2018;HOPITAL MARSEILLE APHM, 6 ALLES TURCAT MERY;13285;FRANCE;MARSEILLE;;;Etablissement de santé;11/04/2018;Remuneration | URRGRWPI | BIOTRONIKFR2018_05343;;BIOTRONIK FRANCE SAS;BIOTRONIK FRANCE SAS;;Convention | URRGRWPI | BIOTRONIK2016_3147;URRGRWPI;1492;;;;;;TRESORERIE HOPITAL MARSEILLE APHM;Remuneration;AUTRE
2018;CENTRE DE RECHERHCE EN RYTHMOLOGIE INTERVENTIONNELLE DE CLAIRVAL, HOPITAL PRIVE DE CLAIRVAL, 317 BOULEVARD DU REDON;13009;FRANCE;MARSEILLE;;;Association professionnel de santé;21/03/2018;Remuneration | URRGRWPI | BIOSE2018_146;;BIOTRONIK FRANCE SAS;BIOTRONIK FRANCE SAS;;Convention | URRGRWPI | BIOTRONIK2014_4889;URRGRWPI;633;;;;;;CENTRE DE RECHERHCE EN RYTHMOLOGIE INTERVENTIONNELLE DE CLAIRVAL;Remuneration;AUTRE
2018;CENTRE DE RECHERHCE EN RYTHMOLOGIE INTERVENTIONNELLE DE CLAIRVAL, HOPITAL PRIVE DE CLAIRVAL, 317 BOULEVARD DU REDON;13009;FRANCE;MARSEILLE;;;Association professionnel de santé;21/03/2018;Remuneration | URRGRWPI | BIOSE2018_145;;BIOTRONIK FRANCE SAS;BIOTRONIK FRANCE SAS;;Convention | URRGRWPI | BIOTRONIK2014_4889;URRGRWPI;58;;;;;;CENTRE DE RECHERHCE EN RYTHMOLOGIE INTERVENTIONNELLE DE CLAIRVAL;Remuneration;AUTRE
2017;ASSOCIATION NORMANDE DE RECHERHCE EN CARDIOLOGIE, 2 PLACE SAINT HILAIRE;76000;FRANCE;ROUEN;;;Association professionnel de santé;11/10/2017;Remuneration | URRGRWPI | BIOTRONIKFR2018_05137;;BIOTRONIK FRANCE SAS;BIOTRONIK FRANCE SAS;;Convention | URRGRWPI | BIOTRONIKFR2018_05117;URRGRWPI;1500;;;;;;ASSOCIATION NORMANDE DE RECHERHCE EN CARDIOLOGIE;Remuneration;AUTRE
2017;8 RUE LAMARTINE;49450;FRANCE;SAINT-MACAIRE-EN-MAUGES;;;Vétérinaire;05/10/2017;Remuneration | SYCDSBTE | 0364_2017_AG;;COOPERATIVE VETERINAIRE DE L'OUEST;COOPERATIVE VETERINAIRE DE L'OUEST;3954;Convention | SYCDSBTE | 0035_2017_AG;SYCDSBTE;2013;LEISEING;LEISEING Etienne;;Etienne;;;Remuneration;ORDRE
2017;54 AVENUE PIERRE GRENIER;92100;FRANCE;BOULOGNE-BILLANCOURT;;;Vétérinaire;05/10/2017;Remuneration | SYCDSBTE | 0365_2017_AG;;COOPERATIVE VETERINAIRE DE L'OUEST;COOPERATIVE VETERINAIRE DE L'OUEST;16749;Convention | SYCDSBTE | 0037_2017_AG;SYCDSBTE;2517;PARLIER;PARLIER Carole;;Carole;;;Remuneration;ORDRE
2017;72 BD CHARLES DE GAULLE;92700;FRANCE;COLOMBES;;;Vétérinaire;05/10/2017;Remuneration | SYCDSBTE | 0366_2017_AG;;COOPERATIVE VETERINAIRE DE L'OUEST;COOPERATIVE VETERINAIRE DE L'OUEST;8687;Convention | SYCDSBTE | 0038_2017_AG;SYCDSBTE;1510;PELLETIER;PELLETIER Bruno;;Bruno;;;Remuneration;ORDRE
2017;CLINIQUE VETERINAIRE DE BEAUFE, Z.A. DE LA BODINIERE;72210;FRANCE;ROEZE-SUR-SARTHE;;;Vétérinaire;05/10/2017;Remuneration | SYCDSBTE | 0361_2017_AG;;COOPERATIVE VETERINAIRE DE L'OUEST;COOPERATIVE VETERINAIRE DE L'OUEST;8756;Convention | SYCDSBTE | 0032_2017_AG;SYCDSBTE;2517;BODINEAU;BODINEAU Stephane;;Stephane;;;Remuneration;ORDRE
2018;Non renseigné;00000;FRANCE;Non renseigné;;;Professionnel de santé;12/03/2018;Remuneration | OBSZTCUN | 28134;;SOS OXYGENE PARTICIPATIONS;SOS OXYGENE PARTICIPATIONS;10100273894;Convention | OBSZTCUN | 28263;OBSZTCUN;1600;GARNERO;GARNERO Aude;Médecin;Aude;Anesthesie-réanimation;;Remuneration;RPPS
2017;9 QUAI MONCOUSU;44093;FRANCE;NANTES CEDEX 1;;;Professionnel de santé;21/07/2017;Remuneration | RIZLLUIF | VN00030SNQ;;Bristol-Myers Squibb;BRISTOL-MYERS SQUIBB;10001138923;Convention | RIZLLUIF | 526567CONV;RIZLLUIF;179;BENE;BENE Marie Christine;Médecin;Marie Christine;Autre;;Remuneration;RPPS
2017;4 RUE DE LA CHINE;75970;FRANCE;PARIS CEDEX 20;;;Professionnel de santé;01/12/2017;Remuneration | RIZLLUIF | VNQNTJPVT148C;;Bristol-Myers Squibb;BRISTOL-MYERS SQUIBB;10001495455;Convention | RIZLLUIF | 555884CONV;RIZLLUIF;589;WISLEZ;WISLEZ Marie;Médecin;Marie;Autre;;Remuneration;RPPS
2017;ALLEE DU MORVAN;54511;FRANCE;VANDOEUVRE LES NANCY CEDEX;;;Professionnel de santé;03/05/2017;Remuneration | RIZLLUIF | 559093REMU;;Bristol-Myers Squibb;BRISTOL-MYERS SQUIBB;10100553907;Convention | RIZLLUIF | 503193CONV;RIZLLUIF;673;BELLE;BELLE Arthur;Médecin;Arthur;;;Remuneration;RPPS
2017;1 AVENUE DE LA CRISTALLERIE, CS60003;92316;FRANCE;SEVRES CEDEX;;;Presse et média;02/02/2017;Remuneration | OHBQOWOS | R_4569;;GlaxoSmithKline;GLAXOSMITHKLINE SANTE GRAND PUBLIC;;Convention | OHBQOWOS | MANUEL_200724;OHBQOWOS;346;;;;;;CMS;Remuneration;AUTRE
2017;AVENUE DE KIMBERLEY;38434;FRANCE;ECHIROLLES CEDEX;;;Professionnel de santé;06/12/2017;Remuneration | RIZLLUIF | VNQNTJPVT146S;;Bristol-Myers Squibb;BRISTOL-MYERS SQUIBB;10100456606;Convention | RIZLLUIF | VNQO9OX0CHNC8;RIZLLUIF;925;BAILLET;BAILLET Athan;Médecin;Athan;Rhumatologie;;Remuneration;RPPS
2017;3 RUE FREDERIC COMBEMALE;59020;FRANCE;LILLE CEDEX;;;Professionnel de santé;01/12/2017;Remuneration | RIZLLUIF | VNQNTJPVT147G;;Bristol-Myers Squibb;BRISTOL-MYERS SQUIBB;10001235232;Convention | RIZLLUIF | VNQO9OX0CHND6;RIZLLUIF;841;LARTIGAU;LARTIGAU Eric;Médecin;Eric;Autre;;Remuneration;RPPS
2017;58 RUE MONTALEMBERT;63003;FRANCE;CLERMONT FERRAND CEDEX 1;;;Professionnel de santé;13/12/2017;Remuneration | RIZLLUIF | VNQNTJPVT147L;;Bristol-Myers Squibb;BRISTOL-MYERS SQUIBB;10100084150;Convention | RIZLLUIF | VNQO9OX0CHNDN;RIZLLUIF;336;MATHIEU;MATHIEU Sylvain;Médecin;Sylvain;Rhumatologie;;Remuneration;RPPS
2017;3 PLACE DE SILLY;92211;FRANCE;ST CLOUD CEDEX;;;Professionnel de santé;06/12/2017;Remuneration | RIZLLUIF | VNQNTJPVT1487;;Bristol-Myers Squibb;BRISTOL-MYERS SQUIBB;10000825991;Convention | RIZLLUIF | VNQO9OX0CHN46;RIZLLUIF;800;KARNEFF;KARNEFF Alain Jean;Médecin;Alain Jean;Rhumatologie;;Remuneration;RPPS
2017;20 RUE LEBLANC;75908;FRANCE;PARIS CEDEX 15;;;Professionnel de santé;01/12/2017;Remuneration | RIZLLUIF | VNQNTJPVT149D;;Bristol-Myers Squibb;BRISTOL-MYERS SQUIBB;10000528868;Convention | RIZLLUIF | VNQO9OX0CHLSB;RIZLLUIF;800;MEJEAN;MEJEAN Arnaud;Médecin;Arnaud;Autre;;Remuneration;RPPS
2017;5 PLACE D ARSONVAL;69437;FRANCE;LYON CEDEX 03;;;Professionnel de santé;01/12/2017;Remuneration | RIZLLUIF | VNQNTJPVT149F;;Bristol-Myers Squibb;BRISTOL-MYERS SQUIBB;10002480399;Convention | RIZLLUIF | VNQO9OX0CHN6S;RIZLLUIF;673;DESMURS CLAVEL;DESMURS CLAVEL Helene;Médecin;Helene;Médecine interne;;Remuneration;RPPS
2017;BOULEVARD DU PROFESSEUR JULES LECLERCQ;59037;FRANCE;LILLE CEDEX;;;Professionnel de santé;15/12/2017;Remuneration | RIZLLUIF | VNQNTJPVT149O;;Bristol-Myers Squibb;BRISTOL-MYERS SQUIBB;10002298056;Convention | RIZLLUIF | VNQO9OX0CHNFP;RIZLLUIF;336;SCHERPEREEL;SCHERPEREEL Arnaud;Médecin;Arnaud;Pneumologie;;Remuneration;RPPS
2017;BOULEVARD PROFESSEUR JACQUES MONOD;44805;FRANCE;ST HERBLAIN CEDEX;;;Professionnel de santé;06/12/2017;Remuneration | RIZLLUIF | VNQNTJPVT14BN;;Bristol-Myers Squibb;BRISTOL-MYERS SQUIBB;10002577376;Convention | RIZLLUIF | VNQO9OX0CHNJ3;RIZLLUIF;1400;KRAEBER BODERE;KRAEBER BODERE Francoise;Médecin;Francoise;Médecine nucléaire;;Remuneration;RPPS
2017;9 RUE CAMILLE FLAMMARION;91265;FRANCE;JUVISY SUR ORGE CEDEX;;;Professionnel de santé;06/12/2017;Remuneration | RIZLLUIF | VNQNTJPVT14BP;;Bristol-Myers Squibb;BRISTOL-MYERS SQUIBB;10001429652;Convention | RIZLLUIF | VNQO9OX0CHNC4;RIZLLUIF;800;BITAR PRUD HOMME;BITAR PRUD HOMME Salma;Médecin;Salma;Rhumatologie;;Remuneration;RPPS
2017;69 AVENUE DE PARIS;94163;FRANCE;ST MANDE CEDEX;;;Professionnel de santé;01/12/2017;Remuneration | RIZLLUIF | VNQNTJPVT14D7;;Bristol-Myers Squibb;BRISTOL-MYERS SQUIBB;10005234066;Convention | RIZLLUIF | VNQO9OX0CHNAQ;RIZLLUIF;378;ROCHE;ROCHE Nicolas Charles;Médecin;Nicolas Charles;Cardiologie et maladies vasculaires;;Remuneration;RPPS
2017;1 RUE D AMIENS;76038;FRANCE;ROUEN CEDEX;;;Professionnel de santé;15/12/2017;Remuneration | RIZLLUIF | VNQNTJPVT14DA;;Bristol-Myers Squibb;BRISTOL-MYERS SQUIBB;10001928794;Convention | RIZLLUIF | VNQO9OX0CHNFM;RIZLLUIF;400;LEPRETRE;LEPRETRE Stephane;Médecin;Stephane;Hématologie;;Remuneration;RPPS
2017;101 RUE DE TOLBIAC;75013;FRANCE;PARIS;;;Etablissement de santé;13/12/2017;Remuneration | RIZLLUIF | VNQO6PS6CHWUG;;Bristol-Myers Squibb;BRISTOL-MYERS SQUIBB;491186052;Convention | RIZLLUIF | VNQO9OX0CHLR0;RIZLLUIF;175437;;;;;;UNICANCER ACHATS;Remuneration;SIREN
2017;151 RUE DU FAUBOURG SAINT ANTOIN;75011;FRANCE;PARIS;;;Association professionnel de santé;11/10/2017;Remuneration | RIZLLUIF | VNQO6PS6CHWVD;;Bristol-Myers Squibb;BRISTOL-MYERS SQUIBB;421204199;Convention | RIZLLUIF | VNQO9OX0CHLMR;RIZLLUIF;129270;;;;;;GERCOR;Remuneration;SIREN
2017;2 AVENUE OSCAR LAMBRET;59037;FRANCE;LILLE CEDEX;;;Etablissement de santé;15/12/2017;Remuneration | RIZLLUIF | VNQO6PS6CHWWV;;Bristol-Myers Squibb;BRISTOL-MYERS SQUIBB;130007255;Convention | RIZLLUIF | VNQO9OX0CHLPB;RIZLLUIF;1300;;;;;;RECETTE DES FINANCES CHU;Remuneration;SIREN
2017;108BIS AVENUE ALBERT RAIMOND;42271;FRANCE;ST PRIEST EN JAREZ CEDEX;;;Etablissement de santé;15/12/2017;Remuneration | RIZLLUIF | VNQO6PS6CHWY9;;Bristol-Myers Squibb;BRISTOL-MYERS SQUIBB;420010241;Convention | RIZLLUIF | VNQO9OX0CHLPM;RIZLLUIF;1300;;;;;;ICLN;Remuneration;FINESS
2017;65 RUE D AGUESSEAU;92100;FRANCE;BOULOGNE BILLANCOURT;;;Editeur de logiciel;03/08/2017;Remuneration | RIZLLUIF | VNQOAPPCSIRUO;;Bristol-Myers Squibb;BRISTOL-MYERS SQUIBB;;Convention | RIZLLUIF | VNQOAPPCSIS0I;RIZLLUIF;35000;;;;;;SANTOR EDITION;Remuneration;AUTRE
2017;7 AVENUE PIERRE SEMARD;1000;FRANCE;BOURG EN BRESSE;;;Association usager de santé;24/11/2017;Remuneration | RIZLLUIF | VNQOAPPCSIRUU;;Bristol-Myers Squibb;BRISTOL-MYERS SQUIBB;510862667;Convention | RIZLLUIF | VNQOAPPCSIRZJ;RIZLLUIF;50000;;;;;;FEDERATION FRANCE AVC;Remuneration;SIREN
2017;10 CITE MALESHERBES;75009;FRANCE;PARIS;;;Académies, Fondation, sociétés savantes, organismes de conseils;15/11/2017;Remuneration | RIZLLUIF | VNQOAPPCSIRVD;;Bristol-Myers Squibb;BRISTOL-MYERS SQUIBB;;Convention | RIZLLUIF | VNQOAPPCSIS1W;RIZLLUIF;3000;;;;;;GROUPE DE DERMATOPATHOLOGIE;Remuneration;AUTRE
2017;183 RUE SAINT CHARLES;75015;FRANCE;PARIS;;;Association usager de santé;15/11/2017;Remuneration | RIZLLUIF | VNQOAPPCSIRVF;;Bristol-Myers Squibb;BRISTOL-MYERS SQUIBB;;Convention | RIZLLUIF | VNQOAPPCSIS03;RIZLLUIF;10000;;;;;;PLATEFORME 3AP;Remuneration;AUTRE
2017;62 RUE CAMILLE DESMOULINS;92130;FRANCE;ISSY LES MOULINEAUX;;;Editeur de logiciel;21/12/2017;Remuneration | RIZLLUIF | VNQOAPPCSIRX4;;Bristol-Myers Squibb;BRISTOL-MYERS SQUIBB;;Convention | RIZLLUIF | VNQOAPPCSIS1L;RIZLLUIF;70000;;;;;;ELSEVIER MASSON;Remuneration;AUTRE
2017;6 B RUE GAMBETTA;92000;FRANCE;NANTERRE;;;Editeur de logiciel;04/09/2017;Remuneration | RIZLLUIF | VNQOAPPCSIRX9;;Bristol-Myers Squibb;BRISTOL-MYERS SQUIBB;;Convention | RIZLLUIF | VNQOAPPCSIS0B;RIZLLUIF;228000;;;;;;FREQUENCEMEDICALE COM;Remuneration;AUTRE
2017;9 AVENUE CHARLES DE GAULLE;92104;FRANCE;BOULOGNE BILLANCOURT CEDEX;;;Professionnel de santé;22/12/2017;Remuneration | RIZLLUIF | VNQOAPPCSJVYS;;Bristol-Myers Squibb;BRISTOL-MYERS SQUIBB;10001589588;Convention | RIZLLUIF | VNQOAPPCSKMB2;RIZLLUIF;750;EL MAHMOUD;EL MAHMOUD Rami Serge;Médecin;Rami Serge;Cardiologie et maladies vasculaires;;Remuneration;RPPS
2017;27 RUE DU FAUBOURG SAINT JACQUES;75679;FRANCE;PARIS CEDEX 14;;;Professionnel de santé;22/12/2017;Remuneration | RIZLLUIF | VNQOAPPCSJVYW;;Bristol-Myers Squibb;BRISTOL-MYERS SQUIBB;10000421296;Convention | RIZLLUIF | VNQOAPPCSKMCO;RIZLLUIF;1350;ROSENCHER;ROSENCHER Nadia;Médecin;Nadia;Anesthesie-réanimation;;Remuneration;RPPS
2017;BOULEVARD TANGUY PRIGENT;29609;FRANCE;BREST CEDEX 2;;;Professionnel de santé;22/12/2017;Remuneration | RIZLLUIF | VNQOAPPCSJVZ6;;Bristol-Myers Squibb;BRISTOL-MYERS SQUIBB;10003490199;Convention | RIZLLUIF | VNQO9OX0CHN64;RIZLLUIF;800;DEVAUCHELLE PENSEC;DEVAUCHELLE PENSEC Valerie;Médecin;Valerie;Rhumatologie;;Remuneration;RPPS
2017;ALLEE JACQUES MONOD;62321;FRANCE;BOULOGNE SUR MER CEDEX;;;Professionnel de santé;08/11/2017;Remuneration | RIZLLUIF | VNQNE7ZC1ZY06;;Bristol-Myers Squibb;BRISTOL-MYERS SQUIBB;10100733509;Convention | RIZLLUIF | VNQO9OX0CHNC0;RIZLLUIF;505;LE MOING;LE MOING Amandine;Médecin;Amandine;Dermatologie et vénéréologie;;Remuneration;RPPS
2017;PLACE AMELIE RABA LEON;33076;FRANCE;BORDEAUX CEDEX;;;Professionnel de santé;22/11/2017;Remuneration | RIZLLUIF | VNQNE7ZC1ZYQ3;;Bristol-Myers Squibb;BRISTOL-MYERS SQUIBB;10002824430;Convention | RIZLLUIF | VNQO9OX0CHN8T;RIZLLUIF;673;MEHSEN;MEHSEN Nadia;Médecin;Nadia;Rhumatologie;;Remuneration;RPPS
2017;165 CHEMIN DU GRAND REVOYET;69495;FRANCE;PIERRE BENITE CEDEX;;;Professionnel de santé;22/12/2017;Remuneration | RIZLLUIF | VNQOAPPCSJVWO;;Bristol-Myers Squibb;BRISTOL-MYERS SQUIBB;10002812641;Convention | RIZLLUIF | 552386CONV;RIZLLUIF;4200;NICOLINI;NICOLINI Franck Emmanuel;Médecin;Franck Emmanuel;Hématologie;;Remuneration;RPPS
2017;42 RUE ORIGET;37000;FRANCE;TOURS;;;Professionnel de santé;22/12/2017;Remuneration | RIZLLUIF | VNQNTJPVT13U6;;Bristol-Myers Squibb;BRISTOL-MYERS SQUIBB;10002033388;Convention | RIZLLUIF | VNQO9OX0CHNH8;RIZLLUIF;673;PHILIPPOT;PHILIPPOT Michel;Médecin;Michel;Autre;;Remuneration;RPPS
2017;14 AVENUE YVES THEPOT;29107;FRANCE;QUIMPER CEDEX;;;Professionnel de santé;04/10/2017;Remuneration | RIZLLUIF | VNQMKW8WVIIF4;;Bristol-Myers Squibb;BRISTOL-MYERS SQUIBB;10005159198;Convention | RIZLLUIF | VNQO9OX0CHN98;RIZLLUIF;505;SCHLURMANN CONSTANS;SCHLURMANN CONSTANS Friederike;Médecin;Friederike;Oncologie (option onco-hématologie);;Remuneration;RPPS
2017;147 AVENUE DU MARECHAL JUIN;76233;FRANCE;BOIS GUILLAUME CEDEX;;;Professionnel de santé;08/11/2017;Remuneration | RIZLLUIF | VNQNE7ZC1ZXYK;;Bristol-Myers Squibb;BRISTOL-MYERS SQUIBB;10001929529;Convention | RIZLLUIF | VNQO9OX0CHNGL;RIZLLUIF;800;VITTECOQ;VITTECOQ Olivier;Médecin;Olivier;Rhumatologie;;Remuneration;RPPS
2017;2 RUE SAINTE MARIE;92418;FRANCE;COURBEVOIE CEDEX;;;Editeur de logiciel;04/08/2017;Remuneration | RIZLLUIF | VNQOAPPCSIRV8;;Bristol-Myers Squibb;BRISTOL-MYERS SQUIBB;;Convention | RIZLLUIF | VNQOAPPCSIS07;RIZLLUIF;45000;;;;;;EDIMARK;Remuneration;AUTRE
2017;114 RUE EDOUARD VAILLANT;94805;FRANCE;VILLEJUIF CEDEX;;;Professionnel de santé;06/12/2017;Remuneration | RIZLLUIF | VNQNTJPVT12PE;;Bristol-Myers Squibb;BRISTOL-MYERS SQUIBB;10100107175;Convention | RIZLLUIF | VNQO9OX0CHNJH;RIZLLUIF;1009;LORIOT;LORIOT Yohann;Médecin;Yohann;Oncologie (option onco-hématologie);;Remuneration;RPPS
2017;28 RUE LAENNEC;69373;FRANCE;LYON CEDEX 08;;;Professionnel de santé;22/12/2017;Remuneration | RIZLLUIF | VNQNTJPVT13Y0;;Bristol-Myers Squibb;BRISTOL-MYERS SQUIBB;10003059382;Convention | RIZLLUIF | VNQO9OX0CHNDD;RIZLLUIF;2102;BLAY;BLAY Jean Yves;Médecin;Jean Yves;Oncologie (option onco-hématologie);;Remuneration;RPPS
2017;BOULEVARD TANGUY PRIGENT;29609;FRANCE;BREST CEDEX 2;;;Professionnel de santé;01/09/2017;Remuneration | RIZLLUIF | VNQMKW8WVF6RM;;Bristol-Myers Squibb;BRISTOL-MYERS SQUIBB;10003490199;Convention | RIZLLUIF | 531791CONV;RIZLLUIF;1000;DEVAUCHELLE PENSEC;DEVAUCHELLE PENSEC Valerie;Médecin;Valerie;Rhumatologie;;Remuneration;RPPS
