annee;beneficiaire_adresse;beneficiaire_code_postal;beneficiaire_pays;beneficiaire_ville;categorie_generale;categorie_precise;catégorie_beneficiaire;date;declaration_id;detail;entreprise_émmetrice;filiale_déclarante;identifiant;identifiant_convention;identifiant_entreprise;montant_ttc;nom;nom_prénom;profession;prénom;specialité;structure_bénéficiaire;type_declaration;type_identifiant
2018;86 AV GRAL LECLERC;69300;FRANCE;CALUIRE-ET-CUIRE;Contribution au coût d'événements promotionnels, scientifique ou professionnel;Restauration;Professionnel de santé;08/03/2018;Avantage | SMDZDLAH | TRANSPS2-1068;REPAS;COOPERVISION SAS;COOPERVISION SAS;;;SMDZDLAH;55;CAUSSE;CAUSSE Marion;Opticien-lunetier;Marion;Ophtalmologie;;Avantage;AUTRE
2017;28 RUE LAENNEC;69373;FRANCE;LYON CEDEX 08;Contribution au coût d'événements promotionnels, scientifique ou professionnel;Transport;Professionnel de santé;13/10/2017;Avantage | KPYNUAFS | ES_2017_21160_2485;TRANSPORT;ASTELLAS PHARMA;ASTELLAS PHARMA;10003105987;;KPYNUAFS;135;FLECHON;FLECHON Aude;Médecin;Aude;;;Avantage;RPPS
2017;232 BOULEVARD DE SAINTE MARGUERITE;13273;FRANCE;MARSEILLE CEDEX 09;Contribution au coût d'événements promotionnels, scientifique ou professionnel;Restauration;Professionnel de santé;13/10/2017;Avantage | KPYNUAFS | ES_2017_21160_2483;REPAS;ASTELLAS PHARMA;ASTELLAS PHARMA;10003371217;;KPYNUAFS;56;GRAVIS MESCAM;GRAVIS MESCAM Gwenaelle;Médecin;Gwenaelle;;;Avantage;RPPS
2017;232 BOULEVARD DE SAINTE MARGUERITE;13273;FRANCE;MARSEILLE CEDEX 09;Contribution au coût d'événements promotionnels, scientifique ou professionnel;Transport;Professionnel de santé;13/10/2017;Avantage | KPYNUAFS | ES_2017_21160_2482;TRANSPORT;ASTELLAS PHARMA;ASTELLAS PHARMA;10003371217;;KPYNUAFS;321;GRAVIS MESCAM;GRAVIS MESCAM Gwenaelle;Médecin;Gwenaelle;;;Avantage;RPPS
2017;BD DU PROFESSEUR JACQUES MONOD;44805;FRANCE;ST HERBLAIN CEDEX;Contribution au coût d'événements promotionnels, scientifique ou professionnel;Transport;Professionnel de santé;13/10/2017;Avantage | KPYNUAFS | ES_2017_21160_2500;TRANSPORT;ASTELLAS PHARMA;ASTELLAS PHARMA;10002590064;;KPYNUAFS;163;BOMPAS;BOMPAS Emmanuelle;Médecin;Emmanuelle;;;Avantage;RPPS
2017;15 AVENUE DES BROUSSAILLES;6414;FRANCE;CANNES CEDEX;Contribution au coût d'événements promotionnels, scientifique ou professionnel;Restauration;Professionnel de santé;13/10/2017;Avantage | KPYNUAFS | ES_2017_21160_2498;REPAS;ASTELLAS PHARMA;ASTELLAS PHARMA;10003416848;;KPYNUAFS;56;KAPHAN;KAPHAN Regis;Médecin;Regis;;;Avantage;RPPS
2017;15 AVENUE DES BROUSSAILLES;6414;FRANCE;CANNES CEDEX;Contribution au coût d'événements promotionnels, scientifique ou professionnel;Transport;Professionnel de santé;13/10/2017;Avantage | KPYNUAFS | ES_2017_21160_2497;TRANSPORT;ASTELLAS PHARMA;ASTELLAS PHARMA;10003416848;;KPYNUAFS;145;KAPHAN;KAPHAN Regis;Médecin;Regis;;;Avantage;RPPS
2017;;;;;Contribution au coût d'événements promotionnels, scientifique ou professionnel;Restauration;Etudiant;14/09/2017;Avantage | IIXRHSGB | RPC-2017-13896_PS-0307750_8088084;REPAS;SANOFI SA;SANOFI AVENTIS FRANCE;;Convention | IIXRHSGB | RPC-2017-13896_PS-0307750;IIXRHSGB;15;GUIEU;GUIEU Maxime;;Maxime;;;Avantage;AUTRE
2017;;;;;Contribution au coût d'événements promotionnels, scientifique ou professionnel;Restauration;Etudiant;13/10/2017;Avantage | IIXRHSGB | RPC-2017-13901_PS-0939296_8088101;REPAS;SANOFI SA;SANOFI AVENTIS FRANCE;;Convention | IIXRHSGB | RPC-2017-13901_PS-0939296;IIXRHSGB;31;PAUGAM;PAUGAM Emmanuel;;Emmanuel;;;Avantage;AUTRE
2017;6 AVENUE CESAR CAIRE;75008;FRANCE;PARIS;Contribution au coût d'événements promotionnels, scientifique ou professionnel;Restauration;Professionnel de santé;05/12/2017;Avantage | KPYNUAFS | RPSI_2017_22513_2662;REPAS;ASTELLAS PHARMA;ASTELLAS PHARMA;10000333566;;KPYNUAFS;13;SELLEM;SELLEM Gerard;Médecin;Gerard;;;Avantage;RPPS
2017;BD DU PROFESSEUR JACQUES MONOD;44805;FRANCE;ST HERBLAIN CEDEX;Contribution au coût d'événements promotionnels, scientifique ou professionnel;Restauration;Professionnel de santé;13/10/2017;Avantage | KPYNUAFS | ES_2017_21160_2503;REPAS;ASTELLAS PHARMA;ASTELLAS PHARMA;10002590064;;KPYNUAFS;56;BOMPAS;BOMPAS Emmanuelle;Médecin;Emmanuelle;;;Avantage;RPPS
2017;BD DU PROFESSEUR JACQUES MONOD;44805;FRANCE;ST HERBLAIN CEDEX;Contribution au coût d'événements promotionnels, scientifique ou professionnel;Transport;Professionnel de santé;13/10/2017;Avantage | KPYNUAFS | ES_2017_21160_2502;TRANSPORT;ASTELLAS PHARMA;ASTELLAS PHARMA;10002590064;;KPYNUAFS;21;BOMPAS;BOMPAS Emmanuelle;Médecin;Emmanuelle;;;Avantage;RPPS
2017;BD DU PROFESSEUR JACQUES MONOD;44805;FRANCE;ST HERBLAIN CEDEX;Contribution au coût d'événements promotionnels, scientifique ou professionnel;Transport;Professionnel de santé;13/10/2017;Avantage | KPYNUAFS | ES_2017_21160_2501;TRANSPORT;ASTELLAS PHARMA;ASTELLAS PHARMA;10002590064;;KPYNUAFS;24;BOMPAS;BOMPAS Emmanuelle;Médecin;Emmanuelle;;;Avantage;RPPS
2014;PHARMACIE DE L ABBAYE, 1 PLACE DE L ABBAYE;94000;FRANCE;CRETEIL;Contribution au coût d'événements promotionnels, scientifique ou professionnel;Restauration;Professionnel de santé;08/04/2014;Avantage | IIXRHSGB | RPC-2014-00651_PS-0587393_228353;REPAS;SANOFI SA;SANOFI AVENTIS FRANCE;10100051316;Convention | IIXRHSGB | RPC-2014-00651_PS-0587393;IIXRHSGB;54;SANAD;SANAD Sarah;Pharmacien;Sarah;Autre;;Avantage;RPPS
2017;CENTRE DE SOINS A DOMICILE, 3 A RUE DE LA RESISTANCE;25150;FRANCE;PONT DE ROIDE VERMONDANS;Contribution au coût d'événements promotionnels, scientifique ou professionnel;Restauration;Professionnel de santé;21/09/2017;Avantage | IIXRHSGB | RPC-2017-13917_PS-0861493_8088331;REPAS;SANOFI SA;SANOFI AVENTIS FRANCE;;Convention | IIXRHSGB | RPC-2017-13917_PS-0861493;IIXRHSGB;19;COLLINOT;COLLINOT Anne Sophie;Infirmier;Anne Sophie;Autre;;Avantage;AUTRE
2017;CENTRE DE SOINS A DOMICILE, 3A RUE DE LA RESISTANCE;25150;FRANCE;PONT DE ROIDE;Contribution au coût d'événements promotionnels, scientifique ou professionnel;Restauration;Professionnel de santé;21/09/2017;Avantage | IIXRHSGB | RPC-2017-13917_PS-0898946_8088332;REPAS;SANOFI SA;SANOFI AVENTIS FRANCE;;Convention | IIXRHSGB | RPC-2017-13917_PS-0898946;IIXRHSGB;19;BREITENSTEIN;BREITENSTEIN Amandine;Infirmier;Amandine;Autre;;Avantage;AUTRE
2018;86 AV GRAL LECLERC;69300;FRANCE;CALUIRE-ET-CUIRE;Contribution au coût d'événements promotionnels, scientifique ou professionnel;Restauration;Professionnel de santé;08/03/2018;Avantage | SMDZDLAH | TRANSPS2-1069;REPAS;COOPERVISION SAS;COOPERVISION SAS;;;SMDZDLAH;55;PERIL;PERIL Coralie;Opticien-lunetier;Coralie;Ophtalmologie;;Avantage;AUTRE
2017;PHARMACIE GUIZIEROISE, 21 RUE DE LA REPUBLIQUE;33230;FRANCE;ST MEDARD DE GUIZIERES;Contribution au coût d'événements promotionnels, scientifique ou professionnel;Restauration;Professionnel de santé;25/10/2017;Avantage | IIXRHSGB | RPC-2017-13926_PS-0327566_8088387;REPAS;SANOFI SA;SANOFI AVENTIS FRANCE;10100757458;Convention | IIXRHSGB | RPC-2017-13926_PS-0327566;IIXRHSGB;33;BAUDRIN;BAUDRIN Fanny;Pharmacien;Fanny;Autre;;Avantage;RPPS
2017;PHARMACIE DUSSARRAT, AVENUE BREMONTIER;40160;FRANCE;PARENTIS EN BORN;Contribution au coût d'événements promotionnels, scientifique ou professionnel;Restauration;Professionnel de santé;25/10/2017;Avantage | IIXRHSGB | RPC-2017-13926_PS-0361966_8088388;REPAS;SANOFI SA;SANOFI AVENTIS FRANCE;;Convention | IIXRHSGB | RPC-2017-13926_PS-0361966;IIXRHSGB;33;LABAT;LABAT Marlene;Préparateur en pharmacie et préparateur en pharmacie hospitalière;Marlene;Autre;;Avantage;AUTRE
2017;MAISON MEDICALE RENE LAENNEC, 60 RUE DU MOULIN;44340;FRANCE;BOUGUENAIS;Contribution au coût d'événements promotionnels, scientifique ou professionnel;Restauration;Professionnel de santé;05/10/2017;Avantage | IIXRHSGB | RPC-2017-13942_PS-0769799_8088501;REPAS;SANOFI SA;SANOFI AVENTIS FRANCE;10002509148;Convention | IIXRHSGB | RPC-2017-13942_PS-0769799;IIXRHSGB;27;HERVE;HERVE Yves;Médecin;Yves;Médecine Générale;;Avantage;RPPS
2017;CABINET MEDICAL BREUIL LE SEC, 90 RUE DE LA GARE;60840;FRANCE;BREUIL LE SEC;Contribution au coût d'événements promotionnels, scientifique ou professionnel;Restauration;Professionnel de santé;04/10/2017;Avantage | IIXRHSGB | RPC-2017-13943_PS-0057308_8088505;REPAS;SANOFI SA;SANOFI AVENTIS FRANCE;10001795607;Convention | IIXRHSGB | RPC-2017-13943_PS-0057308;IIXRHSGB;60;BERNARD LUNEAU;BERNARD LUNEAU Brigitte;Médecin;Brigitte;Médecine Générale;;Avantage;RPPS
2018;86 AV GRAL LECLERC;69300;FRANCE;CALUIRE-ET-CUIRE;Contribution au coût d'événements promotionnels, scientifique ou professionnel;Restauration;Professionnel de santé;08/03/2018;Avantage | SMDZDLAH | TRANSPS2-1070;REPAS;COOPERVISION SAS;COOPERVISION SAS;;;SMDZDLAH;55;LAADHARI;LAADHARI Najla;Opticien-lunetier;Najla;Ophtalmologie;;Avantage;AUTRE
2017;CABINET MEDICAL, 17 RUE PETRARQUE;75116;FRANCE;PARIS;Contribution au coût d'événements promotionnels, scientifique ou professionnel;Restauration;Professionnel de santé;08/11/2017;Avantage | IIXRHSGB | RPC-2017-13963_PS-0394127_8088651;REPAS;SANOFI SA;SANOFI AVENTIS FRANCE;10004389598;Convention | IIXRHSGB | RPC-2017-13963_PS-0394127;IIXRHSGB;28;LECORNET SOKOL;LECORNET SOKOL Emmanuelle;Médecin;Emmanuelle;Endocrinologie et métabolisme;;Avantage;RPPS
2017;CABINET, 49 RUE ALEXANDRE DUMAS;80090;FRANCE;AMIENS;Contribution au coût d'événements promotionnels, scientifique ou professionnel;Restauration;Professionnel de santé;08/09/2017;Avantage | IIXRHSGB | RPC-2017-13972_PS-0559872_8088719;REPAS;SANOFI SA;SANOFI AVENTIS FRANCE;10001833184;Convention | IIXRHSGB | RPC-2017-13972_PS-0559872;IIXRHSGB;20;RICHARD;RICHARD Luc;Médecin;Luc;Autre;;Avantage;RPPS
2018;86 AV GRAL LECLERC;69300;FRANCE;CALUIRE-ET-CUIRE;Contribution au coût d'événements promotionnels, scientifique ou professionnel;Restauration;Professionnel de santé;08/03/2018;Avantage | SMDZDLAH | TRANSPS2-1071;REPAS;COOPERVISION SAS;COOPERVISION SAS;;;SMDZDLAH;55;ICETA;ICETA Lauriane;Opticien-lunetier;Lauriane;Ophtalmologie;;Avantage;AUTRE
2017;PHARMACIE HENNO, 351 357 RUE DE PARIS;59500;FRANCE;DOUAI;Contribution au coût d'événements promotionnels, scientifique ou professionnel;Restauration;Professionnel de santé;14/11/2017;Avantage | IIXRHSGB | RPC-2017-13983_PS-0662901_8088766;REPAS;SANOFI SA;SANOFI AVENTIS FRANCE;10001042109;Convention | IIXRHSGB | RPC-2017-13983_PS-0662901;IIXRHSGB;29;WARTEL;WARTEL Herve;Pharmacien;Herve;Autre;;Avantage;RPPS
2017;PHARMACIE PORTE DES FLANDRES, AVENUE NELSON MANDELA;62138;FRANCE;AUCHY LES MINES;Contribution au coût d'événements promotionnels, scientifique ou professionnel;Restauration;Professionnel de santé;14/11/2017;Avantage | IIXRHSGB | RPC-2017-13983_PS-0664706_8088767;REPAS;SANOFI SA;SANOFI AVENTIS FRANCE;10001110682;Convention | IIXRHSGB | RPC-2017-13983_PS-0664706;IIXRHSGB;29;WESTEEL;WESTEEL Perrine;Pharmacien;Perrine;Autre;;Avantage;RPPS
2017;ANTENNE MAISON DU DIABETE, 124 RUE RAYMOND DERAIN;59700;FRANCE;MARCQ EN BAROEUL;Contribution au coût d'événements promotionnels, scientifique ou professionnel;Restauration;Professionnel de santé;14/11/2017;Avantage | IIXRHSGB | RPC-2017-13983_PS-0911314_8088768;REPAS;SANOFI SA;SANOFI AVENTIS FRANCE;;Convention | IIXRHSGB | RPC-2017-13983_PS-0911314;IIXRHSGB;29;HAMRI;HAMRI Marie;Infirmier;Marie;Autre;;Avantage;AUTRE
2017;PHARMACIE PORTE DES FLANDRES, AVENUE NELSON MANDELA;62138;FRANCE;AUCHY LES MINES;Contribution au coût d'événements promotionnels, scientifique ou professionnel;Restauration;Professionnel de santé;14/11/2017;Avantage | IIXRHSGB | RPC-2017-13983_PS-1094566_8088769;REPAS;SANOFI SA;SANOFI AVENTIS FRANCE;10100657104;Convention | IIXRHSGB | RPC-2017-13983_PS-1094566;IIXRHSGB;29;GEORGE;GEORGE Pauline;Pharmacien;Pauline;Autre;;Avantage;RPPS
2017;145 AVENUE FRANCOIS MITTERRAND;18020;FRANCE;BOURGES CEDEX;Contribution au coût d'événements promotionnels, scientifique ou professionnel;Transport;Professionnel de santé;15/12/2017;Avantage | KPYNUAFS | ES_2017_21168_883;TRANSPORT;ASTELLAS PHARMA;ASTELLAS PHARMA;10003952396;;KPYNUAFS;22;ALKHOUJA;ALKHOUJA Abdel Salam;Médecin;Abdel Salam;;;Avantage;RPPS
2017;145 AVENUE FRANCOIS MITTERRAND;18020;FRANCE;BOURGES CEDEX;Contribution au coût d'événements promotionnels, scientifique ou professionnel;Transport;Professionnel de santé;15/12/2017;Avantage | KPYNUAFS | ES_2017_21168_882;TRANSPORT;ASTELLAS PHARMA;ASTELLAS PHARMA;10003952396;;KPYNUAFS;114;ALKHOUJA;ALKHOUJA Abdel Salam;Médecin;Abdel Salam;;;Avantage;RPPS
2017;17 RUE RAYMOND POINCARE;10000;FRANCE;TROYES;Contribution au coût d'événements promotionnels, scientifique ou professionnel;Restauration;Professionnel de santé;16/12/2017;Avantage | KPYNUAFS | ES_2017_21168_880;REPAS;ASTELLAS PHARMA;ASTELLAS PHARMA;10002396363;;KPYNUAFS;60;NADER;NADER Nader;Médecin;Nader;;;Avantage;RPPS
2014;PHARMACIE MICHEL, 18 RUE THIERS;88100;FRANCE;ST DIE DES VOSGES;Contribution au coût d'événements promotionnels, scientifique ou professionnel;Restauration;Professionnel de santé;18/03/2014;Avantage | IIXRHSGB | RPC-2014-00673_PS-0530859_3013343;REPAS;SANOFI SA;SANOFI AVENTIS FRANCE;[SO];Convention | IIXRHSGB | RPC-2014-00673_PS-0530859;IIXRHSGB;35;POIROT;POIROT Sylvie;Préparateur en pharmacie et préparateur en pharmacie hospitalière;Sylvie;Autre;;Avantage;AUTRE
2014;CABINET MEDICAL, 19 RUE LEON BLUM;94350;FRANCE;VILLIERS SUR MARNE;Contribution au coût d'événements promotionnels, scientifique ou professionnel;Restauration;Professionnel de santé;02/10/2014;Avantage | IIXRHSGB | RPC-2014-05276_PS-0542868_3557445;REPAS;SANOFI SA;SANOFI AVENTIS FRANCE;10001203545;Convention | IIXRHSGB | RPC-2014-05276_PS-0542868;IIXRHSGB;60;QUEANT;QUEANT Didier;Médecin;Didier;Médecine Générale;;Avantage;RPPS
2018;ccial leclerc , av de l'aspe;83700;FRANCE;SAINT-raphael;Contribution au coût d'événements promotionnels, scientifique ou professionnel;Restauration;Professionnel de santé;13/03/2018;Avantage | SMDZDLAH | TRANSPS2-1073;REPAS;COOPERVISION SAS;COOPERVISION SAS;;;SMDZDLAH;52;THUBILLON;THUBILLON Morgane;Opticien-lunetier;Morgane;Ophtalmologie;;Avantage;AUTRE
2017;2 ALLEE DE LA MARGEOTTE;72310;FRANCE;BESSE SUR BRAYE;Contribution au coût d'événements promotionnels, scientifique ou professionnel;Restauration;Professionnel de santé;05/10/2017;Avantage | IIXRHSGB | RPC-2017-14013_PS-0408129_8088934;REPAS;SANOFI SA;SANOFI AVENTIS FRANCE;10003463717;Convention | IIXRHSGB | RPC-2017-14013_PS-0408129;IIXRHSGB;50;LETAILLIEUR;LETAILLIEUR Christian;Médecin;Christian;Médecine Générale;;Avantage;RPPS
2017;CABINET MEDICAL, 32 RUE DES PEPINIERES;41360;FRANCE;SAVIGNY SUR BRAYE;Contribution au coût d'événements promotionnels, scientifique ou professionnel;Restauration;Professionnel de santé;05/10/2017;Avantage | IIXRHSGB | RPC-2017-14013_PS-0417106_8088935;REPAS;SANOFI SA;SANOFI AVENTIS FRANCE;10003779450;Convention | IIXRHSGB | RPC-2017-14013_PS-0417106;IIXRHSGB;50;LORENCKI;LORENCKI Philippe;Médecin;Philippe;Médecine Générale;;Avantage;RPPS
2017;MSP ST AMAND LONGPRE, 8 B RUE FRANCOIS MAURIAC;41310;FRANCE;ST AMAND LONGPRE;Contribution au coût d'événements promotionnels, scientifique ou professionnel;Restauration;Professionnel de santé;05/10/2017;Avantage | IIXRHSGB | RPC-2017-14013_PS-0459355_8088936;REPAS;SANOFI SA;SANOFI AVENTIS FRANCE;;Convention | IIXRHSGB | RPC-2017-14013_PS-0459355;IIXRHSGB;50;MIALANNE;MIALANNE Clement;Médecin;Clement;Autre;;Avantage;AUTRE
2017;CABINET MEDICAL, 6 B ROUTE DE LA GARE;37530;FRANCE;POCE SUR CISSE;Contribution au coût d'événements promotionnels, scientifique ou professionnel;Restauration;Professionnel de santé;05/10/2017;Avantage | IIXRHSGB | RPC-2017-14013_PS-0510013_8088937;REPAS;SANOFI SA;SANOFI AVENTIS FRANCE;10002092178;Convention | IIXRHSGB | RPC-2017-14013_PS-0510013;IIXRHSGB;50;PELLETIER;PELLETIER Emmanuelle;Médecin;Emmanuelle;Médecine Générale;;Avantage;RPPS
2017;145 AVENUE FRANCOIS MITTERRAND;18020;FRANCE;BOURGES CEDEX;Contribution au coût d'événements promotionnels, scientifique ou professionnel;Restauration;Professionnel de santé;16/12/2017;Avantage | KPYNUAFS | ES_2017_21168_891;REPAS;ASTELLAS PHARMA;ASTELLAS PHARMA;10003952396;;KPYNUAFS;60;ALKHOUJA;ALKHOUJA Abdel Salam;Médecin;Abdel Salam;;;Avantage;RPPS
2017;145 AVENUE FRANCOIS MITTERRAND;18020;FRANCE;BOURGES CEDEX;Contribution au coût d'événements promotionnels, scientifique ou professionnel;Restauration;Professionnel de santé;16/12/2017;Avantage | KPYNUAFS | ES_2017_21168_890;REPAS;ASTELLAS PHARMA;ASTELLAS PHARMA;10003952396;;KPYNUAFS;11;ALKHOUJA;ALKHOUJA Abdel Salam;Médecin;Abdel Salam;;;Avantage;RPPS
2017;145 AVENUE FRANCOIS MITTERRAND;18020;FRANCE;BOURGES CEDEX;Contribution au coût d'événements promotionnels, scientifique ou professionnel;Restauration;Professionnel de santé;15/12/2017;Avantage | KPYNUAFS | ES_2017_21168_889;REPAS;ASTELLAS PHARMA;ASTELLAS PHARMA;10003952396;;KPYNUAFS;52;ALKHOUJA;ALKHOUJA Abdel Salam;Médecin;Abdel Salam;;;Avantage;RPPS
2017;145 AVENUE FRANCOIS MITTERRAND;18020;FRANCE;BOURGES CEDEX;Contribution au coût d'événements promotionnels, scientifique ou professionnel;Restauration;Professionnel de santé;15/12/2017;Avantage | KPYNUAFS | ES_2017_21168_888;REPAS;ASTELLAS PHARMA;ASTELLAS PHARMA;10003952396;;KPYNUAFS;11;ALKHOUJA;ALKHOUJA Abdel Salam;Médecin;Abdel Salam;;;Avantage;RPPS
2017;145 AVENUE FRANCOIS MITTERRAND;18020;FRANCE;BOURGES CEDEX;Contribution au coût d'événements promotionnels, scientifique ou professionnel;Restauration;Professionnel de santé;15/12/2017;Avantage | KPYNUAFS | ES_2017_21168_887;REPAS;ASTELLAS PHARMA;ASTELLAS PHARMA;10003952396;;KPYNUAFS;60;ALKHOUJA;ALKHOUJA Abdel Salam;Médecin;Abdel Salam;;;Avantage;RPPS
2017;145 AVENUE FRANCOIS MITTERRAND;18020;FRANCE;BOURGES CEDEX;Contribution au coût d'événements promotionnels, scientifique ou professionnel;Hébergement;Professionnel de santé;15/12/2017;Avantage | KPYNUAFS | ES_2017_21168_886;HEBERGEMENT;ASTELLAS PHARMA;ASTELLAS PHARMA;10003952396;;KPYNUAFS;174;ALKHOUJA;ALKHOUJA Abdel Salam;Médecin;Abdel Salam;;;Avantage;RPPS
2017;145 AVENUE FRANCOIS MITTERRAND;18020;FRANCE;BOURGES CEDEX;Contribution au coût d'événements promotionnels, scientifique ou professionnel;Transport;Professionnel de santé;16/12/2017;Avantage | KPYNUAFS | ES_2017_21168_885;TRANSPORT;ASTELLAS PHARMA;ASTELLAS PHARMA;10003952396;;KPYNUAFS;15;ALKHOUJA;ALKHOUJA Abdel Salam;Médecin;Abdel Salam;;;Avantage;RPPS
2018;ccial leclerc , av de l'aspe;83700;FRANCE;SAINT-raphael;Contribution au coût d'événements promotionnels, scientifique ou professionnel;Restauration;Professionnel de santé;13/03/2018;Avantage | SMDZDLAH | TRANSPS2-1074;REPAS;COOPERVISION SAS;COOPERVISION SAS;;;SMDZDLAH;52;VAQUERO;VAQUERO Thomas;Opticien-lunetier;Thomas;Ophtalmologie;;Avantage;AUTRE
2018;ccial leclerc , av de l'aspe;83700;FRANCE;SAINT-raphael;Contribution au coût d'événements promotionnels, scientifique ou professionnel;Restauration;Professionnel de santé;13/03/2018;Avantage | SMDZDLAH | TRANSPS2-1075;REPAS;COOPERVISION SAS;COOPERVISION SAS;;;SMDZDLAH;52;DELONCA;DELONCA Louis;Opticien-lunetier;Louis;Ophtalmologie;;Avantage;AUTRE
2017;CHPA, UROLOGIE, AVENUE DES TAMARIS;13616;FRANCE;AIX EN PROVENCE CEDEX 1;Contribution au coût d'événements promotionnels, scientifique ou professionnel;Restauration;Professionnel de santé;26/10/2017;Avantage | IIXRHSGB | RPC-2017-14030_PS-0485055_8089108;REPAS;SANOFI SA;SANOFI AVENTIS FRANCE;10100547008;Convention | IIXRHSGB | RPC-2017-14030_PS-0485055;IIXRHSGB;55;NEGRE;NEGRE Thibault;Médecin;Thibault;Autre;;Avantage;RPPS
2017;CH DE MARTIGUES, MATERNITE GYNECOLOGIE, 3 BOULEVARD DES RAYETTES;13698;FRANCE;MARTIGUES CEDEX;Contribution au coût d'événements promotionnels, scientifique ou professionnel;Restauration;Professionnel de santé;26/10/2017;Avantage | IIXRHSGB | RPC-2017-14030_PS-0533137_8089109;REPAS;SANOFI SA;SANOFI AVENTIS FRANCE;10100762243;Convention | IIXRHSGB | RPC-2017-14030_PS-0533137;IIXRHSGB;55;PONTI;PONTI Cecilia;Médecin;Cecilia;Autre;;Avantage;RPPS
2018;65 AVENUE HENRI BARBUSSE;93150;FRANCE;LE BLANC MESNIL;Contribution au coût d'événements promotionnels, scientifique ou professionnel;Restauration;Professionnel de santé;02/05/2018;Avantage | RIZLLUIF | VNQOAPPCTYB95;REPAS;Bristol-Myers Squibb;BRISTOL-MYERS SQUIBB;10001334217;;RIZLLUIF;32;CHAIBI;CHAIBI Nejib;Médecin;Nejib;Cardiologie et maladies vasculaires;;Avantage;RPPS
2018;1 rue de la république;83700;FRANCE;SAINT-raphael;Contribution au coût d'événements promotionnels, scientifique ou professionnel;Restauration;Professionnel de santé;13/03/2018;Avantage | SMDZDLAH | TRANSPS2-1076;REPAS;COOPERVISION SAS;COOPERVISION SAS;;;SMDZDLAH;52;THUILLIER;THUILLIER Natacha;Opticien-lunetier;Natacha;Ophtalmologie;;Avantage;AUTRE
2018;ccial  geant;83600;FRANCE;LES ADRETS-DE-L'ESTEREL;Contribution au coût d'événements promotionnels, scientifique ou professionnel;Restauration;Professionnel de santé;13/03/2018;Avantage | SMDZDLAH | TRANSPS2-1080;REPAS;COOPERVISION SAS;COOPERVISION SAS;;;SMDZDLAH;52;DE LARDEMELLE;DE LARDEMELLE Marion;Opticien-lunetier;Marion;Ophtalmologie;;Avantage;AUTRE
2017;2 BOULEVARD TONNELLE;37044;FRANCE;TOURS CEDEX 9;Contribution au coût d'événements promotionnels, scientifique ou professionnel;Restauration;Professionnel de santé;16/12/2017;Avantage | KPYNUAFS | ES_2017_21168_901;REPAS;ASTELLAS PHARMA;ASTELLAS PHARMA;10100976694;;KPYNUAFS;11;DIDAS;DIDAS Ossama;Médecin;Ossama;;;Avantage;RPPS
2017;2 BOULEVARD TONNELLE;37044;FRANCE;TOURS CEDEX 9;Contribution au coût d'événements promotionnels, scientifique ou professionnel;Restauration;Professionnel de santé;15/12/2017;Avantage | KPYNUAFS | ES_2017_21168_900;REPAS;ASTELLAS PHARMA;ASTELLAS PHARMA;10100976694;;KPYNUAFS;52;DIDAS;DIDAS Ossama;Médecin;Ossama;;;Avantage;RPPS
2017;2 BOULEVARD TONNELLE;37044;FRANCE;TOURS CEDEX 9;Contribution au coût d'événements promotionnels, scientifique ou professionnel;Restauration;Professionnel de santé;15/12/2017;Avantage | KPYNUAFS | ES_2017_21168_899;REPAS;ASTELLAS PHARMA;ASTELLAS PHARMA;10100976694;;KPYNUAFS;11;DIDAS;DIDAS Ossama;Médecin;Ossama;;;Avantage;RPPS
2017;2 BOULEVARD TONNELLE;37044;FRANCE;TOURS CEDEX 9;Contribution au coût d'événements promotionnels, scientifique ou professionnel;Restauration;Professionnel de santé;15/12/2017;Avantage | KPYNUAFS | ES_2017_21168_898;REPAS;ASTELLAS PHARMA;ASTELLAS PHARMA;10100976694;;KPYNUAFS;60;DIDAS;DIDAS Ossama;Médecin;Ossama;;;Avantage;RPPS
2017;2 BOULEVARD TONNELLE;37044;FRANCE;TOURS CEDEX 9;Contribution au coût d'événements promotionnels, scientifique ou professionnel;Hébergement;Professionnel de santé;15/12/2017;Avantage | KPYNUAFS | ES_2017_21168_897;HEBERGEMENT;ASTELLAS PHARMA;ASTELLAS PHARMA;10100976694;;KPYNUAFS;174;DIDAS;DIDAS Ossama;Médecin;Ossama;;;Avantage;RPPS
2017;2 BOULEVARD TONNELLE;37044;FRANCE;TOURS CEDEX 9;Contribution au coût d'événements promotionnels, scientifique ou professionnel;Transport;Professionnel de santé;16/12/2017;Avantage | KPYNUAFS | ES_2017_21168_896;TRANSPORT;ASTELLAS PHARMA;ASTELLAS PHARMA;10100976694;;KPYNUAFS;15;DIDAS;DIDAS Ossama;Médecin;Ossama;;;Avantage;RPPS
2017;2 BOULEVARD TONNELLE;37044;FRANCE;TOURS CEDEX 9;Contribution au coût d'événements promotionnels, scientifique ou professionnel;Transport;Professionnel de santé;15/12/2017;Avantage | KPYNUAFS | ES_2017_21168_895;TRANSPORT;ASTELLAS PHARMA;ASTELLAS PHARMA;10100976694;;KPYNUAFS;11;DIDAS;DIDAS Ossama;Médecin;Ossama;;;Avantage;RPPS
2018;ccial geant;83600;FRANCE;LES ADRETS-DE-L'ESTEREL;Contribution au coût d'événements promotionnels, scientifique ou professionnel;Restauration;Professionnel de santé;13/03/2018;Avantage | SMDZDLAH | TRANSPS2-1081;REPAS;COOPERVISION SAS;COOPERVISION SAS;;;SMDZDLAH;52;IANCENELLE;IANCENELLE Marie;Opticien-lunetier;Marie;Ophtalmologie;;Avantage;AUTRE
2017;179 BOULEVARD MARECHAL JUIN;26953;FRANCE;VALENCE CEDEX 9;Contribution au coût d'événements promotionnels, scientifique ou professionnel;Restauration;Professionnel de santé;16/12/2017;Avantage | KPYNUAFS | ES_2017_21168_923;REPAS;ASTELLAS PHARMA;ASTELLAS PHARMA;10004608542;;KPYNUAFS;11;GORIS GBENOU;GORIS GBENOU Maximilien;Médecin;Maximilien;;;Avantage;RPPS
2017;179 BOULEVARD MARECHAL JUIN;26953;FRANCE;VALENCE CEDEX 9;Contribution au coût d'événements promotionnels, scientifique ou professionnel;Restauration;Professionnel de santé;15/12/2017;Avantage | KPYNUAFS | ES_2017_21168_922;REPAS;ASTELLAS PHARMA;ASTELLAS PHARMA;10004608542;;KPYNUAFS;52;GORIS GBENOU;GORIS GBENOU Maximilien;Médecin;Maximilien;;;Avantage;RPPS
2018;route des dolines;06560;FRANCE;VALBONNE;Contribution au coût d'événements promotionnels, scientifique ou professionnel;Restauration;Professionnel de santé;27/03/2018;Avantage | SMDZDLAH | TRANSPS2-1082;REPAS;COOPERVISION SAS;COOPERVISION SAS;;;SMDZDLAH;24;PETCHOT BACQUE;PETCHOT BACQUE Anne Marie;Médecin;Anne Marie;Ophtalmologie;;Avantage;AUTRE
2017;;;;;Contribution au coût d'événements promotionnels, scientifique ou professionnel;Restauration;Etudiant;07/11/2017;Avantage | IIXRHSGB | RPC-2017-14050_PS-0930507_8089298;REPAS;SANOFI SA;SANOFI AVENTIS FRANCE;;Convention | IIXRHSGB | RPC-2017-14050_PS-0930507;IIXRHSGB;29;LAYDI;LAYDI Maxime;;Maxime;;;Avantage;AUTRE
2017;CH D EMBRUN, URGENCES, 8 RUE PIERRE ET MARIE CURIE;05200;FRANCE;EMBRUN;Contribution au coût d'événements promotionnels, scientifique ou professionnel;Restauration;Professionnel de santé;09/11/2017;Avantage | IIXRHSGB | RPC-2017-14072_PS-0021508_8089453;REPAS;SANOFI SA;SANOFI AVENTIS FRANCE;10100850212;Convention | IIXRHSGB | RPC-2017-14072_PS-0021508;IIXRHSGB;31;ATTANE;ATTANE Olivier;Médecin;Olivier;Autre;;Avantage;RPPS
2017;CABINET MEDICAL SELIANCE, RUE SAINT JACQUES;05470;FRANCE;AIGUILLES;Contribution au coût d'événements promotionnels, scientifique ou professionnel;Restauration;Professionnel de santé;09/11/2017;Avantage | IIXRHSGB | RPC-2017-14072_PS-0147209_8089454;REPAS;SANOFI SA;SANOFI AVENTIS FRANCE;10101049582;Convention | IIXRHSGB | RPC-2017-14072_PS-0147209;IIXRHSGB;31;CLAUSIER;CLAUSIER Flora;Médecin;Flora;Autre;;Avantage;RPPS
2018;11 rue mirabeau;83000;FRANCE;TOULON;Contribution au coût d'événements promotionnels, scientifique ou professionnel;Restauration;Professionnel de santé;04/04/2018;Avantage | SMDZDLAH | TRANSPS2-1083;REPAS;COOPERVISION SAS;COOPERVISION SAS;;;SMDZDLAH;33;MARQUEZ;MARQUEZ Caroline;Opticien-lunetier;Caroline;Ophtalmologie;;Avantage;AUTRE
2018;4 av leclerc;69160;FRANCE;TASSIN-LA-DEMI-LUNE;Contribution au coût d'événements promotionnels, scientifique ou professionnel;Restauration;Professionnel de santé;28/03/2018;Avantage | SMDZDLAH | TRANSPS2-1084;REPAS;COOPERVISION SAS;COOPERVISION SAS;;;SMDZDLAH;20;DEMILLIERE;DEMILLIERE Myriam;Médecin;Myriam;Ophtalmologie;;Avantage;AUTRE
2017;ALLEE JACQUES MONOD;62321;FRANCE;BOULOGNE SUR MER CEDEX;Contribution au coût d'événements promotionnels, scientifique ou professionnel;Transport;Professionnel de santé;15/12/2017;Avantage | KPYNUAFS | ES_2017_21168_939;TRANSPORT;ASTELLAS PHARMA;ASTELLAS PHARMA;10100837995;;KPYNUAFS;22;NAJEM;NAJEM Abeer;Médecin;Abeer;;;Avantage;RPPS
2017;ALLEE JACQUES MONOD;62321;FRANCE;BOULOGNE SUR MER CEDEX;Contribution au coût d'événements promotionnels, scientifique ou professionnel;Transport;Professionnel de santé;15/12/2017;Avantage | KPYNUAFS | ES_2017_21168_938;TRANSPORT;ASTELLAS PHARMA;ASTELLAS PHARMA;10100837995;;KPYNUAFS;30;NAJEM;NAJEM Abeer;Médecin;Abeer;;;Avantage;RPPS
2018;63 av jean jaurès;69000;FRANCE;LYON;Contribution au coût d'événements promotionnels, scientifique ou professionnel;Restauration;Professionnel de santé;03/04/2018;Avantage | SMDZDLAH | TRANSPS2-1085;REPAS;COOPERVISION SAS;COOPERVISION SAS;;;SMDZDLAH;24;LEFEBVRE;LEFEBVRE Anne Marie;Opticien-lunetier;Anne Marie;Ophtalmologie;;Avantage;AUTRE
2017;25 RUE DE FRESNAY;61014;FRANCE;ALENCON CEDEX;Contribution au coût d'événements promotionnels, scientifique ou professionnel;Transport;Professionnel de santé;15/12/2017;Avantage | KPYNUAFS | ES_2017_21168_962;TRANSPORT;ASTELLAS PHARMA;ASTELLAS PHARMA;10004401328;;KPYNUAFS;22;STOICA;STOICA Gabriel;Médecin;Gabriel;;;Avantage;RPPS
2017;25 RUE DE FRESNAY;61014;FRANCE;ALENCON CEDEX;Contribution au coût d'événements promotionnels, scientifique ou professionnel;Transport;Professionnel de santé;15/12/2017;Avantage | KPYNUAFS | ES_2017_21168_961;TRANSPORT;ASTELLAS PHARMA;ASTELLAS PHARMA;10004401328;;KPYNUAFS;98;STOICA;STOICA Gabriel;Médecin;Gabriel;;;Avantage;RPPS
2018;8 RUE DE DURAS;75008;FRANCE;PARIS;Contribution au coût d'événements promotionnels, scientifique ou professionnel;Restauration;Professionnel de santé;30/05/2018;Avantage | RIZLLUIF | VNQOAPPCTQGIT;REPAS;Bristol-Myers Squibb;BRISTOL-MYERS SQUIBB;10001216620;;RIZLLUIF;60;SUSSMAN;SUSSMAN Helene;Médecin;Helene;Autre;;Avantage;RPPS
2018;63 av jean jaurès;69000;FRANCE;LYON;Contribution au coût d'événements promotionnels, scientifique ou professionnel;Restauration;Professionnel de santé;03/04/2018;Avantage | SMDZDLAH | TRANSPS2-1086;REPAS;COOPERVISION SAS;COOPERVISION SAS;;;SMDZDLAH;24;LEFEBVRE;LEFEBVRE Olivier;Opticien-lunetier;Olivier;Ophtalmologie;;Avantage;AUTRE
2018;16 ALLEES PAULMY;64100;FRANCE;BAYONNE;Contribution au coût d'événements promotionnels, scientifique ou professionnel;Restauration;Professionnel de santé;23/03/2018;Avantage | RIZLLUIF | VNQOAPPCSYLJ9;REPAS;Bristol-Myers Squibb;BRISTOL-MYERS SQUIBB;10002804754;;RIZLLUIF;60;DEQUEKER;DEQUEKER Jean Luc;Médecin;Jean Luc;Cardiologie et maladies vasculaires;;Avantage;RPPS
2014;CABINET, 2 RUE DE ROSAMPONT;22300;FRANCE;LANNION;Contribution au coût d'événements promotionnels, scientifique ou professionnel;Restauration;Professionnel de santé;25/04/2014;Avantage | IIXRHSGB | RPC-2014-00713_PS-0177634_3559431;REPAS;SANOFI SA;SANOFI AVENTIS FRANCE;[SO];Convention | IIXRHSGB | RPC-2014-00713_PS-0177634;IIXRHSGB;55;DAUPHIN;DAUPHIN Benoit;Infirmier;Benoit;Autre;;Avantage;AUTRE
2014;PHARMACIE PEN AR RU, 1 RUE DES FRERES LAGADEC;22300;FRANCE;LANNION;Contribution au coût d'événements promotionnels, scientifique ou professionnel;Restauration;Professionnel de santé;25/04/2014;Avantage | IIXRHSGB | RPC-2014-00713_PS-0265585_3559439;REPAS;SANOFI SA;SANOFI AVENTIS FRANCE;10001428241;Convention | IIXRHSGB | RPC-2014-00713_PS-0265585;IIXRHSGB;55;GABORIAUD;GABORIAUD Marie Helene;Pharmacien;Marie Helene;Autre;;Avantage;RPPS
2017;AVENUE DES TAMARIS;13616;FRANCE;AIX EN PROVENCE CEDEX 1;Contribution au coût d'événements promotionnels, scientifique ou professionnel;Transport;Professionnel de santé;13/10/2017;Avantage | KPYNUAFS | ES_2017_21160_2532;TRANSPORT;ASTELLAS PHARMA;ASTELLAS PHARMA;10002383247;;KPYNUAFS;24;NAHON;NAHON Sophie;Médecin;Sophie;;;Avantage;RPPS
2017;AVENUE DES TAMARIS;13616;FRANCE;AIX EN PROVENCE CEDEX 1;Contribution au coût d'événements promotionnels, scientifique ou professionnel;Transport;Professionnel de santé;13/10/2017;Avantage | KPYNUAFS | ES_2017_21160_2531;TRANSPORT;ASTELLAS PHARMA;ASTELLAS PHARMA;10002383247;;KPYNUAFS;231;NAHON;NAHON Sophie;Médecin;Sophie;;;Avantage;RPPS
2017;51 AV DU MAL DE LATTRE DE TASSIGNY;94010;FRANCE;CRETEIL CEDEX;Contribution au coût d'événements promotionnels, scientifique ou professionnel;Restauration;Professionnel de santé;13/10/2017;Avantage | KPYNUAFS | ES_2017_21160_2529;REPAS;ASTELLAS PHARMA;ASTELLAS PHARMA;10100657922;;KPYNUAFS;56;SALDANA GERARD;SALDANA GERARD Carolina;Médecin;Carolina;;;Avantage;RPPS
2017;1 RUE DU GENERAL KOENIG;51056;FRANCE;REIMS CEDEX;Contribution au coût d'événements promotionnels, scientifique ou professionnel;Restauration;Professionnel de santé;13/10/2017;Avantage | KPYNUAFS | ES_2017_21160_2527;REPAS;ASTELLAS PHARMA;ASTELLAS PHARMA;10001720423;;KPYNUAFS;56;EYMARD;EYMARD Jean Christophe;Médecin;Jean Christophe;;;Avantage;RPPS
2017;1 RUE DU GENERAL KOENIG;51056;FRANCE;REIMS CEDEX;Contribution au coût d'événements promotionnels, scientifique ou professionnel;Transport;Professionnel de santé;13/10/2017;Avantage | KPYNUAFS | ES_2017_21160_2526;TRANSPORT;ASTELLAS PHARMA;ASTELLAS PHARMA;10001720423;;KPYNUAFS;24;EYMARD;EYMARD Jean Christophe;Médecin;Jean Christophe;;;Avantage;RPPS
2017;1 RUE DU GENERAL KOENIG;51056;FRANCE;REIMS CEDEX;Contribution au coût d'événements promotionnels, scientifique ou professionnel;Transport;Professionnel de santé;13/10/2017;Avantage | KPYNUAFS | ES_2017_21160_2525;TRANSPORT;ASTELLAS PHARMA;ASTELLAS PHARMA;10001720423;;KPYNUAFS;103;EYMARD;EYMARD Jean Christophe;Médecin;Jean Christophe;;;Avantage;RPPS
2017;20 RUE LEBLANC;75908;FRANCE;PARIS CEDEX 15;Contribution au coût d'événements promotionnels, scientifique ou professionnel;Restauration;Professionnel de santé;13/10/2017;Avantage | KPYNUAFS | ES_2017_21160_2512;REPAS;ASTELLAS PHARMA;ASTELLAS PHARMA;10100679371;;KPYNUAFS;56;THIBAULT;THIBAULT Constance;Médecin;Constance;;;Avantage;RPPS
2017;1 RUE PROFESSEUR MARION;21079;FRANCE;DIJON CEDEX;Contribution au coût d'événements promotionnels, scientifique ou professionnel;Transport;Professionnel de santé;13/10/2017;Avantage | KPYNUAFS | ES_2017_21160_2553;TRANSPORT;ASTELLAS PHARMA;ASTELLAS PHARMA;10004404397;;KPYNUAFS;94;LADOIRE;LADOIRE Sylvain;Médecin;Sylvain;;;Avantage;RPPS
2017;20 AVENUE DE LA RECONNAISSANCE;59491;FRANCE;VILLENEUVE D ASCQ;Contribution au coût d'événements promotionnels, scientifique ou professionnel;Restauration;Professionnel de santé;13/10/2017;Avantage | KPYNUAFS | ES_2017_21160_2551;REPAS;ASTELLAS PHARMA;ASTELLAS PHARMA;10100703742;;KPYNUAFS;56;LEMOINE;LEMOINE Nathalie;Médecin;Nathalie;;;Avantage;RPPS
2017;20 AVENUE DE LA RECONNAISSANCE;59491;FRANCE;VILLENEUVE D ASCQ;Contribution au coût d'événements promotionnels, scientifique ou professionnel;Transport;Professionnel de santé;13/10/2017;Avantage | KPYNUAFS | ES_2017_21160_2550;TRANSPORT;ASTELLAS PHARMA;ASTELLAS PHARMA;10100703742;;KPYNUAFS;20;LEMOINE;LEMOINE Nathalie;Médecin;Nathalie;;;Avantage;RPPS
2017;20 AVENUE DE LA RECONNAISSANCE;59491;FRANCE;VILLENEUVE D ASCQ;Contribution au coût d'événements promotionnels, scientifique ou professionnel;Transport;Professionnel de santé;13/10/2017;Avantage | KPYNUAFS | ES_2017_21160_2549;TRANSPORT;ASTELLAS PHARMA;ASTELLAS PHARMA;10100703742;;KPYNUAFS;24;LEMOINE;LEMOINE Nathalie;Médecin;Nathalie;;;Avantage;RPPS
2017;20 AVENUE DE LA RECONNAISSANCE;59491;FRANCE;VILLENEUVE D ASCQ;Contribution au coût d'événements promotionnels, scientifique ou professionnel;Transport;Professionnel de santé;13/10/2017;Avantage | KPYNUAFS | ES_2017_21160_2548;TRANSPORT;ASTELLAS PHARMA;ASTELLAS PHARMA;10100703742;;KPYNUAFS;84;LEMOINE;LEMOINE Nathalie;Médecin;Nathalie;;;Avantage;RPPS
2017;15 RUE ANDRE BOQUEL;49055;FRANCE;ANGERS CEDEX 02;Contribution au coût d'événements promotionnels, scientifique ou professionnel;Restauration;Professionnel de santé;13/10/2017;Avantage | KPYNUAFS | ES_2017_21160_2546;REPAS;ASTELLAS PHARMA;ASTELLAS PHARMA;10004425210;;KPYNUAFS;56;ABADIE LACOURTOISIE;ABADIE LACOURTOISIE Sophie;Médecin;Sophie;;;Avantage;RPPS
2017;46 RUE HENRI HUCHARD;75877;FRANCE;PARIS CEDEX 18;Contribution au coût d'événements promotionnels, scientifique ou professionnel;Restauration;Professionnel de santé;13/09/2017;Avantage | KPYNUAFS | ES_2017_4370_2607;REPAS;ASTELLAS PHARMA;ASTELLAS PHARMA;;;KPYNUAFS;15;JANVIER;JANVIER Brigitte;Infirmier;Brigitte;;;Avantage;AUTRE
2017;46 RUE HENRI HUCHARD;75877;FRANCE;PARIS CEDEX 18;Contribution au coût d'événements promotionnels, scientifique ou professionnel;Restauration;Professionnel de santé;13/09/2017;Avantage | KPYNUAFS | ES_2017_4370_2606;REPAS;ASTELLAS PHARMA;ASTELLAS PHARMA;;;KPYNUAFS;29;JANVIER;JANVIER Brigitte;Infirmier;Brigitte;;;Avantage;AUTRE
2017;46 RUE HENRI HUCHARD;75877;FRANCE;PARIS CEDEX 18;Contribution au coût d'événements promotionnels, scientifique ou professionnel;Restauration;Professionnel de santé;13/09/2017;Avantage | KPYNUAFS | ES_2017_4370_2605;REPAS;ASTELLAS PHARMA;ASTELLAS PHARMA;;;KPYNUAFS;58;JANVIER;JANVIER Brigitte;Infirmier;Brigitte;;;Avantage;AUTRE
2017;RUE JACQUES CARTIER;44800;FRANCE;ST HERBLAIN;Contribution au coût d'événements promotionnels, scientifique ou professionnel;Transport;Professionnel de santé;05/10/2017;Avantage | KPYNUAFS | ES_2017_4428_2591;TRANSPORT;ASTELLAS PHARMA;ASTELLAS PHARMA;10100278588;;KPYNUAFS;179;NEVOUX;NEVOUX Pierre;Médecin;Pierre;;;Avantage;RPPS
2017;114 RUE EDOUARD VAILLANT;94805;FRANCE;VILLEJUIF CEDEX;Contribution au coût d'événements promotionnels, scientifique ou professionnel;Restauration;Professionnel de santé;13/10/2017;Avantage | KPYNUAFS | ES_2017_21160_2578;REPAS;ASTELLAS PHARMA;ASTELLAS PHARMA;10100181741;;KPYNUAFS;56;ALBIGES SAUVIN;ALBIGES SAUVIN Laurence;Médecin;Laurence;;;Avantage;RPPS
2017;250 CHEMIN DE BAIGNE PIEDS;84918;FRANCE;AVIGNON CEDEX 9;Contribution au coût d'événements promotionnels, scientifique ou professionnel;Restauration;Professionnel de santé;13/10/2017;Avantage | KPYNUAFS | ES_2017_21160_2565;REPAS;ASTELLAS PHARMA;ASTELLAS PHARMA;10001449155;;KPYNUAFS;56;HILGERS;HILGERS Werner;Médecin;Werner;;;Avantage;RPPS
2017;250 CHEMIN DE BAIGNE PIEDS;84918;FRANCE;AVIGNON CEDEX 9;Contribution au coût d'événements promotionnels, scientifique ou professionnel;Transport;Professionnel de santé;13/10/2017;Avantage | KPYNUAFS | ES_2017_21160_2564;TRANSPORT;ASTELLAS PHARMA;ASTELLAS PHARMA;10001449155;;KPYNUAFS;24;HILGERS;HILGERS Werner;Médecin;Werner;;;Avantage;RPPS
