adresse;cedex;code_commune;code_postal;commune;complement_destinataire;complement_point_geographique;email;enseigne_commerciale_site;finess_etablissement_juridique;finess_site;identifiant_organisation;indice_repetition_voie;mention_distribution;numero_voie;pays;raison_sociale_site;siren_site;siret_site;telecopie;telephone;telephone_2;type_voie;voie
900 Route DE PARIS 01012 Bourg-en-Bresse;01012 BOURG EN BRESSE CEDEX;01053;01012;Bourg-en-Bresse;;;;;010780054;;F010000024;;CS 90401;900;France;CENTRE HOSPITALIER DE FLEYRIAT;010000024;26010004500012;0474454114;0474454647;;Route;DE PARIS
1 Route DE VEYZIAT 01108 Oyonnax;01108 OYONNAX CEDEX;01283;01108;Oyonnax;;;;;010008407;;F010005239;;BP 818;1;France;CH DU HAUT BUGEY - GEOVREISSET;010005239;26011021800112;0474731002;0474731001;;Route;DE VEYZIAT
62 Avenue DE JASSERON 01000 Bourg-en-Bresse;01000 BOURG EN BRESSE;01053;01000;Bourg-en-Bresse;;;;;010000156;;F010780195;;BP 132;62;France;CLINIQUE CONVERT;010780195;77220148900022;0474452656;0474456445;;Avenue;DE JASSERON
55 Rue BERTHELOT 01500;01500 AMBERIEU EN BUGEY;;01500;;CABINET INFIRMIER MME MORENO;MME DI BENEDETTO CAROLE;;;;;C01667509200;;;55;France;CABINET INFIRMIER MME MORENO;;;;0680113119;;Rue;BERTHELOT
Avenue DE MARBOZ 01012 Bourg-en-Bresse;01012 BOURG EN BRESSE CEDEX;01053;01012;Bourg-en-Bresse;;;;;010783009;;F010000495;;;;France;CENTRE PSYCHOTHERAPIQUE DE L'AIN;010000495;77554456200108;0474522899;0474522911;;Avenue;DE MARBOZ
10 Rue DU BUGEY 01360;01360 LOYETTES;;01360;;CABINET INFIRMIER MME RAVAT;;;;;;C01668010000;;;10;France;CABINET INFIRMIER MME RAVAT;;;;0472058765;;Rue;DU BUGEY
116 Avenue DES FRÈRES COSTAZ 01260 Champagne-en-Valromey;01260 CHAMPAGNE EN VALROMEY;01079;01260;Champagne-en-Valromey;;;mdrcostaz@wanadoo.fr;;010000362;;F010780930;;;116;France;EHPAD FONDATION COSTAZ CHAMPAGNE;010780930;26010007800039;0479875041;0479876141;;Avenue;DES FRÈRES COSTAZ
97 Rue DE LA MAIRIE 01600;01600 ST DIDIER DE FORMANS;;01600;;CABINET INFIRMIER MME MAHUET;;;;;;C01671639100;;;97;France;CABINET INFIRMIER MME MAHUET;;;;0684792618;;Rue;DE LA MAIRIE
458 Rue DE DOMBES 01330;01330 VILLARS LES DOMBES;;01330;;CABINET MME PROTON GREJON;;;;;;C01910260700;;RESIDENCE L ECRIN DE DOMB;458;France;CABINET MME PROTON GREJON;;;;0474981812;;Rue;DE DOMBES
1 Rue DES DIMES 01000 Bourg-en-Bresse;01000 BOURG EN BRESSE;01053;01000;Bourg-en-Bresse;;;siaam01@wanadoo.fr;;010785947;;F010003689;;;1;France;SIAAM01 - SAFEP - SAAAIS;010003689;31550201300057;0474220171;0474228598;;Rue;DES DIMES
3 Rue CONDORCET 02000;02000 LAON;;02000;;CABINET INFIRMIER MME DUBOIS;CABINET PARAMEDICAL DE VAUX;;;;;C02604184800;;;3;France;CABINET INFIRMIER MME DUBOIS;;;;0323203761;;Rue;CONDORCET
46 Avenue DU GÉNÉRAL DE GAULLE 02209 Soissons;02209 SOISSONS CEDEX;02722;02209;Soissons;;;secretariat.direction@ch-soissons.fr;;020000261;;F020000519;;;46;France;CH SOISSONS;020000519;26020862400015;0323591646;0323757070;;Avenue;DU GÉNÉRAL DE GAULLE
40 Rue AUX LOUPS 02500 Hirson;02500 HIRSON;02381;02500;Hirson;;;direction@ch-hirson.fr;;020004495;;F020001087;;;40;France;CH HIRSON;020001087;26020007600016;0323588247;0323588282;;Rue;AUX LOUPS
8 Rue DU RUISSEAU 02340 Montcornet;02340 MONTCORNET;02502;02340;Montcornet;;;ssiadmontcornet@wanadoo.fr;;020007423;;F020012407;;;8;France;SPASAD ADMR MONTCORNET;020012407;31078546400051;0323791901;0323216925;;Rue;DU RUISSEAU
31 Rue ANNE MORGAN 02200 Soissons;02200 SOISSONS;02722;02200;Soissons;;;ggranger@amsam.fr;;020005179;;F020004222;;;31;France;CS AMSAM SOISSONS;020004222;77554727600268;0323755101;0323755108;;Rue;ANNE MORGAN
1 Rue MICHEL DE L'HOSPITAL 02321 Saint-Quentin;02321 ST QUENTIN CEDEX;02691;02321;Saint-Quentin;;;directiongenerale@ch-stquentin.fr;;020000063;;F020000162;;BP 608;1;France;CH SAINT-QUENTIN;020000162;26020861600011;0323067301;0323067330;;Rue;MICHEL DE L'HOSPITAL
94 Square DES ANCIENS COMBATTANTS 02303 Chauny;02303 CHAUNY CEDEX;02173;02303;Chauny;;;direction@ch-chauny.fr;;020000287;;F020000535;;;94;France;CH CHAUNY;020000535;26020864000011;0323392433;0323385500;;Square;DES ANCIENS COMBATTANTS
1 Rue VICTOR ET LOUISE MONTFORT 02310 Villiers-Saint-Denis;02310 VILLIERS ST DENIS;02818;02310;Villiers-Saint-Denis;;;secretariatdirecteur@hlrs-villiers.net;;750814030;;F020000303;;;1;France;LA RENAISSANCE SANITAIRE;020000303;77566179600034;0323707440;0323707522;;Rue;VICTOR ET LOUISE MONTFORT
7 Rue DES TORTUES ROYES 02820 Saint-Erme-Outre-et-Ramecourt;02820 ST ERME OUTRE ET RAMECOURT;02676;02820;Saint-Erme-Outre-et-Ramecourt;;;cds.admr.sterme@orange.fr;;020011458;;F020005369;;;7;France;CS ADMR SAINT-ERME-OUTRE-ET-RAMECOURT;020005369;;0366407313;0323226090;;Rue;DES TORTUES ROYES
Route DE VERDILLY 02400 Château-Thierry;02400 CHATEAU THIERRY;02168;02400;Château-Thierry;;;direction@ch-chateau-thierry.fr;;020004404;;F020001061;;;;France;CH CHÂTEAU-THIERRY;020001061;26020863200018;0323696900;0323696600;;Route;DE VERDILLY
33 Rue MARCELIN BERTHELOT 02001 Laon;02001 LAON CEDEX;02408;02001;Laon;;;secret.direction@ch-laon.fr;;020000253;;F020000394;;;33;France;CH LAON;020000394;26020871500011;0323243360;0323243333;;Rue;MARCELIN BERTHELOT
Avenue DE L'HÔPITAL 02320 Prémontré;02320 PREMONTRE;02619;02320;Prémontré;;;secretariat.direction@epsmd-aisne.fr;;020000295;;F020000543;;;;France;ETS PUB SANTÉ MENTALE DE L'AISNE;020000543;26020034000016;0323236608;0323236666;;Avenue;DE L'HÔPITAL
1 Hameau DE POMMERY 02590 Étreillers;02590 ETREILLERS;02296;02590;Étreillers;;;maison.pommery@abej-coquerel.org;;780020715;;F020003943;;;1;France;EHPAD ABEJ ÉTREILLERS;020003943;;0323687774;0323508050;;Hameau;DE POMMERY
1 Boulevard DU DOCTEUR SCHWEITZER 02315 Saint-Quentin;02315 ST QUENTIN CEDEX;02691;02315;Saint-Quentin;;;stephane.martin@elsan.care;;020001632;;F020010047;;CS 90448;1;France;HOPITAL PRIVE SAINT CLAUDE;020010047;32345727500010;0323645019;0323645002;;Boulevard;DU DOCTEUR SCHWEITZER
60 Rue DE TERGNIER 02800 Beautor;02800 BEAUTOR;02059;02800;Beautor;;;lam.beautor@laposte.net;;020015277;;F020015285;;;60;France;LBM BIOMÉDIQUAL BEAUTOR;020015285;40749374100018;0323567571;0323563468;;Rue;DE TERGNIER
8 Rue AMBROISE CROIZAT 03630 Désertines;03630 DESERTINES;03098;03630;Désertines;;;arthaud@elsan.com;;030000426;;F030781116;;BP 35 03103 MONTLUÇON CEDEX;8;France;HOPITAL PRIVE SAINT-FRANCOIS;030781116;91725015100029;0470054464;0826399929;;Rue;AMBROISE CROIZAT
Boulevard DENIERE 03201 Vichy;03201 VICHY CEDEX;03310;03201;Vichy;;;;;030780118;;F030000087;;BP 2757;;France;CH JACQUES LACARIN VICHY;030000087;26030026400017;0470973303;0470973333;;Boulevard;DENIERE
22 Rue DE VILLARS 03000 Moulins;03000 MOULINS;03190;03000;Moulins;;;villars.accueil@wanadoo.fr;;030000509;;F030782619;;;22;France;"EHPAD """"VILLARS ACCUEIL""""";030782619;77903965000014;;0470463121;;Rue;DE VILLARS
18 Avenue DU 8 MAI 1945 03109 Montluçon;03109 MONTLUCON CEDEX;03185;03109;Montluçon;;;;;030780100;260300173;F030780100;;;18;France;CENTRE HOSPITALIER DE MONTLUCON;;;0470059748;0470023030;;Avenue;DU 8 MAI 1945
10 Avenue DU GENERAL DE GAULLE 03006 Moulins;03006 MOULINS CEDEX;03190;03006;Moulins;;;dircom@ch-moulins-yzeure.fr;;030780092;;F030000061;;BP 609;10;France;CENTRE HOSPITALIER DE MOULINS;030000061;26030383900013;0470357799;0470357777;;Avenue;DU GENERAL DE GAULLE
6 B Rue DU PAVE 03360 Ainay-le-Château;03360 AINAY LE CHATEAU;03003;03360;Ainay-le-Château;;;;;030780282;;F030000160;B;;6;France;CENTRE HOSPITALIER SPECIALISE D'AINAY;030000160;26030493600016;0470022600;0470022626;;Rue;DU PAVE
16 Rue VOLTAIRE 03310 Néris-les-Bains;03310 NERIS LES BAINS;03195;03310;Néris-les-Bains;;;;;030180020;;F030000012;;;16;France;CH DE NERIS LES BAINS;030000012;26030498500013;0470085548;0470085300;;Rue;VOLTAIRE
16 Place VICTOR HUGO 03300;03300 CUSSET;;03300;;CABINET INFIRMIER MME JOUVE;;;;;;C03608484600;;;16;France;CABINET INFIRMIER MME JOUVE;;;;0626166327;;Place;VICTOR HUGO
Route DE GENNETINES 03401 Yzeure;03401 YZEURE CEDEX;03321;03401;Yzeure;;;dircom@ch-moulins-yzeure.fr;;030780092;;F030780589;;BP 23;;France;CENTRE HOSPITALIER SPECIALISE YZEURE;030780589;26030383900054;;0470203333;;Route;DE GENNETINES
11 Place JEAN JAURES 03200;03200 VICHY;;03200;;CABINET MME CALVARIN;;;;;;C03910112600;;;11;France;CABINET MME CALVARIN;;;;0470967287;;Place;JEAN JAURES
73 Route DE SAULCET 03500 Saint-Pourçain-sur-Sioule;03500 ST POURCAIN SUR SIOULE;03254;03500;Saint-Pourçain-sur-Sioule;;;ime.lamosaique@yahoo.fr;;030007256;;F030780332;;;73;France;IME LA MOSAIQUE;030780332;;0470459495;0470453438;;Route;DE SAULCET
4 Avenue DE LA LIBERATION 04203 Sisteron;04203 SISTERON CEDEX;04209;04203;Sisteron;;;dafc@chicas-gap.fr;;050002948;;F040000135;;BP 99;4;France;CHI DES ALPES DU SUD SITE DE SISTERON;040000135;26050347900057;0492337181;0492337000;;Avenue;DE LA LIBERATION
Route DE VALENSOLE 04700 Oraison;04700 ORAISON;04143;04700;Oraison;;;direction-oraison@orange.fr;;040000929;;F040788903;;;;France;EHPAD LES OPALINES;040788903;42451372900014;0492706053;0492787003;;Route;DE VALENSOLE
2 Avenue DU STADE 04200;04200 SISTERON;;04200;;CABINET INFIRMIER MME SERVAIS;CABINET LE SISTERONAIS;;;;;C04604575300;;;2;France;CABINET INFIRMIER MME SERVAIS;;;;0671149880;;Avenue;DU STADE
Rue AUGUSTE GIRARD 04101 Manosque;04101 MANOSQUE CEDEX;04112;04101;Manosque;;;direction@ch-manosque.fr;;040780215;;F040000093;;BP 108;;France;CENTRE HOSPITALIER DE MANOSQUE;040000093;26040016300077;0492777848;0492734210;;Rue;AUGUSTE GIRARD
Route DE FORCALQUIER 04700;04700 LA BRILLANNE;;04700;;CABINET MME BAGGIONI;;;;;;C04913616100;;LE JAS;;France;CABINET MME BAGGIONI;;;;0492765782;;Route;DE FORCALQUIER
Quartier SAINT CHRISTOPHE 04003 Digne-les-Bains;04003 DIGNE LES BAINS CEDEX;04070;04003;Digne-les-Bains;;;direction@ch-digne.fr;;040788879;;F040000911;;BP 213;;France;CENTRE HOSPITALIER DE DIGNE LES BAINS;040000911;26040358900013;0492301400;0492301403;;Quartier;SAINT CHRISTOPHE
Immeuble LE PIOURE 05600;05600 GUILLESTRE;;05600;;LES OPTICIENS DU GUILLESTROIS;;;;;;C53950967900012;;;;France;LES OPTICIENS DU GUILLESTROIS;;53950967900012;;;;Immeuble;LE PIOURE
70 Route DE GRENOBLE 05105 Briançon;05105 BRIANCON CEDEX;05023;05105;Briançon;;;julie.vanriet-margueron@ugecam-pacac.cnamts.fr;;130037815;;F050000041;;;70;France;CENTRE MEDICAL RHONE AZUR BRIANCON;050000041;43017105800174;0492453490;0826464655;;Route;DE GRENOBLE
LE QUEYRON 05600 Guillestre;05600 GUILLESTRE;05065;05600;Guillestre;;;direction.guilecrins@guilecrins.fr;;050005206;;F050002047;;;;France;EHPAD AUGUSTIN GUILLAUME;050002047;26050344600015;0492454761;0492454760;;;LE QUEYRON
Route DE CHAUDEFEUILLE 05000 Gap;05000 GAP;05061;05000;Gap;;;a.beaugrand@adsea05.fr;;050001544;;F050003979;;;;France;FAM ADSEA;050003979;77554975100151;;0492518629;;Route;DE CHAUDEFEUILLE
1 Place AUGUSTE MURET 05007 Gap;05007 GAP CEDEX;05061;05007;Gap;;;dafc@chicas-gap.fr;;050002948;;F050000348;;BP 101;1;France;CHI DES ALPES DU SUD SITE DE GAP;050000348;26050347900016;0492406103;0492406161;;Place;AUGUSTE MURET
24 Avenue ADRIEN DAURELLE 05105 Briançon;05105 BRIANCON CEDEX;05023;05105;Briançon;;;daf@ch-briancon.fr;;050000116;;F050000231;;;24;France;CH DES ESCARTONS DE BRIANCON;050000231;26050004600016;0492252109;0492252100;;Avenue;ADRIEN DAURELLE
05260 Saint-Léger-les-Mélèzes;05260 ST LEGER LES MELEZES;05149;05260;Saint-Léger-les-Mélèzes;;;infos@la-source-sa.com;;050000082;;F050000066;;;;France;CENTRE MEDICAL LA SOURCE;050000066;38595018300017;0492507019;0492504703;;;
05130 Sigoyer;05130 SIGOYER;05168;05130;Sigoyer;;;guerins@groupe-sos.org;;750015968;;F050002336;;;;France;FOYER DE VIE LES GUERINS;050002336;;;0492579900;;;
2 Rue SAINTE MARGUERITE 05000;05000 GAP;;05000;;CABINET MME BERTRAND;LE DAUPHINE A;;;;;C05910043800;;;2;France;CABINET MME BERTRAND;;;;0492538687;;Rue;SAINTE MARGUERITE
Espace PLUG IN 04300;04300 FORCALQUIER;;04300;;CABINET ORTHOPHONISTE MME ROCHER;;;;;;C05910093302;;ZAE LES CHALUS;;France;CABINET ORTHOPHONISTE MME ROCHER;;;;0767317167;;Espace;PLUG IN
606 Boulevard DU MERCANTOUR 06200;06200 NICE;;06200;;SARL VICAND - KRYS;;;;;;C80306176100026;;CC CARREFOUR LINGOSTIERE;606;France;SARL VICAND - KRYS;;80306176100026;;;;Boulevard;DU MERCANTOUR
22 Boulevard MARECHAL LECLERC 06600;06600 ANTIBES;;06600;;SAS SUDOPTIC;;;;;;C52460525000017;;;22;France;SAS SUDOPTIC;;52460525000017;;;;Boulevard;MARECHAL LECLERC
122 Rue D'ANTIBES 06400;06400 CANNES;;06400;;GRANDVISION FRANCE - GO127;;;;;;C49278795704431;;;122;France;GRANDVISION FRANCE - GO127;;49278795704431;;;;Rue;D'ANTIBES
107 Avenue DE NICE 06606 Antibes;06606 ANTIBES CEDEX;06004;06606;Antibes;;;secretariat.direction@ch-antibes.fr;;060780954;;F060000510;;;107;France;CH D'ANTIBES JUAN LES PINS;060000510;26060015000015;0497247797;0497247890;;Avenue;DE NICE
12 Boulevard AUGUSTE RAYNAUD 06100;06100 NICE;;06100;;CABINET MME MARTIN;;;;;;C06601186700;;;12;France;CABINET MME MARTIN;;;;0493513434;;Boulevard;AUGUSTE RAYNAUD
15 Avenue DES BROUSSAILLES 06414 Cannes;06414 CANNES CEDEX;06029;06414;Cannes;;;direction@ch-cannes.fr;;060780988;;F060000544;;CS 50008;15;France;CH DE CANNES SIMONE VEIL;060000544;26060020000018;0493697009;0493697001;;Avenue;DES BROUSSAILLES
30 Avenue DE LA VOIE ROMAINE 06000 Nice;06000 NICE;06088;06000;Nice;;;direction-pasteur@chu-nice.fr;;060785011;;F060785003;;;30;France;CHU DE NICE HOPITAL PASTEUR;060785003;26060070500099;0492038335;0492037609;;Avenue;DE LA VOIE ROMAINE
122 Avenue DU DOCTEUR MAURICE DONAT 06254 Mougins;06254 MOUGINS CEDEX;06085;06254;Mougins;;;clinique.plein.ciel@tzanck.org;;060780608;;F060785219;;BP 1250;122;France;CLINIQUE PLEIN CIEL;060785219;69642130400028;0497166501;0497166500;;Avenue;DU DOCTEUR MAURICE DONAT
7 Avenue DURANTE 06004 Nice;06004 NICE CEDEX 1;06088;06004;Nice;;2 AV DE RIMIEZ 06100 NICE;dir@clinique-saint-antoine.com;;060000635;;F060781200;;BP 1211;7;France;CLINIQUE SAINT ANTOINE;060781200;95780871000017;0493167799;0493167600;;Avenue;DURANTE
151 Route SAINT ANTOINE DE GINESTIERE 06200 Nice;06200 NICE;06088;06200;Nice;;;dg@chu-nice.fr;;060785011;;F060789195;;BP 79;151;France;CHU DE NICE HOPITAL DE L'ARCHET;060789195;26060070500073;0492035760;0492035525;;Route;SAINT ANTOINE DE GINESTIERE
