Code NAF;Intitule NAF;Intitule NAF 65;Intitule NAF 40
120;Fabrication de produits à base de tabac;Fabrication de produits à base de tabac;Fabrication de produits à base de tabac
163;Traitement primaire des récoltes;Traitement primaire des récoltes;Traitement primaire des récoltes
1391Z;Fabrication d'étoffes à mailles;Fabrication d'étoffes à mailles;Fabrication d'étoffes à mailles
114;Culture de la canne à sucre;Culture de la canne à sucre;Culture de la canne à sucre
161;Sciage et rabotage du bois;Sciage et rabotage du bois;Sciage et rabotage du bois
0220Z;Exploitation forestière;Exploitation forestière;Exploitation forestière
11;Fabrication de boissons;Fabrication de boissons;Fabrication de boissons
10;Industries alimentaires;Industries alimentaires;Industries alimentaires
1081;Fabrication de sucre;Fabrication de sucre;Fabrication de sucre
1320;Tissage;Tissage;Tissage
2823Z;Fabrication de machines et d'équipements de bureau (à l'exception des ordinateurs et équipements périphériques);Fab. machines équipts bureau (sf ordinateurs & équipts périph.);Fab. machine équipt bureau (sf ordinat.)
4782;Commerce de détail de textiles, d'habillement et de chaussures sur éventaires et marchés;Comm. détail textiles habillt & chaussures s/éventaires & marchés;Cd textiles habillt & chauss. s/marchés
4774;Commerce de détail d'articles médicaux et orthopédiques en magasin spécialisé;Comm. détail d'articles médicaux & orthopédiques en magasin spéc.;Com. dét. art. médicaux & orthopéd. (ms)
4614Z;Intermédiaires du commerce en machines, équipements industriels, navires et avions;Interm. comm. machines, équipts industriels, navires et avions;Int. comm. équipt indus., navire & avion
2711Z;Fabrication de moteurs, génératrices et transformateurs électriques;Fabrication de moteurs, génératrices, transformateurs électriques;Fab. moteur génér. transfo. & mat. élec.
4763Z;Commerce de détail d'enregistrements musicaux et vidéo en magasin spécialisé;Comm. détail enreg. musicaux & vidéo (magasin spécialisé);Com. dét. enreg. musicaux & vidéo (ms)
4676Z;Commerce de gros (commerce interentreprises) d'autres produits intermédiaires;Commerce de gros d'autres produits intermédiaires;Commerce gros d'aut. prod. intermédiaire
4645;Commerce de gros de parfumerie et de produits de beauté;Commerce de gros de parfumerie et de produits de beauté;Com. gros parfumerie & produit de beauté
4719;Autre commerce de détail en magasin non spécialisé;Autre commerce de détail en magasin non spécialisé;Autre comm. détail en magasin non spéc.
251;Fabrication d'éléments en métal pour la construction;Fabrication d'éléments en métal pour la construction;Fab. élément en métal pour la construct.
1020Z;Transformation et conservation de poisson, de crustacés et de mollusques;Transform. & conserv. poisson, crustacés & mollusques;Transf. & conserv. poisson, crust., etc.
1729;Fabrication d'autres articles en papier ou en carton;Fabrication d'autres articles en papier ou en carton;Fab. aut. article en papier ou en carton
1051;Exploitation de laiteries et fabrication de fromage;Exploitation de laiteries et fabrication de fromage;Expl. de laiteries et fabric. de fromage
2752Z;Fabrication d'appareils ménagers non électriques;Fabrication d'appareils ménagers non électriques;Fab. appareils ménagers non électriques
2740Z;Fabrication d'appareils d'éclairage électrique;Fabrication d'appareils d'éclairage électrique;Fabric. appareils d'éclairage électrique
261;Fabrication de composants et cartes électroniques;Fabrication de composants et cartes électroniques;Fab. de composants & cartes électroniq.
2370;Taille, façonnage et finissage de pierres;Taille, façonnage et finissage de pierres;Taille, façonnage & finissage de pierres
1712Z;Fabrication de papier et de carton;Fabrication de papier et de carton;Fabrication de papier et de carton
2821;Fabrication de fours et brûleurs;Fabrication de fours et brûleurs;Fabrication de fours et brûleurs
812;Exploitation de gravières et sablières, extraction d’argiles et de kaolin;Exploit gravieres & sablieres, extraction argiles & kaolin;Exploit. gravière & sabl., extr. argile
3822;Traitement et élimination des déchets dangereux;Traitement et élimination des déchets dangereux;Traitmnt & élimination déchets dangereux
3011Z;Construction de navires et de structures flottantes;Construction de navires et de structures flottantes;Construct. navires & structure flottante
3522;Distribution de combustibles gazeux par conduites;Distribution de combustibles gazeux par conduites;Distrib. combustible gazeux pr conduites
2822;Fabrication de matériel de levage et de manutention;Fabrication de matériel de levage et de manutention;Fab. matériel de levage & de manutention
4519;Commerce d'autres véhicules automobiles;Commerce d'autres véhicules automobiles;Commerce d'autres véhicules automobiles
3299;Autres activités manufacturières n.c.a.;Autres activités manufacturières n.c.a.;Autres activités manufacturières n.c.a.
2849;Fabrication d'autres machines-outils;Fabrication d'autres machines-outils;Fabrication d'autres machines-outils
4213;Construction de ponts et tunnels;Construction de ponts et tunnels;Construction de ponts et tunnels
3091;Fabrication de motocycles;Fabrication de motocycles;Fabrication de motocycles
6619B;Autres activités auxiliaires de services financiers, hors assurance et caisses de retraite, n.c.a.;Aut. activ. auxil. serv. financ., hors assur. & caisse retr. nca.;Aut. aux. sce financ. hs ass. retr. nca.
5221;Services auxiliaires des transports terrestres;Services auxiliaires des transports terrestres;Sces auxiliaires de transport terrestre
501;Transports maritimes et côtiers de passagers;Transports maritimes et côtiers de passagers;Transport maritime & côtier de passagers
4931Z;Transports urbains et suburbains de voyageurs;Transports urbains et suburbains de voyageurs;Transport urbain & suburbain de voyageur
532;Autres activités de poste et de courrier;Autres activités de poste et de courrier;Autres activités de poste et de courrier
6611Z;Administration de marchés financiers;Administration de marchés financiers;Administration de marchés financiers
5110Z;Transports aériens de passagers;Transports aériens de passagers;Transports aériens de passagers
6209;Autres activités informatiques;Autres activités informatiques;Autres activités informatiques
6201;Programmation informatique;Programmation informatique;Programmation informatique
6312;Portails Internet;Portails Internet;Portails Internet
8291Z;Activités des agences de recouvrement de factures et des sociétés d'information financière sur la clientèle;Activ. de recouvrement factures & d'info. financ. s/la clientèle;Act. recouv. fac. & info. fin. s/client.
91;Bibliothèques, archives, musées et autres activités culturelles;Bibliothèques, archives, musées et autres activités culturelles;Biblioth. archive musée & aut. act. cul.
7721;Location et location-bail d'articles de loisirs et de sport;Location et location-bail d'articles de loisirs et de sport;Loc. & loc.-bail article loisir & sport
9492;Activités des organisations politiques;Activités des organisations politiques;Activités des organisations politiques
7010;Activités des sièges sociaux;Activités des sièges sociaux;Activités des sièges sociaux
9604Z;Entretien corporel;Entretien corporel;Entretien corporel
0163Z;Traitement primaire des récoltes;Traitement primaire des récoltes;Traitement primaire des récoltes
127;Culture de plantes à boissons;Culture de plantes à boissons;Culture de plantes à boissons
220;Exploitation forestière;Exploitation forestière;Exploitation forestière
13;Reproduction de plantes;Reproduction de plantes;Reproduction de plantes
0112Z;Culture du riz;Culture du riz;Culture du riz
2223;Fabrication d'éléments en matières plastiques pour la construction;Fabrication d'éléments matières plastiques pour la construction;Fab. élément mat. plastiq. pr construct.
2332Z;Fabrication de briques, tuiles et produits de construction, en terre cuite;Fabrication briques tuiles & prod. de construction en terre cuite;Fab. produit  construct. en terre cuite
2319Z;Fabrication et façonnage d'autres articles en verre, y compris verre technique;Fabrication & façonnage autres articles verre yc verre technique;Fab. & façonnage aut. article en verre
1623;Fabrication de charpentes et d'autres menuiseries;Fabrication de charpentes et d'autres menuiseries;Fab. charpentes et autres menuiseries
1610A;Sciage et rabotage du bois, hors imprégnation;Sciage et rabotage du bois, hors imprégnation;Sciage & rabotage bois, sf imprégnation
1621;Fabrication de placage et de panneaux de bois;Fabrication de placage et de panneaux de bois;Fabric.  placage et panneaux de bois
2017Z;Fabrication de caoutchouc synthétique;Fabrication de caoutchouc synthétique;Fabrication de caoutchouc synthétique
1610B;Imprégnation du bois;Imprégnation du bois;Imprégnation du bois
1811Z;Imprimerie de journaux;Imprimerie de journaux;Imprimerie de journaux
1920Z;Raffinage du pétrole;Raffinage du pétrole;Raffinage du pétrole
1042;Fabrication de margarine et graisses comestibles similaires;Fabrication de margarine et graisses comestibles similaires;Fab. de margarine & graisses similaires
0910Z;Activités de soutien à l'extraction d'hydrocarbures;Activités de soutien à l'extraction d'hydrocarbures;Act. de soutien à l'extr. hydrocarbures
1101;Production de boissons alcooliques distillées;Production de boissons alcooliques distillées;Prod. de boissons alcooliques distillées
1092;Fabrication d'aliments pour animaux de compagnie;Fabrication d'aliments pour animaux de compagnie;Fab. aliments pour animaux de compagnie
899;Autres activités extractives n.c.a.;Autres activités extractives n.c.a.;Autres activités extractives n.c.a.
1413Z;Fabrication de vêtements de dessus;Fabrication de vêtements de dessus;Fabrication de vêtements de dessus
1420;Fabrication d'articles en fourrure;Fabrication d'articles en fourrure;Fabrication d'articles en fourrure
1052;Fabrication de glaces et sorbets;Fabrication de glaces et sorbets;Fabrication de glaces et sorbets
1085Z;Fabrication de plats préparés;Fabrication de plats préparés;Fabrication de plats préparés
311;Pêche en mer;Pêche en mer;Pêche en mer
2825;Fabrication d'équipements aérauliques et frigorifiques industriels;Fabrication équipements aérauliques et frigorifiques industriels;Fab. équipt aérauliq. & frigorifiq. ind.
2362;Fabrication d'éléments en plâtre pour la construction;Fabrication d'éléments en plâtre pour la construction;Fab. élément en plâtre pour la construc.
2620;Fabrication d'ordinateurs et d'équipements périphériques;Fabrication d'ordinateurs et d'équipements périphériques;Fab. ordinateur & équipement périphériq.
2733Z;Fabrication de matériel d'installation électrique;Fabrication de matériel d'installation électrique;Fabric. matériel installation électrique
2592Z;Fabrication d'emballages métalliques légers;Fabrication d'emballages métalliques légers;Fabric. d'emballages métalliques légers
3102;Fabrication de meubles de cuisine;Fabrication de meubles de cuisine;Fabrication de meubles de cuisine
2391;Fabrication de produits abrasifs;Fabrication de produits abrasifs;Fabrication de produits abrasifs
5520Z;Hébergement touristique et autre hébergement de courte durée;Hébergement touristique et autre hébergement de courte durée;Hébergt tourist. & aut. hbt courte durée
6430Z;Fonds de placement et entités financières similaires;Fonds de placement et entités financières similaires;Fonds placement & entité financ. simil.
6619A;Supports juridiques de gestion de patrimoine mobilier;Supports juridiques de gestion de patrimoine mobilier;Support juridiq. gest. patrimoine mobil.
52;Entreposage et services auxiliaires des transports;Entreposage et services auxiliaires des transports;Entreposage & sce auxiliaire des transp.
5829A;Édition de logiciels système et de réseau;Édition de logiciels système et de réseau;Édition de logiciel système et de réseau
6612;Courtage de valeurs mobilières et de marchandises;Courtage de valeurs mobilières et de marchandises;Courtage valeur mobilière & marchandise
7120B;Analyses, essais et inspections techniques;Analyses, essais et inspections techniques;Analyses, essais & inspection technique
6020A;Edition de chaînes généralistes;Edition de chaînes généralistes;Edition de chaînes généralistes
582;Édition de logiciels;Édition de logiciels;Édition de logiciels
6512Z;Autres assurances;Autres assurances;Autres assurances
98;Activités indifférenciées des ménages en tant que producteurs de biens et services pour usage propre;Activ. ménages : prod. biens & services (usage propre);Act. ménage : prod. b.&s. (usage propre)
7711A;Location de courte durée de voitures et de véhicules automobiles légers;Location de courte durée voitures & véhicules auto. légers;Loc. courte durée voit. & v. auto. léger
